Aula_11_04_22/maquina_de_estados_01/simulation/qsim/maquina_de_estados_01.msim.vcd
$comment
	File created using the following command:
		vcd file maquina_de_estados_01.msim.vcd -direction
$end
$date
	Mon Apr 18 14:04:15 2022
$end
$version
	ModelSim Version 2020.1
$end
$timescale
	1ps
$end

$scope module maquina_de_estados_01_vlg_vec_tst $end
$var reg 1 ! Clock $end
$var reg 1 " In $end
$var reg 1 # Reset $end
$var wire 1 $ D1 $end
$var wire 1 % D2 $end
$var wire 1 & Z $end

$scope module i1 $end
$var wire 1 ' gnd $end
$var wire 1 ( vcc $end
$var wire 1 ) unknown $end
$var tri1 1 * devclrn $end
$var tri1 1 + devpor $end
$var tri1 1 , devoe $end
$var wire 1 - ~QUARTUS_CREATED_GND~I_combout $end
$var wire 1 . Clock~input_o $end
$var wire 1 / Clock~inputCLKENA0_outclk $end
$var wire 1 0 In~input_o $end
$var wire 1 1 Reset~input_o $end
$var wire 1 2 D1~reg0_q $end
$var wire 1 3 Z~0_combout $end
$var wire 1 4 Z~reg0_q $end
$upscope $end
$upscope $end
$enddefinitions $end
#0
$dumpvars
1!
0"
0#
0$
0%
0&
0'
1(
x)
1*
1+
1,
0-
1.
1/
00
01
02
03
04
$end
#10000
1"
10
#20000
0"
00
#30000
1"
10
#40000
0"
00
#50000
1"
10
#60000
0"
00
#70000
1"
10
#80000
0"
00
#90000
1"
10
#100000
0"
00
#110000
1"
10
#120000
0"
00
#130000
1"
10
#140000
0"
00
#150000
1"
10
#160000
1#
0"
11
00
#170000
1"
10
#180000
0"
00
#190000
1"
10
#200000
0"
00
#210000
1"
10
#220000
0"
00
#230000
1"
10
#240000
0"
00
#250000
1"
10
#260000
0"
00
#270000
1"
10
#280000
0"
00
#290000
1"
10
#300000
0"
00
#310000
1"
10
#320000
0"
00
#330000
1"
10
#340000
0"
00
#350000
1"
10
#360000
0"
00
#370000
1"
10
#380000
0"
00
#390000
1"
10
#400000
0"
00
#410000
1"
10
#420000
0"
00
#430000
1"
10
#440000
0"
00
#450000
1"
10
#460000
0"
00
#470000
1"
10
#480000
0"
00
#490000
1"
10
#500000
0"
00
#510000
1"
10
#520000
0"
00
#530000
1"
10
#540000
0"
00
#550000
1"
10
#560000
0"
00
#570000
1"
10
#580000
0"
00
#590000
1"
10
#600000
0"
00
#610000
1"
10
#620000
0"
00
#630000
1"
10
#640000
0"
00
#650000
1"
10
#660000
0"
00
#670000
1"
10
#680000
0"
00
#690000
1"
10
#700000
0"
00
#710000
1"
10
#720000
0"
00
#730000
1"
10
#740000
0"
00
#750000
1"
10
#760000
0"
00
#770000
1"
10
#780000
0"
00
#790000
1"
10
#800000
0"
00
#810000
1"
10
#820000
0"
00
#830000
1"
10
#840000
0"
00
#850000
1"
10
#860000
0"
00
#870000
1"
10
#880000
0"
00
#890000
1"
10
#900000
0"
00
#910000
1"
10
#920000
0"
00
#930000
1"
10
#940000
0"
00
#950000
1"
10
#960000
0"
00
#970000
1"
10
#980000
0"
00
#990000
1"
10
