Projeto Segunda Avaliacao/projeto_01/simulation/qsim/projeto_01.msim.vcd
$comment
	File created using the following command:
		vcd file projeto_01.msim.vcd -direction
$end
$date
	Fri May 13 16:00:38 2022
$end
$version
	ModelSim Version 2020.1
$end
$timescale
	1ps
$end

$scope module projeto_01_vlg_vec_tst $end
$var reg 1 ! clk $end
$var reg 1 " modo $end
$var reg 1 # rst $end
$var wire 1 $ AmA $end
$var wire 1 % AmB $end
$var wire 1 & VdA $end
$var wire 1 ' VdB $end
$var wire 1 ( VmA $end
$var wire 1 ) VmB $end

$scope module i1 $end
$var wire 1 * gnd $end
$var wire 1 + vcc $end
$var wire 1 , unknown $end
$var tri1 1 - devclrn $end
$var tri1 1 . devpor $end
$var tri1 1 / devoe $end
$var wire 1 0 ~QUARTUS_CREATED_GND~I_combout $end
$var wire 1 1 clk~input_o $end
$var wire 1 2 clk~inputCLKENA0_outclk $end
$var wire 1 3 modo~input_o $end
$var wire 1 4 Selector2~0_combout $end
$var wire 1 5 rst~input_o $end
$var wire 1 6 estado.N1~q $end
$var wire 1 7 Selector8~0_combout $end
$var wire 1 8 estado.C2~q $end
$var wire 1 9 Selector9~0_combout $end
$var wire 1 : estado.C3~q $end
$var wire 1 ; Selector10~0_combout $end
$var wire 1 < estado.D~q $end
$var wire 1 = Selector2~2_combout $end
$var wire 1 > estado.N2~q $end
$var wire 1 ? Selector2~1_combout $end
$var wire 1 @ estado.A1~q $end
$var wire 1 A Selector1~0_combout $end
$var wire 1 B estado.A2~q $end
$var wire 1 C Selector4~0_combout $end
$var wire 1 D estado.A3~q $end
$var wire 1 E Selector5~0_combout $end
$var wire 1 F estado.A4~q $end
$var wire 1 G Selector6~0_combout $end
$var wire 1 H estado.B~q $end
$var wire 1 I Selector7~0_combout $end
$var wire 1 J estado.C1~q $end
$var wire 1 K WideOr0~combout $end
$var wire 1 L AmA~0_combout $end
$var wire 1 M Selector0~0_combout $end
$var wire 1 N Selector0~1_combout $end
$var wire 1 O AmB~0_combout $end
$var wire 1 P WideOr0~0_combout $end
$upscope $end
$upscope $end
$enddefinitions $end
#0
$dumpvars
0!
0"
0#
0$
0%
1&
0'
0(
1)
0*
1+
x,
1-
1.
1/
00
01
02
03
04
05
06
07
08
09
0:
0;
0<
0=
0>
1?
0@
1A
0B
0C
0D
0E
0F
0G
0H
0I
0J
0K
0L
0M
1N
1O
1P
$end
#10000
1!
11
12
#20000
1#
0!
15
01
02
#30000
1!
11
12
1B
1@
0A
1C
#40000
0!
01
02
#50000
1!
11
12
1D
0B
0C
1E
#60000
0!
01
02
#70000
1!
11
12
1F
0D
0E
1G
#80000
0!
01
02
#90000
1"
1!
13
11
12
0G
14
1H
0F
1M
1L
1$
0&
#100000
0!
01
02
#110000
1!
11
12
0H
16
0O
1=
04
0N
0)
1%
#120000
0!
01
02
#130000
1!
11
12
1>
06
1O
0L
0=
14
0$
0%
#140000
0!
01
02
#150000
1!
11
12
0>
16
0O
1L
1=
04
1$
1%
#160000
0!
01
02
#170000
1!
11
12
1>
06
1O
0L
0=
14
0$
0%
#180000
0!
01
02
#190000
1!
11
12
0>
16
0O
1L
1=
04
1$
1%
#200000
0"
0!
03
01
02
0?
0=
#210000
1!
11
12
0@
06
1O
0M
0L
1?
1N
1A
1)
0$
1&
0%
#220000
0!
01
02
#230000
1!
11
12
1B
1@
0A
1C
#240000
0!
01
02
#250000
1!
11
12
1D
0B
0C
1E
#260000
0!
01
02
#270000
1!
11
12
1F
0D
0E
1G
#280000
0!
01
02
#290000
1!
11
12
1H
0F
1M
0G
1L
1I
1$
0&
#300000
0!
01
02
#310000
1!
11
12
1J
0H
0P
0N
0L
0I
1K
17
1(
0$
0)
1'
#320000
0!
01
02
#330000
1!
11
12
0J
18
19
07
#340000
0!
01
02
#350000
1!
11
12
1:
08
09
1;
#360000
0!
01
02
#370000
1!
11
12
1<
0:
1P
0O
0;
0?
1%
0'
#380000
0!
01
02
#390000
1!
11
12
0@
0<
1O
0M
0K
1?
1N
1A
1)
0(
1&
0%
#400000
0!
01
02
#410000
1!
11
12
1B
1@
0A
1C
#420000
0!
01
02
#430000
1!
11
12
1D
0B
0C
1E
#440000
0!
01
02
#450000
1!
11
12
1F
0D
0E
1G
#460000
0!
01
02
#470000
1!
11
12
1H
0F
1M
0G
1L
1I
1$
0&
#480000
0!
01
02
#490000
1!
11
12
1J
0H
0P
0N
0L
0I
1K
17
1(
0$
0)
1'
#500000
0!
01
02
#510000
1!
11
12
0J
18
19
07
#520000
0!
01
02
#530000
1!
11
12
1:
08
09
1;
#540000
0!
01
02
#550000
1!
11
12
1<
0:
1P
0O
0;
0?
1%
0'
#560000
0!
01
02
#570000
1!
11
12
0@
0<
1O
0M
0K
1?
1N
1A
1)
0(
1&
0%
#580000
0!
01
02
#590000
1!
11
12
1B
1@
0A
1C
#600000
0!
01
02
#610000
1!
11
12
1D
0B
0C
1E
#620000
0!
01
02
#630000
1!
11
12
1F
0D
0E
1G
#640000
0!
01
02
#650000
1!
11
12
1H
0F
1M
0G
1L
1I
1$
0&
#660000
0!
01
02
#670000
1!
11
12
1J
0H
0P
0N
0L
0I
1K
17
1(
0$
0)
1'
#680000
0!
01
02
#690000
1!
11
12
0J
18
19
07
#700000
0!
01
02
#710000
1!
11
12
1:
08
09
1;
#720000
0!
01
02
#730000
1!
11
12
1<
0:
1P
0O
0;
0?
1%
0'
#740000
0!
01
02
#750000
1!
11
12
0@
0<
1O
0M
0K
1?
1N
1A
1)
0(
1&
0%
#760000
0!
01
02
#770000
1!
11
12
1B
1@
0A
1C
#780000
0!
01
02
#790000
1!
11
12
1D
0B
0C
1E
#800000
0!
01
02
#810000
1!
11
12
1F
0D
0E
1G
#820000
0!
01
02
#830000
1!
11
12
1H
0F
1M
0G
1L
1I
1$
0&
#840000
0!
01
02
#850000
1!
11
12
1J
0H
0P
0N
0L
0I
1K
17
1(
0$
0)
1'
#860000
0!
01
02
#870000
1!
11
12
0J
18
19
07
#880000
0!
01
02
#890000
1!
11
12
1:
08
09
1;
#900000
0!
01
02
#910000
1!
11
12
1<
0:
1P
0O
0;
0?
1%
0'
#920000
0!
01
02
#930000
1!
11
12
0@
0<
1O
0M
0K
1?
1N
1A
1)
0(
1&
0%
#940000
0!
01
02
#950000
1!
11
12
1B
1@
0A
1C
#960000
0!
01
02
#970000
1!
11
12
1D
0B
0C
1E
#980000
0!
01
02
#990000
1!
11
12
1F
0D
0E
1G
