Revisao/questao_03/simulation/qsim/questao_03.msim.vcd
$comment
	File created using the following command:
		vcd file questao_03.msim.vcd -direction
$end
$date
	Mon Mar 28 17:01:08 2022
$end
$version
	ModelSim Version 2020.1
$end
$timescale
	1ps
$end

$scope module questao_03_vlg_vec_tst $end
$var reg 3 ! u [2:0] $end
$var reg 3 " v [2:0] $end
$var wire 1 # a [2] $end
$var wire 1 $ a [1] $end
$var wire 1 % a [0] $end
$var wire 1 & b [2] $end
$var wire 1 ' b [1] $end
$var wire 1 ( b [0] $end
$var wire 1 ) c [2] $end
$var wire 1 * c [1] $end
$var wire 1 + c [0] $end
$var wire 1 , d $end
$var wire 1 - e $end
$var wire 1 . f $end

$scope module i1 $end
$var wire 1 / gnd $end
$var wire 1 0 vcc $end
$var wire 1 1 unknown $end
$var tri1 1 2 devclrn $end
$var tri1 1 3 devpor $end
$var tri1 1 4 devoe $end
$var wire 1 5 ~QUARTUS_CREATED_GND~I_combout $end
$var wire 1 6 v[0]~input_o $end
$var wire 1 7 u[0]~input_o $end
$var wire 1 8 a~0_combout $end
$var wire 1 9 u[1]~input_o $end
$var wire 1 : v[1]~input_o $end
$var wire 1 ; a~1_combout $end
$var wire 1 < u[2]~input_o $end
$var wire 1 = v[2]~input_o $end
$var wire 1 > a~2_combout $end
$var wire 1 ? b~0_combout $end
$var wire 1 @ b~1_combout $end
$var wire 1 A b~2_combout $end
$var wire 1 B c~0_combout $end
$var wire 1 C c~1_combout $end
$var wire 1 D c~2_combout $end
$var wire 1 E WideAnd0~combout $end
$var wire 1 F WideOr0~combout $end
$var wire 1 G WideOr1~combout $end
$upscope $end
$upscope $end
$enddefinitions $end
#0
$dumpvars
b0 !
b10 "
0%
0$
0#
0(
1'
0&
0+
1*
0)
0,
1-
0.
0/
10
x1
12
13
14
05
06
07
08
09
1:
0;
0<
0=
0>
0?
1@
0A
0B
1C
0D
0E
1F
0G
$end
#10000
b100 !
b110 !
b111 !
b0 "
b1 "
16
0:
17
19
1<
1G
1E
1D
1A
1?
18
1%
1(
1&
1)
1,
1.
#20000
b11 !
b10 !
b11 "
1:
07
0<
0E
0D
0A
1B
08
0C
1;
1$
0*
0%
1+
0&
0)
0,
#30000
b111 "
b110 "
b110 !
b100 "
1<
06
0:
1=
1A
1>
1C
0;
0B
0?
0(
0+
0$
1*
1#
1&
#40000
b100 !
b101 !
b101 "
b1 !
16
17
09
0<
1D
0>
0C
0@
1?
18
1%
1(
0'
0*
0#
1)
#50000
b1 "
b11 "
b11 !
b10 "
19
06
1:
0=
0D
0A
1@
1;
1B
08
0%
1+
1$
1'
0&
0)
#60000
b111 !
b0 "
b101 !
0:
09
1<
1D
1A
0@
0;
0F
0-
0$
0'
1&
1)
#70000
b100 "
b101 "
b111 "
16
1:
1=
1F
0D
1>
1C
1@
0B
18
1%
0+
1'
1*
1#
0)
1-
#80000
b1 !
b11 "
b10 "
06
0=
0<
0A
0>
1B
08
0%
1+
0#
0&
#90000
b0 "
b101 !
1<
0:
0F
0C
0@
1D
1A
1&
1)
0'
0*
0-
#100000
b100 !
b100 "
b101 "
16
1=
07
1F
0D
1>
1#
0)
1-
#110000
b110 !
b111 "
b111 !
b110 "
06
1:
17
19
1E
1@
1;
1$
1'
1,
#120000
b11 !
b1 !
b100 "
b0 !
b101 "
16
0:
07
09
0<
0G
0E
1D
0>
0@
0;
0$
0'
0#
1)
0,
0.
#130000
b10 !
b111 "
b11 !
b110 "
06
1:
17
19
1G
1@
1;
1$
1'
1.
#140000
b111 !
b101 !
b100 "
b100 !
0:
07
09
1<
0D
1>
0@
0;
0B
0?
0(
0+
0$
0'
1#
0)
#150000
b0 "
b101 !
17
0=
0F
1D
0>
1B
1?
1(
1+
0#
1)
0-
#160000
b111 !
b100 "
1=
19
1E
1C
1@
1F
0D
1>
1#
0)
1-
1'
1*
1,
#170000
b101 "
b101 !
b1 "
09
16
0=
1D
0>
0B
18
0E
0C
0@
0'
0*
0,
1%
0+
0#
1)
#180000
b100 !
b110 !
b101 "
1=
07
19
1C
1@
1B
08
0D
1>
1#
0)
0%
1+
1'
1*
#190000
b100 "
b100 !
b0 "
09
06
0=
0F
1D
0>
0B
0?
0C
0@
0'
0*
0(
0+
0#
1)
0-
#200000
b0 !
b1 !
b1 "
b11 !
16
17
19
0<
0D
0A
1C
1@
1?
18
1F
1-
1%
1(
1'
1*
0&
0)
#210000
b111 !
b0 "
06
1<
1E
1D
1A
0F
1B
08
0%
1+
0-
1&
1)
1,
#220000
b101 !
b1 "
16
09
0E
0C
0@
1F
0B
18
1%
0+
1-
0'
0*
0,
#230000
b101 "
b100 !
b110 !
b100 "
07
19
06
1=
0D
1>
0?
08
1C
1@
1'
1*
0%
0(
1#
0)
#240000
b10 !
b0 "
b0 !
b1 "
16
0=
09
0<
0G
0A
0>
0C
0@
1B
1?
1(
1+
0'
0*
0#
0&
0.
#250000
b11 "
b1 !
17
1:
1C
1@
1G
0B
18
1%
0+
1.
1'
1*
#260000
b11 !
b10 "
06
19
0C
1;
1B
08
0%
1+
1$
0*
#270000
b10 !
b11 "
16
07
#280000
b111 "
b0 !
b1 !
17
09
1=
1D
1A
1C
0;
0B
18
1%
0+
0$
1*
1&
1)
#290000
b101 !
b101 "
b100 "
06
0:
1<
0D
1>
0C
0@
1B
08
0%
1+
0'
0*
1#
0)
#300000
b0 "
b100 !
b1 "
07
16
0=
1D
0>
0#
1)
#310000
b0 !
b11 "
b10 "
06
1:
0<
0G
0D
0A
1C
1@
0B
0?
0(
0+
1'
1*
0&
0)
0.
#320000
b10 !
b110 "
b100 "
b101 "
16
0:
1=
19
1G
1D
1A
1B
1?
1(
1+
1&
1)
1.
#330000
b11 !
b1 !
b100 "
06
17
09
0C
0@
0'
0*
#340000
b110 "
b11 !
19
1:
1@
1;
1$
1'
#350000
b111 !
b10 "
b110 !
b0 "
0:
0=
07
1<
0B
0?
0F
1C
0;
0$
1*
0-
0(
0+
#360000
b1 "
b11 "
16
1:
1F
0C
1;
1B
1?
1(
1+
1$
0*
1-
#370000
b100 !
b111 "
b101 !
b110 "
b100 "
06
0:
1=
17
09
0@
0;
0D
1>
1#
0)
0$
0'
#380000
b111 !
b101 "
16
19
1E
1C
1@
0B
18
1%
0+
1'
1*
1,
#390000
b11 !
b111 "
b110 "
06
1:
0<
0E
1D
0>
0C
1;
1B
08
0%
1+
1$
0*
0#
1)
0,
#400000
b111 !
1<
1E
0D
1>
1#
0)
1,
#410000
b10 "
b110 !
b0 "
07
0:
0=
0F
1D
0>
1C
0;
0E
0B
0?
0(
0+
0,
0$
1*
0#
1)
0-
#420000
b100 !
b100 "
b101 !
1=
17
09
0C
0@
1B
1?
1F
0D
1>
1#
0)
1-
1(
1+
0'
0*
#430000
b101 "
b1 !
b11 !
b1 "
b10 !
07
19
0<
16
0=
0A
0>
1C
1@
1'
1*
0#
0&
#440000
b11 "
b10 "
b110 "
b11 !
17
06
1:
1=
1D
1A
0C
1;
1$
0*
1&
1)
#450000
b111 !
b100 "
b101 "
b1 "
16
0:
0=
1<
1E
1C
0;
0B
18
1%
0+
0$
1*
1,
#460000
b110 !
b11 "
b10 "
b110 "
06
1:
1=
07
0E
0?
08
0D
1>
0C
1;
1$
0*
1#
0)
0%
0(
0,
#470000
b100 !
b100 "
b101 "
16
0:
09
0@
0;
1B
1?
1(
1+
0$
0'
#480000
b101 !
b1 "
b0 "
06
0=
17
0F
1D
0>
0#
1)
0-
#490000
b100 !
07
0B
0?
0(
0+
#500000
b110 !
b1 "
b111 !
16
17
19
1E
1C
1@
1?
18
1F
1-
1%
1(
1'
1*
1,
#510000
b11 !
b11 "
b111 "
b1 !
b110 "
b0 !
06
1:
1=
07
09
0<
0G
0E
0?
08
0%
0(
0,
0.
#520000
b10 "
b1 !
17
0=
0D
0A
1G
1B
1?
1(
1+
1.
0&
0)
#530000
b101 !
b111 !
b110 "
b110 !
1=
07
19
1<
1A
1>
0C
1;
0B
0?
0(
0+
1$
0*
1#
1&
#540000
b100 "
b100 !
b0 "
09
0:
0=
0F
1D
0>
0@
0;
0$
0'
0#
1)
0-
#550000
b100 "
1=
1F
0D
1>
1#
0)
1-
#560000
b110 "
1:
1C
1@
1'
1*
#570000
b10 "
0=
1D
0>
0#
1)
#580000
b0 !
b1 !
b0 "
b100 "
0:
1=
17
0<
1B
1?
0C
0@
0'
0*
1(
1+
#590000
b101 "
b11 !
b111 "
b11 "
19
16
1:
0=
0D
0A
1@
1;
0B
18
1%
0+
1$
1'
0&
0)
#600000
b10 !
b1 "
b101 "
0:
1=
07
1B
08
1D
1A
1C
0;
0$
1*
1&
1)
0%
1+
#610000
b110 !
b100 "
06
1<
0D
1>
0B
0?
0(
0+
1#
0)
#620000
b110 "
b10 "
b10 !
b11 "
0<
16
1:
0=
0A
0>
0C
1;
1B
1?
1(
1+
1$
0*
0#
0&
#630000
b11 !
b1 "
b111 !
0:
17
1<
1E
1D
1A
0B
18
1C
0;
0$
1*
1%
0+
1&
1)
1,
#640000
b101 "
b110 !
07
1=
0D
1>
0E
1B
08
0%
1+
0,
1#
0)
#650000
b100 "
b10 !
0<
06
0B
0?
1D
0>
0#
1)
0(
0+
#660000
b110 "
1:
0C
1;
1$
0*
#670000
b0 !
b100 !
09
1<
0D
1>
1C
0;
0$
1*
1#
0)
#680000
b101 !
b111 "
b101 "
b1 !
16
0:
17
0<
1D
0>
1?
18
0C
0@
0'
0*
1%
1(
0#
1)
#690000
b1 "
b11 !
b0 "
19
06
0=
0F
0D
0A
1B
08
1C
1@
1'
1*
0%
1+
0&
0)
0-
#700000
b100 "
1=
1F
1D
1A
1&
1)
1-
#710000
b10 !
07
0B
0?
0(
0+
#720000
b110 "
b110 !
1<
1:
0C
1;
0D
1>
1#
0)
1$
0*
#730000
b111 "
b11 "
b10 !
0<
16
0=
0A
0>
1B
1?
1(
1+
0#
0&
#740000
b0 !
b10 "
06
09
0G
1C
0;
0B
0?
0(
0+
0$
1*
0.
#750000
b1 !
b0 "
b101 !
b1 "
16
0:
17
1<
1G
1D
1A
1?
18
0C
0@
0'
0*
1%
1(
1&
1)
1.
#760000
b111 !
b110 !
07
19
1C
1@
1B
08
0%
1+
1'
1*
#770000
b11 "
b10 "
b100 !
b101 !
17
09
06
1:
#780000
b111 !
b110 !
07
19
0C
1;
0B
0?
0(
0+
1$
0*
#790000
b11 "
b100 !
09
16
1B
1?
1C
0;
0$
1*
1(
1+
#800000
b111 "
b110 "
06
1=
0D
1>
0B
0?
0(
0+
1#
0)
#810000
b0 !
b10 "
0=
0<
0G
0A
0>
0#
0&
0.
#820000
b0 "
b1 !
b11 !
b100 "
17
19
0:
1=
1D
1A
1G
1B
1?
1(
1+
1.
1&
1)
#830000
b101 "
b111 "
b1 !
09
16
1:
0B
18
1%
0+
#840000
b11 "
b10 "
b11 !
19
06
0=
0D
0A
1B
08
0C
1;
1$
0*
0%
1+
0&
0)
#850000
b111 !
b0 "
b101 !
0:
09
1<
1D
1A
0@
0;
0F
0-
0$
0'
1&
1)
#860000
b100 !
b1 "
b0 !
b11 "
16
1:
07
0<
0G
0D
0A
1F
1C
1@
1'
1*
1-
0&
0)
0.
#870000
b10 !
b1 "
0:
19
1G
1.
#880000
b101 "
b11 !
b111 !
b111 "
17
1<
1:
1=
1A
1>
0C
1;
1E
0B
18
1%
0+
1,
1$
0*
1#
1&
#890000
b110 "
b101 !
b100 !
07
09
06
0?
08
0E
1C
0;
0$
1*
0,
0%
0(
#900000
b0 !
b111 "
b10 !
16
19
0<
1D
0>
0C
1;
1B
1?
1(
1+
1$
0*
0#
1)
#910000
b11 "
b11 !
b1 !
17
09
0=
0D
0A
1C
0;
0B
18
1%
0+
0$
1*
0&
0)
#920000
b1 "
b0 "
b100 "
06
0:
1=
1D
1A
0C
0@
1B
08
0%
1+
0'
0*
1&
1)
#930000
b101 !
b100 !
b0 "
0=
07
1<
0B
0?
0F
0-
0(
0+
#940000
b10 "
b101 !
b110 "
17
1:
1=
1F
0D
1>
1C
1@
1B
1?
1(
1+
1'
1*
1#
0)
1-
#950000
b1 !
b0 !
b10 "
0=
07
0<
0G
0A
0>
0B
0?
0(
0+
0#
0&
0.
#960000
b10 !
b11 "
b1 "
b101 "
16
0:
1=
19
1G
1D
1A
1B
1?
1(
1+
1&
1)
1.
#970000
b0 !
b100 "
b110 "
06
1:
09
0G
0B
0?
0(
0+
0.
#980000
b10 "
b11 "
16
0=
0D
0A
1B
1?
1(
1+
0&
0)
