Revisao/comparador_01/simulation/qsim/comparador_01.msim.vcd
$comment
	File created using the following command:
		vcd file comparador_01.msim.vcd -direction
$end
$date
	Thu Mar 24 18:54:24 2022
$end
$version
	ModelSim Version 2020.1
$end
$timescale
	1ps
$end

$scope module comparador_01_vlg_vec_tst $end
$var reg 8 ! A [7:0] $end
$var reg 8 " B [7:0] $end
$var wire 1 # igual $end
$var wire 1 $ maior $end
$var wire 1 % menor $end

$scope module i1 $end
$var wire 1 & gnd $end
$var wire 1 ' vcc $end
$var wire 1 ( unknown $end
$var tri1 1 ) devclrn $end
$var tri1 1 * devpor $end
$var tri1 1 + devoe $end
$var wire 1 , ~QUARTUS_CREATED_GND~I_combout $end
$var wire 1 - A[5]~input_o $end
$var wire 1 . A[7]~input_o $end
$var wire 1 / B[6]~input_o $end
$var wire 1 0 B[7]~input_o $end
$var wire 1 1 B[5]~input_o $end
$var wire 1 2 A[6]~input_o $end
$var wire 1 3 Equal0~1_combout $end
$var wire 1 4 A[4]~input_o $end
$var wire 1 5 B[0]~input_o $end
$var wire 1 6 A[0]~input_o $end
$var wire 1 7 B[1]~input_o $end
$var wire 1 8 A[1]~input_o $end
$var wire 1 9 Equal0~2_combout $end
$var wire 1 : A[2]~input_o $end
$var wire 1 ; A[3]~input_o $end
$var wire 1 < B[3]~input_o $end
$var wire 1 = B[2]~input_o $end
$var wire 1 > Equal0~0_combout $end
$var wire 1 ? B[4]~input_o $end
$var wire 1 @ Equal0~3_combout $end
$var wire 1 A LessThan0~2_combout $end
$var wire 1 B LessThan0~0_combout $end
$var wire 1 C LessThan0~1_combout $end
$var wire 1 D maior~0_combout $end
$var wire 1 E menor~0_combout $end
$upscope $end
$upscope $end
$enddefinitions $end
#0
$dumpvars
b110010 !
b10101101 "
0#
0$
1%
0&
1'
x(
1)
1*
1+
0,
1-
0.
0/
10
11
02
03
14
15
06
07
18
09
0:
0;
1<
1=
0>
0?
0@
0A
1B
0C
0D
0E
$end
#5000
b10110010 !
b10100010 !
b10101010 !
b10101110 !
b10101100 !
b10100101 "
0<
08
1:
1;
04
1.
13
1C
0B
1E
1D
1$
0%
#10000
b11101100 !
b11100101 "
b11100001 "
b11100000 "
b11100100 !
b11100000 !
b11100010 !
b11101000 "
05
0=
1<
1/
18
0:
0;
12
0C
1B
0E
0D
0$
1%
#15000
b11100011 !
b11001000 "
b11110011 !
b11001001 "
b11000001 "
15
0<
01
16
14
1E
1A
03
1C
1>
1D
1$
0%
#20000
b11010001 "
b11010011 "
b1110011 !
b110011 !
b10010011 "
b10010111 "
b111011 !
b111010 !
b10110111 "
b101010 !
b10111111 "
06
1;
04
02
0.
17
1=
1<
1?
11
0/
0A
0C
0>
0B
0E
0D
0$
1%
#25000
b111111 "
b111110 "
b101110 "
b101100 "
b10101010 !
b101000 "
b10100010 !
b10110010 !
0;
14
1.
05
07
0=
0?
00
1A
1B
1E
1D
1$
0%
#30000
b10110110 !
b11110110 !
b100000 "
b10100000 "
b10110000 "
b1110110 !
b1111110 !
b1101110 !
0<
1?
10
1:
1;
04
12
0.
0A
1C
0E
0D
0$
1%
#35000
b11110000 "
b1101111 !
b11110001 "
b1110001 "
b11101111 !
16
1.
15
1/
00
1A
1E
1D
1$
0%
#40000
b1010001 "
b11101011 !
b10101011 !
b1011001 "
b1001001 "
b10111011 !
b1001 "
b10111010 !
b10001001 "
b111010 !
06
0:
14
02
0.
1<
0?
01
0/
10
0A
1>
0E
0D
0$
1%
#45000
b10001011 "
b10001010 "
b10000010 "
b10010010 "
b10010 "
b10111010 !
1.
05
17
0<
1?
00
1A
0>
0B
19
1E
1D
1$
0%
#50000
b10011010 !
b10011000 !
b10011100 !
b11011100 !
b1010010 "
b1000010 "
b1011100 !
0?
1/
08
1:
0-
12
0.
0A
13
09
#55000
b1000110 "
b1010100 !
b1100110 "
b1000100 !
b1000101 !
b1100100 "
b11100100 "
b1100101 !
b1100001 !
b100001 !
b10100100 "
b10110100 "
b10100001 !
16
0:
0;
04
1-
02
1.
07
1=
1?
11
0/
10
0E
0C
1B
0D
0$
1%
#60000
b10111100 "
b10101001 !
b10011100 "
b10001001 !
b11001001 !
b11011100 "
b11001100 "
b1001001 !
1;
0-
12
0.
1<
0?
01
1/
03
#65000
b1011001 !
b1011000 !
b11000 !
b10001100 "
0/
06
14
02
0B
19
#70000
b11010 !
b10001110 "
b11110 !
b10011110 "
b10011110 !
b10011111 !
b11011111 !
17
1?
16
18
1:
12
1.
1A
1>
1B
09
1C
1E
1D
1$
0%
#75000
b10011111 "
b10011011 "
b11011 "
b10011 "
b110011 "
b11111111 !
b11101111 !
b11101101 !
b110001 "
b11101001 !
b100001 "
b11101000 !
b10101000 !
06
08
0:
04
1-
02
15
07
0=
0<
0?
11
00
0>
0B
#80000
b100000 "
b10100000 "
b10101000 "
b10001000 "
b10001000 !
b10001010 !
b10001010 "
b11001010 !
18
0-
12
05
17
1<
01
10
0C
1>
19
#85000
b11000010 !
b11001010 "
b11010010 !
b11010110 !
b11010111 !
b11001011 "
b11101011 "
b11010101 !
b11101001 "
15
07
11
1/
16
08
1:
0;
14
0>
0A
0E
0D
0$
1%
#90000
b1010101 !
b11111001 "
b1110101 !
b10111001 "
b1110001 !
b10111000 "
b10011000 "
b1110011 !
05
1?
01
0/
18
0:
1-
0.
1B
09
#95000
b10011100 "
b110011 !
b111011 !
b101011 !
b10101011 !
b10001011 !
b10001111 !
1:
1;
04
0-
02
1.
1=
1C
1>
13
#100000
b11100 "
b10100 "
b1010100 "
b1110100 "
b1110000 "
b11001111 !
b1001111 !
b1101111 !
1-
12
0.
0=
0<
11
1/
00
0>
#105000
b1100000 "
b1101101 !
b1100101 !
b1100001 !
b1101000 "
b101000 "
b1000 "
b100001 !
08
0:
0;
02
1<
0?
01
0/
1A
03
1E
0C
1D
1$
0%
#110000
b100000 !
b1001 "
b110000 !
b10001001 "
b10000 !
b11000 !
b11100 !
15
10
06
1:
1;
14
0-
0A
1C
0B
0E
0D
0$
1%
#115000
b10011001 "
b11110 !
b10010001 "
b10110001 "
b1011110 !
b1011111 !
b1001111 !
b110001 "
b1101111 !
16
18
04
1-
12
0<
1?
11
00
1A
1B
1E
1D
1$
0%
#120000
b110011 "
b1100111 !
b1100011 !
b100011 "
b1100001 !
b101011 "
b1011 "
b1100000 !
06
08
0:
0;
17
1<
0?
01
0C
0B
#125000
b1111 "
b11100000 !
b1110 "
b10100000 !
b10001110 "
b10001100 "
b10100100 !
b10101100 "
b10100101 !
16
1:
02
1.
05
07
1=
11
10
0A
13
1B
0E
0D
0$
1%
#130000
b11101100 "
b10110101 !
b11111100 "
b10110111 !
b11110100 "
b110111 !
b11110101 "
b1110111 !
b1110101 "
b1110111 "
b1110011 !
b1010111 "
18
0:
14
12
0.
15
17
0<
1?
01
1/
00
1A
03
0B
19
1E
1D
1$
0%
#135000
b1010011 !
b1010010 !
b10111 "
b1000010 !
b11000010 !
b10110 "
b10010110 "
b10010100 "
b11000110 !
b10110100 "
05
07
11
0/
10
06
1:
04
0-
1.
1>
1B
09
1C
#140000
b10100100 "
b11000100 !
b10101100 "
b10000100 !
b10010100 !
b10101101 "
b101101 "
b101111 "
08
14
02
15
17
1<
0?
00
0C
0>
0B
#145000
b10011100 !
b101011 "
b1101011 "
b11100 !
b11110 !
b1100011 "
b1011110 !
b1100010 "
b1100000 "
05
07
0=
0<
1/
18
1;
12
0.
0A
1C
1B
0E
0D
0$
1%
#150000
b1011111 !
b1000000 "
b11000000 "
b1010111 !
b11000100 "
b11010111 !
b11010101 !
b11001100 "
1=
1<
01
10
16
08
0;
1.
13
0C
1E
1D
1$
0%
#155000
b11010001 !
b11000001 !
b11001110 "
b1001110 "
b11001001 !
b1001010 "
b1000010 "
17
0=
0<
00
0:
1;
04
0E
1C
1A
03
0B
0D
0$
1%
1E
1D
1$
0%
#160000
b11101001 !
b10101001 !
b101001 !
b101011 !
b1000000 "
b100011 !
b1000100 "
07
1=
18
0;
1-
02
0.
0A
0C
1B
0E
0D
0$
1%
#165000
b100 "
b100010 !
b100100 "
b100110 !
b110110 !
b10100100 "
b10110 !
b10100 !
b11100 !
06
08
1:
1;
14
0-
11
0/
10
1C
0B
19
#170000
b1011100 !
b10100110 "
b11100110 "
b1011101 !
b1011001 !
b1001001 !
b1101001 !
b1101011 !
17
1/
16
18
0:
04
1-
12
1B
09
#175000
b11110110 "
b11111110 "
b11101011 !
b11111010 "
b11111000 "
b10111000 "
b11101010 !
b11101110 !
b11111110 !
b11011110 !
06
1:
14
0-
1.
07
0=
1<
1?
0/
1A
1E
1D
1$
0%
#180000
b111000 "
b110000 "
b11011111 !
b11011011 !
b11111011 !
16
0:
1-
0<
00
#185000
b110001 "
b11110011 !
b11110001 !
b100001 "
b1110001 !
b100101 "
b100111 "
b1100111 "
b1100001 !
b1100000 !
b1100100 !
06
08
1:
0;
04
0.
15
17
1=
0?
1/
0A
13
1>
0B
0C
0E
0D
0$
1%
#190000
b1101111 "
b1101100 !
b1101110 !
b11101110 !
b1101101 "
b11101010 !
18
0:
1;
1.
07
1<
0>
1B
1A
03
1E
1D
1$
0%
#195000
b1001101 "
b10101010 !
b10001010 !
b1001100 "
b1100 "
b10011010 !
b10011011 !
b100 "
b10011001 !
b110 "
16
08
14
0-
02
05
17
0<
01
0/
1C
0B
#200000
b10110 "
b11001 !
b11101 !
b1010110 "
b1101 !
b1100 !
b1010100 "
06
1:
04
0.
07
1?
1/
0A
19
0E
0D
0$
1%
#205000
b1110100 "
b1001100 !
b1110101 "
b1111101 "
b1101101 "
b11001100 !
b11001000 !
b101101 "
b101111 "
0:
12
1.
15
17
1<
0?
11
0/
1A
0C
09
1E
1D
1$
0%
#210000
b10101111 "
b11000000 !
b11100000 !
b11110000 !
b11110001 !
b10001111 "
b10110001 !
b10001110 "
b10000110 "
b10010110 "
b11010110 "
b11010100 "
16
0;
14
1-
02
05
07
0<
1?
01
1/
10
0A
1B
0E
0D
0$
1%
#215000
b110001 !
b110101 !
b100101 !
b100100 !
06
1:
04
0.
1C
1>
0B
19
0C
#220000
b11010000 "
b101100 !
b11110000 "
b1101100 !
b11100000 "
b10100000 "
b10100010 "
b11101100 !
b11101000 !
b11111000 !
0:
1;
14
12
1.
17
0=
0?
11
0/
1A
1C
0>
09
1E
1D
1$
0%
#225000
b11111010 !
b11111011 !
b10100110 "
b10000110 "
b11000110 "
b11111111 !
1=
01
1/
16
18
1:
1B
#230000
b11011111 !
b11000111 "
b11001111 "
b11010111 !
b10010111 !
b10111 !
b111 !
b101 !
b10001111 "
b1 !
15
1<
0/
08
0:
0;
04
0-
02
0.
0A
0C
0B
0E
0D
0$
1%
#235000
b1111 "
b0 !
b100000 !
b1110 "
b1100000 !
b1100010 !
b1001110 "
b1100110 !
06
18
1:
1-
12
05
1/
00
1A
19
1E
1D
1$
0%
#240000
b1001100 "
b1001000 "
b1101000 "
b1000110 !
b1101001 "
b110 !
b100 !
08
0-
02
15
07
0=
11
0A
09
0E
0D
0$
1%
#245000
b1100 !
b11100 !
b11101001 "
b11101011 "
b11101111 "
b111100 !
b11101110 "
05
17
1=
10
1;
14
1-
1>
#250000
b111000 !
b11001110 "
b1111000 !
b1101000 !
b1001110 "
b1001010 "
0=
01
00
0:
04
12
1A
1E
1D
1$
0%
#255000
b1011010 "
b1101001 !
b1101011 !
b1100011 !
b1011000 "
b1100111 !
b1110111 !
b11011000 "
b11011100 "
16
18
1:
0;
14
07
1=
1?
10
0A
0>
1B
0E
0D
0$
1%
#260000
b11010100 "
b10010100 "
b10010101 "
b110111 !
b10000101 "
b110110 !
b110100 !
b10000111 "
b110000 !
b100000 !
b10000011 "
06
08
0:
04
02
15
17
0=
0<
0?
0/
1C
1>
0B
0C
#265000
b10100000 !
b10100011 "
b100011 "
b10100010 !
b10100110 !
b100111 "
1=
11
00
18
1:
1.
1A
1E
1D
1$
0%
#270000
b10000110 !
b100110 "
b11000110 !
b110110 "
b11000111 !
b110100 "
b11010111 !
b10100 "
b10000 "
05
07
0=
1?
01
16
14
0-
12
1B
1C
0>
#275000
b11011111 !
b11000 "
b1011000 "
b11001111 !
b1111000 "
b1111100 "
1=
1<
11
1/
1;
04
1>
#280000
b11111100 "
b11001101 !
b11101101 !
b10101101 !
b11101100 "
b10101100 !
b10100100 !
b10101100 "
b10001100 "
06
08
0;
1-
02
0?
01
0/
10
0C
0>
0B
19
#285000
b100100 !
b100000 !
b10001101 "
b10000101 "
b110000 !
b1110000 !
b1110001 !
b1111001 !
b10100101 "
15
0<
11
16
0:
1;
14
12
0.
0A
1C
0E
0D
0$
1%
#290000
b10100111 "
b10100011 "
b1111011 !
b1011011 !
b11011011 !
b11011111 !
b10101011 "
b11010111 !
18
1:
0;
0-
1.
17
0=
1<
0C
1A
1E
1D
1$
0%
#295000
b101011 "
b111011 "
b11000111 !
b10000111 !
b11011 "
b10000101 !
b10000001 !
b10011 "
b10001001 !
08
0:
1;
04
02
0<
1?
01
00
1C
09
#300000
b1010011 "
b1001 !
b11010011 "
b11000011 "
b11001 !
b1011001 !
b1011011 !
b1011111 !
b1010111 !
18
1:
0;
14
12
0.
0?
1/
10
0A
19
0E
0D
0$
1%
#305000
b11000010 "
b1010110 !
b11000110 "
b1110110 !
b11100110 "
b10100110 "
b10110110 "
b1110010 !
06
0:
1-
05
1=
1?
11
0/
0C
#310000
b11110010 !
b110110 "
b11100010 !
b10100010 !
b10100000 !
b10101000 !
b110111 "
b10101001 !
b1110111 "
b1100111 "
b10101101 !
15
0?
1/
00
16
08
1:
1;
04
02
1.
1A
1C
09
1E
1D
1$
0%
#315000
b1101111 "
b1101011 "
b1001011 "
b101101 !
b101111 !
b1011011 "
18
0.
0=
1<
1?
01
0A
19
0E
0D
0$
1%
#320000
b1011001 "
b1111 !
b11111 !
b1011000 "
b11110 !
b11010 !
b1011100 "
b10011010 !
b1001100 "
06
0:
14
0-
1.
05
07
1=
0?
0C
1B
09
1A
1E
1D
1$
0%
#325000
b11001100 "
b11011010 !
b11010010 !
b11101100 "
b11010000 !
b11110000 !
b11100000 !
b11101101 "
b11100001 !
b11100101 !
b11101001 "
b11111001 "
16
08
1:
0;
04
1-
12
15
0=
1?
11
10
0A
13
0B
19
0E
0D
0$
1%
#330000
b1111001 "
b10100101 !
b10101101 !
b10111101 !
b10111100 !
06
1;
14
02
00
1A
03
1C
09
1E
1D
1$
0%
#335000
b1110001 "
b1110011 "
b1010011 "
b10111110 !
b10011110 !
b1010010 "
b1000010 "
b11000010 "
b11011110 !
b11010110 !
b11010111 !
16
18
0;
0-
12
05
17
0<
0?
01
10
0A
13
1B
#340000
b10000010 "
b1010111 !
b10000000 "
b10100000 "
b10110000 "
b110000 "
b1011111 !
b1011110 !
06
1;
0.
07
1?
11
0/
00
1A
03
#345000
b110100 "
b1001110 !
b111100 "
b1001100 !
b111101 "
b1100 !
b1111101 "
b10001100 !
b1111111 "
b1011111 "
b10000100 !
08
0;
04
02
1.
15
17
1=
1<
01
1/
0C
0B
#350000
b10100100 !
b1001111 "
b11001111 "
b10110100 !
b11101111 "
0?
11
10
14
1-
0A
0E
0D
0$
1%
#355000
b10110101 !
b11101011 "
b11100011 "
b10110111 !
b11110111 !
b10100011 "
b10100001 "
b11111111 !
b100001 "
b11101111 !
07
0=
0<
0/
00
16
18
1;
04
12
1A
1C
1B
1E
1D
1$
0%
#360000
b1101111 !
b1001111 !
b1001110 !
b100101 "
b1001100 !
b1100101 "
b1100111 "
b1000100 !
b11100111 "
17
1=
1/
10
06
08
0;
0-
0.
0A
1>
0B
0C
0E
0D
0$
1%
#365000
b1000000 !
b11101111 "
b1010000 !
b1110000 !
b1110001 !
b11101011 "
b1110011 !
b1111011 !
b1101011 "
0=
1<
00
16
18
0:
1;
14
1-
13
19
1E
1D
1$
0%
#370000
b1111011 "
b1011011 "
b111011 !
b10111011 !
b1010011 "
b10101011 !
b10101010 !
b10101000 !
b10100000 !
b11010011 "
06
08
0;
04
02
1.
0<
1?
01
10
03
0E
09
0D
0$
1%
#375000
b11010010 "
b10010010 "
b10100100 !
b10000010 "
b11100100 !
b1100100 !
b1100101 !
b1100111 !
b10 "
16
18
1:
12
0.
05
0?
0/
00
1A
1B
1C
0>
1E
1D
1$
0%
#380000
b0 "
b100 "
b100100 "
b101100 "
b1101111 !
b101101 "
b1101101 "
b1101011 !
b101011 !
0:
1;
02
15
07
1=
1<
11
1/
0A
0C
0E
0D
0$
1%
#385000
b111011 !
b10111011 !
b1101111 "
b1001111 "
17
01
14
1.
1A
0B
19
1E
1D
1$
0%
#390000
b10011011 !
b1011111 "
b11011111 "
b11011011 "
b10010011 !
b11010011 !
0=
1?
10
0;
0-
12
0A
13
0E
0D
0$
1%
#395000
b11011010 "
b11010111 !
b1010111 !
b1110111 !
b11001010 "
1:
1-
0.
05
0?
1E
1B
09
03
1D
1$
0%
0E
0D
0$
1%
#400000
b1110110 !
b1110100 !
b10001010 "
b1100100 !
b10001110 "
b100100 !
b10001111 "
b10100100 !
15
1=
0/
06
08
04
02
1.
1A
0B
1E
1D
1$
0%
#405000
b10001101 "
b1101 "
b10000100 !
b10000101 !
b1001101 "
b1001001 "
b1001000 "
b101 !
16
0-
0.
05
07
0=
1/
00
0A
1B
0E
0D
0$
1%
#410000
b1101000 "
b1 !
b10001 !
b1010001 !
b1101010 "
b11101010 "
b1110001 !
b1110000 !
b11101011 "
b11110000 !
06
0:
14
1-
12
1.
15
17
11
10
13
0B
1E
1D
1$
0%
#415000
b11111000 !
b11111011 "
b10111011 "
b11111100 !
b10111100 !
b10111001 "
07
1?
0/
1:
1;
02
1C
0E
0D
0$
1%
1E
1D
1$
0%
#420000
b10111101 "
b10011101 "
b10101100 !
b11101 "
b10100100 !
b1011101 "
0;
04
1=
01
1/
00
1A
03
0C
0E
0D
0$
1%
1E
1D
1$
0%
#425000
b10000100 !
b10000101 !
b101 !
b1011111 "
b1011011 "
b1111011 "
17
0=
11
16
0-
0.
0A
0E
0D
0$
1%
#430000
b1110011 "
b1100011 "
b11100011 "
b100 !
b10000100 !
b11100111 "
06
1.
1=
0<
0?
10
1>
#435000
b10000110 !
b11100110 "
b10000010 !
b10010010 !
b10011010 !
05
18
0:
1;
14
1C
0>
19
#440000
b11011010 !
b10100110 "
b10100100 "
b10000100 "
b10001100 "
b11011011 !
b11011111 !
07
1<
01
0/
16
1:
12
1A
0C
1>
1B
09
1C
1E
1D
1$
0%
#445000
b10001000 "
b11011101 !
b10001010 "
b10101010 "
b11011001 !
08
0:
17
0=
11
0B
0C
#450000
b11111001 !
b10101011 "
b10111001 !
b10111000 !
b10101111 "
b10001111 "
15
1=
01
06
1-
02
0>
#455000
b10101000 !
b11001111 "
b11000111 "
b11000101 "
b10101100 !
b11101100 !
07
0<
1/
1:
04
12
1C
#460000
b11101110 !
b11001110 !
b11000100 "
b11000110 "
05
17
18
0-
0A
13
19
#465000
b11010110 "
b11001111 !
b11011111 !
b10010110 "
b11011011 !
b10011011 !
b10011001 !
b10010111 "
16
08
0:
14
02
15
1?
0/
09
#470000
b10111 "
b10010001 !
b10110001 !
b111 "
b10110000 !
b10100000 !
b1000111 "
b10100100 !
b11100100 !
b11100110 !
b1000110 "
06
18
1:
0;
04
1-
12
05
0?
1/
00
1A
03
19
0C
1>
#475000
b1000010 "
b1100010 "
b1101010 "
b1101000 "
b11101110 !
b11001110 !
b1111000 "
b11011110 !
b10011110 !
b10011100 !
08
1;
14
0-
02
07
0=
1<
1?
11
1C
0>
#480000
b11100 !
b11111000 "
b11101 !
b10111000 "
b10111001 "
b10011001 "
b10101 !
b110101 !
b10001001 "
b1110101 !
15
0?
01
0/
10
16
0;
1-
12
0.
0A
0C
0E
0D
0$
1%
#485000
b1110001 !
b1110000 !
b10011001 "
b110000 !
1?
06
0:
02
09
#490000
b10011101 "
b10110000 !
b11101 "
b1011101 "
b1111101 "
b10111000 !
b10111100 !
b1101101 "
1:
1;
1.
1=
0?
11
1/
00
1A
1>
1E
1D
1$
0%
#495000
b1100101 "
b1100111 "
b10101100 !
b1100110 "
b10001100 !
b10001101 !
b11001101 !
b1110110 "
16
04
0-
12
05
17
0<
1?
1C
0>
#500000
b1110010 "
b1001101 !
b11110010 "
b10110010 "
b10010010 "
b1001001 !
b10011010 "
b10011011 "
b1001000 !
06
0:
0.
15
0=
1<
01
0/
10
0A
0C
1>
0E
0D
0$
1%
#505000
b1001010 !
b10011001 "
b1011010 !
b11011010 !
b11011001 "
b11010001 "
07
0<
1/
18
14
1.
13
1B
1C
0>
1E
1D
1$
0%
#510000
b11010010 !
b11110010 !
b10110010 !
b11000001 "
b11000101 "
b11001101 "
1=
1<
0?
0;
1-
02
03
0C
0E
0D
0$
1%
#515000
b11101101 "
b10110110 !
b10110111 !
b10110101 !
b11101111 "
b10100101 !
b10101111 "
b10000101 !
b11000101 !
b10101011 "
16
08
1:
04
0-
12
17
0=
11
0/
1A
0B
1E
1D
1$
0%
#520000
b101011 "
b111011 "
b11011 "
b11000001 !
b11000011 !
b11001 "
b11010011 !
b11110011 !
b10110011 !
b11101 "
18
0:
14
1-
02
07
1=
1?
01
00
1B
#525000
b110011 !
b111011 !
b1011101 "
b101011 !
b1011 !
b1011001 "
0=
1/
1;
04
0-
0.
0A
1C
1>
0E
0D
0$
1%
#530000
b1011000 "
b1010 !
b11011000 "
b1110 !
b110 !
b11011100 "
06
1:
0;
05
1=
10
0C
0>
#535000
b11001100 "
b11001110 "
b1000110 !
b11000110 !
b10001110 "
b11010110 !
b11110110 !
b10001111 "
b11110111 !
b1111 "
b11111111 !
16
1;
14
1-
12
1.
15
17
0?
0/
00
1A
0B
19
1C
1>
1E
0C
1D
1$
0%
#540000
b1011 "
b10111111 !
b111111 !
b1001011 "
b11111 !
b11110 !
b10110 !
06
0;
0-
02
0.
0=
1/
0A
0>
09
0E
0D
0$
1%
#545000
b1001001 "
b1001000 "
b1010110 !
b1000 "
b1110110 !
b1111110 !
1;
1-
12
05
07
0/
1A
1B
1C
1E
1D
1$
0%
#550000
b0 "
b100000 "
b1111100 !
b1111000 !
b110000 "
b1111001 !
b111001 !
b1110000 "
b110001 !
16
08
0:
0;
02
0<
1?
11
1/
0A
1>
0E
0D
0$
1%
#555000
b100001 !
b11110000 "
b10100001 !
b11110001 "
b11010001 "
b10100101 !
b10100100 !
b11100100 !
b10010001 "
15
01
0/
10
06
1:
04
12
1.
1A
0>
0B
1E
1D
1$
0%
#560000
b10010101 "
b11000100 !
b11000110 !
b11001110 !
b11011110 !
b10101 "
b1011110 !
b110101 "
b1011010 !
b1011011 !
b1110101 "
16
18
0:
1;
14
0-
0.
1=
11
1/
00
0A
1B
0E
0D
0$
1%
#565000
b1100101 "
b1100100 "
b1111011 !
b1111001 !
b1101001 !
b11100100 "
b11101001 !
b11000100 "
b11101000 !
06
08
04
1-
1.
05
0?
01
10
1A
0B
19
1E
1D
1$
0%
#570000
b11000110 "
b11100000 !
b10000110 "
b11000000 !
b11010000 !
b11010001 !
16
0;
14
0-
17
0/
09
0C
#575000
b10001110 "
b10010001 !
b10001010 "
b10001011 "
b10010011 !
b10101011 "
b10011011 !
b11101011 "
b10111011 !
18
1;
1-
02
15
0=
1<
11
1/
0A
1>
19
0E
0D
0$
1%
#580000
b11101001 "
b10111010 !
b11101000 "
b10111000 !
b11001000 "
b10110000 !
b10001000 "
b10010000 !
06
08
0;
0-
05
07
01
0/
13
0>
1E
1D
1$
0%
#585000
b10010100 !
b10011000 "
b10010000 "
b10010101 !
b10011101 !
0<
1?
16
1:
1;
1C
1B
09
0E
0D
0$
1%
1E
1D
1$
0%
#590000
b10000 "
b10100 "
b10011111 !
b1010100 "
b10011110 !
06
18
1=
1/
00
1A
03
#595000
b11110 !
b1110 !
b1001110 !
b1010110 "
b1101110 !
b1000110 "
b1100110 !
b11000110 "
b1100111 !
17
0?
10
16
0;
04
1-
12
0.
0A
1>
0E
0D
0$
1%
#600000
b11000111 "
b1100011 !
b11001111 "
b11001011 "
b1100001 !
b10001011 "
b11100001 !
b10100001 !
b10011011 "
b10101001 !
b11011 "
b10101000 !
06
08
0:
1;
02
1.
15
0=
1<
1?
0/
00
1A
0B
0C
1E
1D
1$
0%
#605000
b111011 "
b111111 "
b1111111 "
b101000 !
b1101111 "
b100000 !
b100001 !
16
0;
0.
1=
0?
11
1/
0A
0>
0E
0D
0$
1%
#610000
b1101101 "
b1 !
b1101100 "
b101 !
b10000101 !
1:
0-
1.
05
07
1B
1A
1E
1D
1$
0%
#615000
b10010101 !
b10010111 !
b11010111 !
b1111100 "
b11011111 !
b11011110 !
b11111110 !
b1111101 "
b1111110 !
15
1?
06
18
1;
14
1-
12
0.
0A
13
1C
1>
#620000
b1110101 "
b1110001 "
b110001 "
b110011 "
b111110 !
b111111 !
b110010 "
16
02
05
17
0=
0<
0/
0>
#625000
b10110010 "
b10010010 "
b110111 !
b10111 !
b10010111 !
b10011010 "
b10011110 "
b11011110 "
b11010111 !
0;
0-
12
1.
1=
1<
01
1/
10
0C
0E
0D
0$
1%
#630000
b11010110 !
b11011111 "
b1011111 "
b11011110 !
b1011110 !
b1010111 "
15
0<
00
06
1;
0.
1C
0B
1E
1D
1$
0%
#635000
b1011010 !
b1011000 !
b1010101 "
b1110101 "
b110101 "
b110100 "
b1010000 !
b11010000 !
b111100 "
05
07
1<
11
0/
08
0:
0;
1.
1A
03
0C
19
#640000
b10010000 !
b10010001 !
b10111100 "
b10010011 !
b10111110 "
b10011110 "
b10011111 "
b10011011 !
b11011 !
15
17
01
10
16
18
1;
02
0.
0A
0E
0D
0$
1%
#645000
b1011 !
b10001111 "
b101011 !
b11001111 "
b1101011 !
b11001101 "
b11101101 "
b11101100 "
05
07
0?
11
1/
04
1-
12
1B
09
#650000
b11100100 "
b1100100 "
b11101011 !
b11111011 !
b1110100 "
b110100 "
b10111011 !
b110110 "
b10110 "
b10111 "
14
02
1.
15
17
0<
1?
01
0/
00
1A
1C
0B
19
1E
1D
1$
0%
#655000
b10111111 !
b10011111 !
b11111 "
b10011111 "
b11111 !
b10001111 "
b11001111 "
b11001110 "
05
1<
0?
1/
10
1:
0-
0.
0A
0C
1>
1B
09
1C
0E
0D
0$
1%
#660000
b11001010 "
b11001000 "
b11011 !
b1001000 "
b10011011 !
b1011000 "
b11000 "
b11001 "
0:
1.
15
07
0=
1?
0/
00
1A
1E
1D
1$
0%
#665000
b10011001 !
b10001001 !
b111001 "
b10111001 "
b1001 !
b10101001 "
b11101001 "
0?
11
1/
10
08
04
0.
0A
0B
19
0C
0E
0D
0$
1%
#670000
b1001001 !
b11101011 "
b1001101 !
b11101010 "
b1001111 !
b1011111 !
b11001010 "
b1001010 "
b11011111 !
b1011010 "
b11010 "
05
17
1?
01
0/
00
18
1:
14
12
1.
1A
1C
0>
1B
09
1E
1D
1$
0%
#675000
b11011011 !
b11011 "
b11001011 !
b111011 "
b1001011 !
b101011 "
15
0?
11
0:
04
0.
1>
0B
19
0C
#680000
b1001010 !
b100011 "
b100111 "
b1001110 !
b100110 "
b1011110 !
b110110 "
05
1=
0<
1?
06
1:
14
1C
0>
#685000
b110100 "
b1011100 !
b1110100 "
b1010100 "
b11011100 !
b1011100 "
b1011000 "
b1011001 "
b1001001 "
08
1.
15
07
0=
1<
0?
01
1/
09
#690000
b10011100 !
b11001001 "
b10011101 !
b10001101 !
b10001001 "
b10101001 "
b1101 !
b10100001 "
b10100101 "
b10110101 "
1=
0<
1?
11
0/
10
16
04
02
0.
0A
19
0E
0D
0$
1%
#695000
b101 !
b1 !
b10110111 "
b110111 "
b1110111 "
b1111111 "
b1111011 "
17
0=
1<
1/
00
0:
0;
0C
09
#700000
b100001 !
b100011 !
b110011 !
b1011011 "
b10110011 !
b1001011 "
b1001001 "
b1001 "
b1 "
b101 "
07
1=
0<
0?
01
0/
18
14
1-
1.
1A
1B
1E
1D
1$
0%
#705000
b10110010 !
b10110110 !
b10000101 "
b10010110 !
b10000111 "
b10001111 "
b10001011 "
17
0=
1<
10
06
1:
0-
0A
13
0B
#710000
b10010100 !
b10101011 "
b10100 !
b11101011 "
b10000 !
b1101011 "
b1100011 "
0<
11
1/
00
08
0:
0.
03
1>
0E
0D
0$
1%
#715000
b11000 !
b1000 !
b1100001 "
b1010 !
b1000001 "
b1 "
07
01
0/
18
1;
04
1C
0>
1B
13
1E
1D
1$
0%
#720000
b11 "
b1000 !
b100011 "
08
17
11
03
0B
0E
0D
0$
1%
#725000
b100010 "
b110010 "
b101000 !
b10101000 !
b10101100 !
b10110010 "
b10100100 !
b10110100 !
b10110110 !
18
1:
0;
14
1-
1.
05
1?
10
13
19
1E
1D
1$
0%
#730000
b10111010 "
b11111010 "
b11111000 "
b11011000 "
b10111110 !
b10101110 !
b10101100 !
08
1;
04
07
1<
01
1/
03
0E
0D
0$
1%
#735000
b10001100 !
b1100 !
b1011000 "
b11000 "
b11010 "
17
0/
00
0-
0.
13
09
#740000
b1101 !
b10010 "
b101 !
b10101 !
b10111 !
b10010111 !
b1010010 "
0<
1/
16
18
0;
14
1.
1A
03
1E
1B
1D
1$
0%
#745000
b10010011 !
b1110010 "
b1110000 "
b10010010 !
b10011010 !
b11010 !
07
11
06
0:
1;
0.
0A
0E
0D
0$
1%
#750000
b1110100 "
b111010 !
b1111100 "
b101010 !
b101000 !
b1011100 "
b101001 !
b100001 !
16
08
0;
04
1-
1=
1<
01
0C
#755000
b1001100 "
b11001100 "
b100101 !
b101 !
b111 !
b11101100 "
b110 !
b1110 !
06
18
1:
1;
0-
0?
11
10
1C
1>
#760000
b10101100 "
b10101110 "
b10001110 !
b10101010 "
b10100010 "
b10110010 "
b10001010 !
b10001011 !
16
0:
1.
17
0=
0<
1?
0/
0>
