Primeira Avaliacao/questao_02/simulation/qsim/questao_02.msim.vcd
$comment
	File created using the following command:
		vcd file questao_02.msim.vcd -direction
$end
$date
	Wed Mar 30 18:31:25 2022
$end
$version
	ModelSim Version 2020.1
$end
$timescale
	1ps
$end

$scope module questao_02_vlg_vec_tst $end
$var reg 1 ! A1 $end
$var reg 1 " A2 $end
$var reg 1 # A3 $end
$var reg 1 $ A4 $end
$var reg 1 % A5 $end
$var reg 1 & A6 $end
$var reg 1 ' A7 $end
$var reg 1 ( A8 $end
$var reg 1 ) S1 $end
$var reg 1 * S2 $end
$var reg 1 + S3 $end
$var wire 1 , OUT $end

$scope module i1 $end
$var wire 1 - gnd $end
$var wire 1 . vcc $end
$var wire 1 / unknown $end
$var tri1 1 0 devclrn $end
$var tri1 1 1 devpor $end
$var tri1 1 2 devoe $end
$var wire 1 3 ~QUARTUS_CREATED_GND~I_combout $end
$var wire 1 4 S3~input_o $end
$var wire 1 5 A2~input_o $end
$var wire 1 6 A3~input_o $end
$var wire 1 7 S1~input_o $end
$var wire 1 8 S2~input_o $end
$var wire 1 9 A4~input_o $end
$var wire 1 : A1~input_o $end
$var wire 1 ; Mux0~4_combout $end
$var wire 1 < A7~input_o $end
$var wire 1 = A8~input_o $end
$var wire 1 > A6~input_o $end
$var wire 1 ? A5~input_o $end
$var wire 1 @ Mux0~0_combout $end
$upscope $end
$upscope $end
$enddefinitions $end
#0
$dumpvars
1!
0"
0#
0$
0%
0&
0'
0(
0)
0*
0+
1,
0-
1.
x/
10
11
12
03
04
05
06
07
08
09
1:
1;
0<
0=
0>
0?
1@
$end
#10000
0!
1"
1)
0:
15
17
#20000
1#
1*
0"
0)
16
18
05
07
#30000
1$
0#
1)
19
06
17
#40000
1%
1+
0*
0$
0)
1?
14
08
09
07
0;
0@
0,
1@
1,
#50000
1&
0%
1)
1>
0?
17
1;
0@
0,
1@
1,
#60000
1'
1*
0&
0)
1<
18
0>
07
0;
0@
0,
1@
1,
#70000
1(
0'
1)
1=
0<
17
1;
0@
0,
1@
1,
#80000
1"
1#
0+
1$
1%
0*
1&
1'
0)
15
16
04
19
1?
08
1>
1<
07
0;
0@
0,
#90000
1!
0"
1)
1:
05
17
#100000
0#
1*
1"
0)
06
18
15
07
#110000
0$
1#
1)
09
16
17
#120000
1+
0%
0*
1$
0)
14
0?
08
19
07
#130000
0&
1%
1)
0>
1?
17
1;
1@
1,
0@
0,
#140000
0'
1*
1&
0)
0<
18
1>
07
0;
1@
1,
0@
0,
#150000
0(
1'
1)
0=
1<
17
1;
1@
1,
0@
0,
#160000
0!
0"
0#
0+
0$
0%
0*
0&
0'
0)
0:
05
06
04
09
0?
08
0>
0<
07
0;
1@
1,
0@
0,
#170000
1)
17
#180000
1*
0)
18
07
#190000
1)
17
#200000
1+
0*
0)
14
08
07
#210000
1)
17
1;
#220000
1*
0)
18
07
0;
#230000
1)
17
1;
#240000
0+
0*
0)
04
08
07
0;
1@
1,
0@
0,
#250000
1)
17
#260000
1*
0)
18
07
#270000
1)
17
#280000
1+
0*
0)
14
08
07
#290000
1)
17
1;
#300000
1*
0)
18
07
0;
#310000
1)
17
1;
#320000
0+
0*
0)
04
08
07
0;
1@
1,
0@
0,
#330000
1)
17
#340000
1*
0)
18
07
#350000
1)
17
#360000
1+
0*
0)
14
08
07
#370000
1)
17
1;
#380000
1*
0)
18
07
0;
#390000
1)
17
1;
#400000
0+
0*
0)
04
08
07
0;
1@
1,
0@
0,
#410000
1)
17
#420000
1*
0)
18
07
#430000
1)
17
#440000
1+
0*
0)
14
08
07
#450000
1)
17
1;
#460000
1*
0)
18
07
0;
#470000
1)
17
1;
#480000
0+
0*
0)
04
08
07
0;
1@
1,
0@
0,
#490000
1)
17
#500000
1*
0)
18
07
#510000
1)
17
#520000
1+
0*
0)
14
08
07
#530000
1)
17
1;
#540000
1*
0)
18
07
0;
#550000
1)
17
1;
#560000
0+
0*
0)
04
08
07
0;
1@
1,
0@
0,
#570000
1)
17
#580000
1*
0)
18
07
#590000
1)
17
#600000
1+
0*
0)
14
08
07
#610000
1)
17
1;
#620000
1*
0)
18
07
0;
#630000
1)
17
1;
#640000
0+
0*
0)
04
08
07
0;
1@
1,
0@
0,
#650000
1)
17
#660000
1*
0)
18
07
#670000
1)
17
#680000
1+
0*
0)
14
08
07
#690000
1)
17
1;
#700000
1*
0)
18
07
0;
#710000
1)
17
1;
#720000
0+
0*
0)
04
08
07
0;
1@
1,
0@
0,
#730000
1)
17
#740000
1*
0)
18
07
#750000
1)
17
#760000
1+
0*
0)
14
08
07
#770000
1)
17
1;
#780000
1*
0)
18
07
0;
#790000
1)
17
1;
#800000
0+
0*
0)
04
08
07
0;
1@
1,
0@
0,
#810000
1)
17
#820000
1*
0)
18
07
#830000
1)
17
#840000
1+
0*
0)
14
08
07
#850000
1)
17
1;
#860000
1*
0)
18
07
0;
#870000
1)
17
1;
#880000
0+
0*
0)
04
08
07
0;
1@
1,
0@
0,
#890000
1)
17
#900000
1*
0)
18
07
#910000
1)
17
#920000
1+
0*
0)
14
08
07
#930000
1)
17
1;
#940000
1*
0)
18
07
0;
#950000
1)
17
1;
#960000
0+
0*
0)
04
08
07
0;
1@
1,
0@
0,
#970000
1)
17
#980000
1*
0)
18
07
#990000
1)
17
