Aula_04_04_22/non_blocking/simulation/qsim/non_blocking.msim.vcd
$comment
	File created using the following command:
		vcd file non_blocking.msim.vcd -direction
$end
$date
	Mon Apr 04 14:50:56 2022
$end
$version
	ModelSim Version 2020.1
$end
$timescale
	1ps
$end

$scope module non_blocking_vlg_vec_tst $end
$var reg 1 ! clock $end
$var reg 1 " in $end
$var reg 1 # reset $end
$var wire 1 $ d0 $end
$var wire 1 % d1 $end
$var wire 1 & d2 $end
$var wire 1 ' d3 $end

$scope module i1 $end
$var wire 1 ( gnd $end
$var wire 1 ) vcc $end
$var wire 1 * unknown $end
$var tri1 1 + devclrn $end
$var tri1 1 , devpor $end
$var tri1 1 - devoe $end
$var wire 1 . ~QUARTUS_CREATED_GND~I_combout $end
$var wire 1 / clock~input_o $end
$var wire 1 0 clock~inputCLKENA0_outclk $end
$var wire 1 1 reset~input_o $end
$var wire 1 2 in~input_o $end
$var wire 1 3 d0~0_combout $end
$var wire 1 4 d0~reg0_q $end
$var wire 1 5 d1~0_combout $end
$var wire 1 6 d1~reg0_q $end
$var wire 1 7 d2~0_combout $end
$var wire 1 8 d2~reg0_q $end
$var wire 1 9 d3~0_combout $end
$var wire 1 : d3~reg0_q $end
$upscope $end
$upscope $end
$enddefinitions $end
#0
$dumpvars
0!
1"
1#
0$
0%
0&
0'
0(
1)
x*
1+
1,
1-
0.
0/
00
11
12
03
04
05
06
07
08
09
0:
$end
#10000
1!
0"
1/
02
10
#20000
0!
1"
0/
12
00
#30000
1!
1/
10
#40000
0!
0/
00
#50000
0#
0"
1!
01
02
1/
10
#60000
0!
0/
00
#70000
1!
1/
10
#80000
1"
0!
12
0/
00
13
#90000
1!
1/
10
14
1$
15
#100000
0!
0/
00
#110000
1!
1/
10
16
1%
17
#120000
0"
0!
02
0/
00
03
#130000
1!
1/
10
18
04
0$
1&
05
19
#140000
0!
0/
00
#150000
1!
1/
10
1:
06
0%
1'
07
#160000
1"
0!
12
0/
00
13
#170000
1!
1/
10
08
14
1$
0&
15
09
#180000
0!
0/
00
#190000
1!
1/
10
0:
16
1%
0'
17
#200000
0!
0/
00
#210000
1!
1/
10
18
1&
19
#220000
0"
0!
02
0/
00
03
#230000
1"
1!
12
1/
10
13
1:
04
0$
1'
05
#240000
0!
0/
00
#250000
0"
1!
02
1/
10
03
06
14
1$
0%
15
07
#260000
0!
0/
00
#270000
1"
1!
12
1/
10
13
08
16
04
0$
1%
0&
05
17
09
#280000
0"
0!
02
0/
00
03
#290000
1!
1/
10
0:
18
06
0%
1&
0'
07
19
#300000
1"
0!
12
0/
00
13
#310000
0"
1!
02
1/
10
03
1:
08
14
1$
0&
1'
15
09
#320000
1"
0!
12
0/
00
13
#330000
1!
1/
10
0:
16
1%
0'
17
#340000
0"
0!
02
0/
00
03
#350000
1!
1/
10
18
04
0$
1&
05
19
#360000
0!
0/
00
#370000
1!
1/
10
1:
06
0%
1'
07
#380000
1"
0!
12
0/
00
13
#390000
0"
1!
02
1/
10
03
08
14
1$
0&
15
09
#400000
0!
0/
00
#410000
1"
1!
12
1/
10
13
0:
16
04
0$
1%
0'
05
17
#420000
0"
0!
02
0/
00
03
#430000
1"
1!
12
1/
10
13
18
06
0%
1&
07
19
#440000
0!
0/
00
#450000
0"
1!
02
1/
10
03
1:
08
14
1$
0&
1'
15
09
#460000
1"
0!
12
0/
00
13
#470000
0"
1!
02
1/
10
03
0:
16
1%
0'
17
#480000
1"
0!
12
0/
00
13
#490000
0"
1!
02
1/
10
03
18
1&
19
#500000
0!
0/
00
#510000
1!
1/
10
1:
04
0$
1'
05
#520000
1"
0!
12
0/
00
13
#530000
0"
1!
02
1/
10
03
06
14
1$
0%
15
07
#540000
1"
0!
12
0/
00
13
#550000
0"
1!
02
1/
10
03
08
16
1%
0&
17
09
#560000
1"
0!
12
0/
00
13
#570000
0"
1!
02
1/
10
03
0:
18
1&
0'
19
#580000
1"
0!
12
0/
00
13
#590000
1!
1/
10
1:
1'
#600000
0!
0/
00
#610000
0"
1!
02
1/
10
03
#620000
0!
0/
00
#630000
1"
1!
12
1/
10
13
04
0$
05
#640000
0"
0!
02
0/
00
03
#650000
1!
1/
10
06
0%
07
#660000
1"
0!
12
0/
00
13
#670000
0"
1!
02
1/
10
03
08
14
1$
0&
15
09
#680000
1"
0!
12
0/
00
13
#690000
0"
1!
02
1/
10
03
0:
16
1%
0'
17
#700000
0!
0/
00
#710000
1"
1!
12
1/
10
13
18
04
0$
1&
05
19
#720000
0"
0!
02
0/
00
03
#730000
1"
1!
12
1/
10
13
1:
06
0%
1'
07
#740000
0"
0!
02
0/
00
03
#750000
1"
1!
12
1/
10
13
08
0&
09
#760000
0!
0/
00
#770000
1!
1/
10
0:
14
1$
0'
15
#780000
0!
0/
00
#790000
0"
1!
02
1/
10
03
16
1%
17
#800000
1"
0!
12
0/
00
13
#810000
1!
1/
10
18
1&
19
#820000
0"
0!
02
0/
00
03
#830000
1"
1!
12
1/
10
13
1:
04
0$
1'
05
#840000
0"
0!
02
0/
00
03
#850000
1!
1/
10
06
0%
07
#860000
1"
0!
12
0/
00
13
#870000
1!
1/
10
08
14
1$
0&
15
09
#880000
0"
0!
02
0/
00
03
#890000
1"
1!
12
1/
10
13
0:
16
04
0$
1%
0'
05
17
#900000
0!
0/
00
#910000
0"
1!
02
1/
10
03
18
06
14
1$
0%
1&
15
07
19
#920000
0!
0/
00
#930000
1!
1/
10
1:
08
16
04
0$
1%
0&
1'
05
17
09
#940000
0!
0/
00
#950000
1"
1!
12
1/
10
13
0:
18
06
0%
1&
0'
07
19
#960000
0"
0!
02
0/
00
03
#970000
1"
1!
12
1/
10
13
1:
08
0&
1'
09
#980000
0"
0!
02
0/
00
03
#990000
1!
1/
10
0:
0'
