Projeto Segunda Avaliacao/projeto_02/simulation/qsim/projeto_02.msim.vcd
$comment
	File created using the following command:
		vcd file projeto_02.msim.vcd -direction
$end
$date
	Fri May 13 16:50:32 2022
$end
$version
	ModelSim Version 2020.1
$end
$timescale
	1ps
$end

$scope module projeto_02_vlg_vec_tst $end
$var reg 1 ! clock $end
$var reg 1 " modo $end
$var reg 1 # reset $end
$var wire 1 $ A $end
$var wire 1 % B $end
$var wire 1 & C $end
$var wire 1 ' D $end
$var wire 1 ( E $end
$var wire 1 ) F $end
$var wire 1 * G $end

$scope module i1 $end
$var wire 1 + gnd $end
$var wire 1 , vcc $end
$var wire 1 - unknown $end
$var tri1 1 . devclrn $end
$var tri1 1 / devpor $end
$var tri1 1 0 devoe $end
$var wire 1 1 ~QUARTUS_CREATED_GND~I_combout $end
$var wire 1 2 clock~input_o $end
$var wire 1 3 clock~inputCLKENA0_outclk $end
$var wire 1 4 modo~input_o $end
$var wire 1 5 estado_atual~39_combout $end
$var wire 1 6 reset~input_o $end
$var wire 1 7 estado_atual.estado0~q $end
$var wire 1 8 estado_atual~40_combout $end
$var wire 1 9 estado_atual.estado8~q $end
$var wire 1 : estado_atual~31_combout $end
$var wire 1 ; estado_atual.estadoE~q $end
$var wire 1 < estado_atual~35_combout $end
$var wire 1 = estado_atual.estadoA~q $end
$var wire 1 > estado_atual~37_combout $end
$var wire 1 ? estado_atual.estado3~q $end
$var wire 1 @ estado_atual~36_combout $end
$var wire 1 A estado_atual.estado7~q $end
$var wire 1 B estado_atual~29_combout $end
$var wire 1 C estado_atual.estado5~q $end
$var wire 1 D estado_atual~34_combout $end
$var wire 1 E estado_atual.estado2~q $end
$var wire 1 F estado_atual~38_combout $end
$var wire 1 G estado_atual.estado9~q $end
$var wire 1 H estado_atual~33_combout $end
$var wire 1 I estado_atual.estadoC~q $end
$var wire 1 J estado_atual~28_combout $end
$var wire 1 K estado_atual.estado1~q $end
$var wire 1 L estado_atual~32_combout $end
$var wire 1 M estado_atual.estadoF~q $end
$var wire 1 N estado_atual~27_combout $end
$var wire 1 O estado_atual.estadoD~q $end
$var wire 1 P estado_atual~30_combout $end
$var wire 1 Q estado_atual.estado6~q $end
$var wire 1 R estado_atual~26_combout $end
$var wire 1 S estado_atual.estado4~q $end
$var wire 1 T estado_atual~25_combout $end
$var wire 1 U estado_atual.estadoB~q $end
$var wire 1 V WideOr0~combout $end
$var wire 1 W WideOr1~combout $end
$var wire 1 X WideOr2~combout $end
$var wire 1 Y WideOr3~combout $end
$var wire 1 Z WideOr4~combout $end
$var wire 1 [ WideOr5~combout $end
$var wire 1 \ WideOr6~combout $end
$upscope $end
$upscope $end
$enddefinitions $end
#0
$dumpvars
0!
1"
1#
1$
1%
0&
1'
1(
0)
1*
0+
1,
x-
1.
1/
10
01
02
03
14
05
16
07
08
09
0:
0;
0<
0=
0>
0?
0@
0A
0B
0C
1D
0E
1F
0G
0H
0I
0J
0K
0L
0M
0N
0O
0P
0Q
0R
0S
0T
0U
0V
0W
1X
0Y
0Z
1[
0\
$end
#10000
1!
12
13
1G
1E
0[
0X
1Z
0F
1H
0(
1&
1)
#20000
0!
02
03
#30000
1!
12
13
1I
0G
0Z
1\
1X
1W
0H
1J
0%
0&
0*
1(
#40000
0!
02
03
#50000
1!
12
13
1K
0I
0X
0W
1[
1Z
1Y
1V
0J
1L
0$
0'
0(
0)
1%
1&
#60000
0!
02
03
#70000
1!
12
13
1M
0K
0\
0[
0Z
0V
1X
1W
0L
1N
0%
0&
1$
1(
1)
1*
#80000
0!
02
03
#90000
1!
12
13
1O
0M
0Y
0X
0W
1[
1V
0N
1P
0$
0)
1%
1&
1'
#100000
0!
02
03
#110000
1!
12
13
1Q
0O
0[
0V
1W
0P
1R
0%
1$
1)
#120000
0!
02
03
#130000
1!
12
13
1S
0Q
0W
1Z
1Y
1V
0R
1T
0$
0'
0(
1%
#140000
0!
02
03
#150000
1!
12
13
1U
0S
0Z
0Y
1W
0T
15
0%
1'
1(
#160000
0!
02
03
#170000
1!
12
13
0U
17
1\
0W
0V
18
05
1$
1%
0*
#180000
0!
02
03
#190000
1!
12
13
19
07
0\
08
1:
1*
#200000
0!
02
03
#210000
1!
12
13
1;
09
1X
1W
0:
1<
0%
0&
#220000
0!
02
03
#230000
1!
12
13
1=
0;
0X
0W
1Y
0<
1>
0'
1%
1&
#240000
0!
02
03
#250000
1!
12
13
1?
0=
0Y
1[
1Z
0>
1@
0(
0)
1'
#260000
0!
02
03
#270000
1!
12
13
1A
0?
1\
1Y
0@
1B
0'
0*
#280000
0!
02
03
#290000
1!
12
13
1C
0A
0\
0[
0Y
1W
0B
0D
0%
1'
1)
1*
#300000
0!
02
03
#310000
1!
12
13
0E
0C
0Z
0W
1[
1X
1D
1F
0&
0)
1%
1(
#320000
0!
02
03
#330000
1!
12
13
1G
1E
0[
0X
1Z
0F
1H
0(
1&
1)
#340000
0!
02
03
#350000
1!
12
13
1I
0G
0Z
1\
1X
1W
0H
1J
0%
0&
0*
1(
#360000
0"
0!
04
02
03
0J
1F
#370000
1!
12
13
0I
1G
1Z
0\
0X
0W
0D
0F
1%
1&
1*
0(
#380000
0!
02
03
#390000
1!
12
13
0G
0E
1[
1X
0Z
1B
1D
1(
0&
0)
#400000
0!
02
03
#410000
1!
12
13
1E
1C
1Z
1W
0[
0X
1@
0B
1&
1)
0%
0(
#420000
0!
02
03
#430000
1!
12
13
0C
1A
1\
1[
1Y
0W
1>
0@
1%
0'
0)
0*
#440000
0!
02
03
#450000
1!
12
13
0A
1?
0\
0Y
1<
0>
1'
1*
#460000
0!
02
03
#470000
1!
12
13
0?
1=
1Y
0[
0Z
1:
0<
1(
1)
0'
#480000
0!
02
03
#490000
1!
12
13
0=
1;
1X
1W
0Y
18
0:
1'
0%
0&
#500000
0!
02
03
#510000
1!
12
13
0;
19
0X
0W
15
08
1%
1&
#520000
0!
02
03
#530000
1!
12
13
09
17
1\
1T
05
0*
#540000
0!
02
03
#550000
1!
12
13
1U
07
0\
1W
1V
0T
1R
0$
0%
1*
#560000
0!
02
03
#570000
1!
12
13
0U
1S
1Z
1Y
0W
1P
0R
1%
0'
0(
#580000
0!
02
03
#590000
1!
12
13
0S
1Q
1W
0Z
0Y
0V
1N
0P
1$
1'
1(
0%
#600000
0!
02
03
#610000
1!
12
13
0Q
1O
1[
1V
0W
1L
0N
1%
0$
0)
#620000
1"
0!
14
02
03
1P
0L
#630000
1!
12
13
1Q
0O
0[
0V
1W
0P
1R
0%
1$
1)
#640000
0!
02
03
#650000
1!
12
13
1S
0Q
0W
1Z
1Y
1V
0R
1T
0$
0'
0(
1%
#660000
0!
02
03
#670000
1!
12
13
1U
0S
0Z
0Y
1W
0T
15
0%
1'
1(
#680000
0!
02
03
#690000
1!
12
13
0U
17
1\
0W
0V
18
05
1$
1%
0*
#700000
0!
02
03
#710000
1!
12
13
19
07
0\
08
1:
1*
#720000
0!
02
03
#730000
1!
12
13
1;
09
1X
1W
0:
1<
0%
0&
#740000
0!
02
03
#750000
1!
12
13
1=
0;
0X
0W
1Y
0<
1>
0'
1%
1&
#760000
0!
02
03
#770000
1!
12
13
1?
0=
0Y
1[
1Z
0>
1@
0(
0)
1'
#780000
0!
02
03
#790000
1!
12
13
1A
0?
1\
1Y
0@
1B
0'
0*
#800000
0!
02
03
#810000
1!
12
13
1C
0A
0\
0[
0Y
1W
0B
0D
0%
1'
1)
1*
#820000
0!
02
03
#830000
1!
12
13
0E
0C
0Z
0W
1[
1X
1D
1F
0&
0)
1%
1(
#840000
0!
02
03
#850000
1!
12
13
1G
1E
0[
0X
1Z
0F
1H
0(
1&
1)
#860000
0!
02
03
#870000
1!
12
13
1I
0G
0Z
1\
1X
1W
0H
1J
0%
0&
0*
1(
#880000
0!
02
03
#890000
1!
12
13
1K
0I
0X
0W
1[
1Z
1Y
1V
0J
1L
0$
0'
0(
0)
1%
1&
#900000
0!
02
03
#910000
1!
12
13
1M
0K
0\
0[
0Z
0V
1X
1W
0L
1N
0%
0&
1$
1(
1)
1*
#920000
0!
02
03
#930000
1!
12
13
1O
0M
0Y
0X
0W
1[
1V
0N
1P
0$
0)
1%
1&
1'
#940000
0!
02
03
#950000
1!
12
13
1Q
0O
0[
0V
1W
0P
1R
0%
1$
1)
#960000
0!
02
03
#970000
1!
12
13
1S
0Q
0W
1Z
1Y
1V
0R
1T
0$
0'
0(
1%
#980000
0!
02
03
#990000
1!
12
13
1U
0S
0Z
0Y
1W
0T
15
0%
1'
1(
