Primeira Avaliacao/questao_01/simulation/qsim/questao_01.msim.vcd
$comment
	File created using the following command:
		vcd file questao_01.msim.vcd -direction
$end
$date
	Wed Mar 30 18:19:07 2022
$end
$version
	ModelSim Version 2020.1
$end
$timescale
	1ps
$end

$scope module questao_01_vlg_vec_tst $end
$var reg 1 ! X0 $end
$var reg 1 " X1 $end
$var reg 1 # X2 $end
$var reg 1 $ X3 $end
$var wire 1 % A $end
$var wire 1 & B $end
$var wire 1 ' C $end
$var wire 1 ( D $end
$var wire 1 ) E $end
$var wire 1 * F $end
$var wire 1 + G $end

$scope module i1 $end
$var wire 1 , gnd $end
$var wire 1 - vcc $end
$var wire 1 . unknown $end
$var tri1 1 / devclrn $end
$var tri1 1 0 devpor $end
$var tri1 1 1 devoe $end
$var wire 1 2 ~QUARTUS_CREATED_GND~I_combout $end
$var wire 1 3 X1~input_o $end
$var wire 1 4 X3~input_o $end
$var wire 1 5 X0~input_o $end
$var wire 1 6 X2~input_o $end
$var wire 1 7 WideOr0~0_combout $end
$var wire 1 8 WideOr1~0_combout $end
$var wire 1 9 WideOr2~0_combout $end
$var wire 1 : WideOr3~0_combout $end
$var wire 1 ; WideOr6~0_combout $end
$var wire 1 < WideOr4~0_combout $end
$var wire 1 = WideOr5~0_combout $end
$upscope $end
$upscope $end
$enddefinitions $end
#0
$dumpvars
0!
0"
0#
0$
1%
1&
1'
1(
1)
1*
0+
0,
1-
x.
1/
10
11
02
03
04
05
06
07
08
09
0:
0;
0<
0=
$end
#10000
1!
15
1<
1;
1:
17
0%
0(
0)
0*
#20000
1"
0!
13
05
0;
0:
19
07
1=
1+
1%
0'
1(
1)
#30000
1!
15
1;
09
1'
0)
#40000
1#
0"
0!
16
03
05
0<
1:
17
0%
0(
1*
#50000
1!
15
0:
18
07
1%
0&
1(
#60000
1"
0!
13
05
0;
1)
#70000
1!
15
1<
1;
1:
08
0=
0+
1&
0(
0)
0*
#80000
1$
0#
0"
0!
14
06
03
05
0<
0;
0:
1=
1+
1(
1)
1*
#90000
1!
15
1;
0)
#100000
1"
0!
13
05
1<
1:
19
18
17
0=
0+
0%
0&
0'
0(
0*
#110000
1!
15
#120000
1#
0"
0!
16
03
05
#130000
1!
15
#140000
1"
0!
13
05
#150000
1!
15
#160000
0$
0#
0"
0!
04
06
03
05
0<
0;
0:
09
08
07
1%
1&
1'
1(
1)
1*
#170000
1!
15
1<
1;
1:
17
0%
0(
0)
0*
#180000
1"
0!
13
05
0;
0:
19
07
1=
1+
1%
0'
1(
1)
#190000
1!
15
1;
09
1'
0)
#200000
1#
0"
0!
16
03
05
0<
1:
17
0%
0(
1*
#210000
1!
15
0:
18
07
1%
0&
1(
#220000
1"
0!
13
05
0;
1)
#230000
1!
15
1<
1;
1:
08
0=
0+
1&
0(
0)
0*
#240000
1$
0#
0"
0!
14
06
03
05
0<
0;
0:
1=
1+
1(
1)
1*
#250000
1!
15
1;
0)
#260000
1"
0!
13
05
1<
1:
19
18
17
0=
0+
0%
0&
0'
0(
0*
#270000
1!
15
#280000
1#
0"
0!
16
03
05
#290000
1!
15
#300000
1"
0!
13
05
#310000
1!
15
#320000
0$
0#
0"
0!
04
06
03
05
0<
0;
0:
09
08
07
1%
1&
1'
1(
1)
1*
#330000
1!
15
1<
1;
1:
17
0%
0(
0)
0*
#340000
1"
0!
13
05
0;
0:
19
07
1=
1+
1%
0'
1(
1)
#350000
1!
15
1;
09
1'
0)
#360000
1#
0"
0!
16
03
05
0<
1:
17
0%
0(
1*
#370000
1!
15
0:
18
07
1%
0&
1(
#380000
1"
0!
13
05
0;
1)
#390000
1!
15
1<
1;
1:
08
0=
0+
1&
0(
0)
0*
#400000
1$
0#
0"
0!
14
06
03
05
0<
0;
0:
1=
1+
1(
1)
1*
#410000
1!
15
1;
0)
#420000
1"
0!
13
05
1<
1:
19
18
17
0=
0+
0%
0&
0'
0(
0*
#430000
1!
15
#440000
1#
0"
0!
16
03
05
#450000
1!
15
#460000
1"
0!
13
05
#470000
1!
15
#480000
0$
0#
0"
0!
04
06
03
05
0<
0;
0:
09
08
07
1%
1&
1'
1(
1)
1*
#490000
1!
15
1<
1;
1:
17
0%
0(
0)
0*
#500000
1"
0!
13
05
0;
0:
19
07
1=
1+
1%
0'
1(
1)
#510000
1!
15
1;
09
1'
0)
#520000
1#
0"
0!
16
03
05
0<
1:
17
0%
0(
1*
#530000
1!
15
0:
18
07
1%
0&
1(
#540000
1"
0!
13
05
0;
1)
#550000
1!
15
1<
1;
1:
08
0=
0+
1&
0(
0)
0*
#560000
1$
0#
0"
0!
14
06
03
05
0<
0;
0:
1=
1+
1(
1)
1*
#570000
1!
15
1;
0)
#580000
1"
0!
13
05
1<
1:
19
18
17
0=
0+
0%
0&
0'
0(
0*
#590000
1!
15
#600000
1#
0"
0!
16
03
05
#610000
1!
15
#620000
1"
0!
13
05
#630000
1!
15
#640000
0$
0#
0"
0!
04
06
03
05
0<
0;
0:
09
08
07
1%
1&
1'
1(
1)
1*
#650000
1!
15
1<
1;
1:
17
0%
0(
0)
0*
#660000
1"
0!
13
05
0;
0:
19
07
1=
1+
1%
0'
1(
1)
#670000
1!
15
1;
09
1'
0)
#680000
1#
0"
0!
16
03
05
0<
1:
17
0%
0(
1*
#690000
1!
15
0:
18
07
1%
0&
1(
#700000
1"
0!
13
05
0;
1)
#710000
1!
15
1<
1;
1:
08
0=
0+
1&
0(
0)
0*
#720000
1$
0#
0"
0!
14
06
03
05
0<
0;
0:
1=
1+
1(
1)
1*
#730000
1!
15
1;
0)
#740000
1"
0!
13
05
1<
1:
19
18
17
0=
0+
0%
0&
0'
0(
0*
#750000
1!
15
#760000
1#
0"
0!
16
03
05
#770000
1!
15
#780000
1"
0!
13
05
#790000
1!
15
#800000
0$
0#
0"
0!
04
06
03
05
0<
0;
0:
09
08
07
1%
1&
1'
1(
1)
1*
#810000
1!
15
1<
1;
1:
17
0%
0(
0)
0*
#820000
1"
0!
13
05
0;
0:
19
07
1=
1+
1%
0'
1(
1)
#830000
1!
15
1;
09
1'
0)
#840000
1#
0"
0!
16
03
05
0<
1:
17
0%
0(
1*
#850000
1!
15
0:
18
07
1%
0&
1(
#860000
1"
0!
13
05
0;
1)
#870000
1!
15
1<
1;
1:
08
0=
0+
1&
0(
0)
0*
#880000
1$
0#
0"
0!
14
06
03
05
0<
0;
0:
1=
1+
1(
1)
1*
#890000
1!
15
1;
0)
#900000
1"
0!
13
05
1<
1:
19
18
17
0=
0+
0%
0&
0'
0(
0*
#910000
1!
15
#920000
1#
0"
0!
16
03
05
#930000
1!
15
#940000
1"
0!
13
05
#950000
1!
15
#960000
0$
0#
0"
0!
04
06
03
05
0<
0;
0:
09
08
07
1%
1&
1'
1(
1)
1*
#970000
1!
15
1<
1;
1:
17
0%
0(
0)
0*
#980000
1"
0!
13
05
0;
0:
19
07
1=
1+
1%
0'
1(
1)
#990000
1!
15
1;
09
1'
0)
