Revisao/non_blocking/simulation/qsim/non_blocking.msim.vcd
$comment
	File created using the following command:
		vcd file non_blocking.msim.vcd -direction
$end
$date
	Fri Mar 25 11:08:29 2022
$end
$version
	ModelSim Version 2020.1
$end
$timescale
	1ps
$end

$scope module non_blocking_vlg_vec_tst $end
$var reg 1 ! A $end
$var reg 1 " CLK $end
$var wire 1 # C $end

$scope module i1 $end
$var wire 1 $ gnd $end
$var wire 1 % vcc $end
$var wire 1 & unknown $end
$var tri1 1 ' devclrn $end
$var tri1 1 ( devpor $end
$var tri1 1 ) devoe $end
$var wire 1 * ~QUARTUS_CREATED_GND~I_combout $end
$var wire 1 + CLK~input_o $end
$var wire 1 , CLK~inputCLKENA0_outclk $end
$var wire 1 - A~input_o $end
$var wire 1 . B~feeder_combout $end
$var wire 1 / B~q $end
$var wire 1 0 C~reg0feeder_combout $end
$var wire 1 1 C~reg0_q $end
$upscope $end
$upscope $end
$enddefinitions $end
#0
$dumpvars
0!
0"
0#
0$
1%
x&
1'
1(
1)
0*
0+
0,
0-
0.
0/
00
01
$end
#10000
1!
1-
1.
#20000
0!
0-
0.
#30000
1!
1-
1.
#40000
1"
0!
1+
0-
1,
0.
1/
10
#50000
1!
1-
1.
#60000
0!
0-
0.
#70000
1!
1-
1.
#80000
0"
0!
0+
0-
0,
0.
