Revisao/tabela_verdade/simulation/qsim/tabela_verdade.msim.vcd
$comment
	File created using the following command:
		vcd file tabela_verdade.msim.vcd -direction
$end
$date
	Wed Mar 30 10:59:11 2022
$end
$version
	ModelSim Version 2020.1
$end
$timescale
	1ps
$end

$scope module tabela_verdade_vlg_vec_tst $end
$var reg 1 ! a $end
$var reg 1 " b $end
$var reg 1 # c $end
$var wire 1 $ y $end
$var wire 1 % z $end

$scope module i1 $end
$var wire 1 & gnd $end
$var wire 1 ' vcc $end
$var wire 1 ( unknown $end
$var tri1 1 ) devclrn $end
$var tri1 1 * devpor $end
$var tri1 1 + devoe $end
$var wire 1 , ~QUARTUS_CREATED_GND~I_combout $end
$var wire 1 - c~input_o $end
$var wire 1 . b~input_o $end
$var wire 1 / a~input_o $end
$var wire 1 0 Decoder0~0_combout $end
$var wire 1 1 Decoder0~1_combout $end
$upscope $end
$upscope $end
$enddefinitions $end
#0
$dumpvars
0!
0"
0#
0$
1%
0&
1'
x(
1)
1*
1+
0,
0-
0.
0/
00
01
$end
#10000
1!
1/
11
0%
#20000
1"
0!
1.
0/
01
1%
#30000
1#
1!
1-
1/
#40000
0"
0!
0.
0/
#50000
1!
1/
#60000
0#
1"
0!
0-
1.
0/
#70000
1!
1/
10
1$
#80000
0"
0!
0.
0/
00
0$
#90000
1#
1!
1-
1/
#100000
1"
0!
1.
0/
#110000
1!
1/
#120000
0#
0"
0!
0-
0.
0/
#130000
1!
1/
11
0%
#140000
1"
0!
1.
0/
01
1%
#150000
1#
1!
1-
1/
#160000
0"
0!
0.
0/
#170000
1!
1/
#180000
0#
1"
0!
0-
1.
0/
#190000
1!
1/
10
1$
#200000
0"
0!
0.
0/
00
0$
#210000
1#
1!
1-
1/
#220000
1"
0!
1.
0/
#230000
1!
1/
#240000
0#
0"
0!
0-
0.
0/
#250000
1!
1/
11
0%
#260000
1"
0!
1.
0/
01
1%
#270000
1#
1!
1-
1/
#280000
0"
0!
0.
0/
#290000
1!
1/
#300000
0#
1"
0!
0-
1.
0/
#310000
1!
1/
10
1$
#320000
0"
0!
0.
0/
00
0$
#330000
1#
1!
1-
1/
#340000
1"
0!
1.
0/
#350000
1!
1/
#360000
0#
0"
0!
0-
0.
0/
#370000
1!
1/
11
0%
#380000
1"
0!
1.
0/
01
1%
#390000
1#
1!
1-
1/
#400000
0"
0!
0.
0/
#410000
1!
1/
#420000
0#
1"
0!
0-
1.
0/
#430000
1!
1/
10
1$
#440000
0"
0!
0.
0/
00
0$
#450000
1#
1!
1-
1/
#460000
1"
0!
1.
0/
#470000
1!
1/
#480000
0#
0"
0!
0-
0.
0/
#490000
1!
1/
11
0%
#500000
1"
0!
1.
0/
01
1%
#510000
1#
1!
1-
1/
#520000
0"
0!
0.
0/
#530000
1!
1/
#540000
0#
1"
0!
0-
1.
0/
#550000
1!
1/
10
1$
#560000
0"
0!
0.
0/
00
0$
#570000
1#
1!
1-
1/
#580000
1"
0!
1.
0/
#590000
1!
1/
#600000
0#
0"
0!
0-
0.
0/
#610000
1!
1/
11
0%
#620000
1"
0!
1.
0/
01
1%
#630000
1#
1!
1-
1/
#640000
0"
0!
0.
0/
#650000
1!
1/
#660000
0#
1"
0!
0-
1.
0/
#670000
1!
1/
10
1$
#680000
0"
0!
0.
0/
00
0$
#690000
1#
1!
1-
1/
#700000
1"
0!
1.
0/
#710000
1!
1/
#720000
0#
0"
0!
0-
0.
0/
#730000
1!
1/
11
0%
#740000
1"
0!
1.
0/
01
1%
#750000
1#
1!
1-
1/
#760000
0"
0!
0.
0/
#770000
1!
1/
#780000
0#
1"
0!
0-
1.
0/
#790000
1!
1/
10
1$
#800000
0"
0!
0.
0/
00
0$
#810000
1#
1!
1-
1/
#820000
1"
0!
1.
0/
#830000
1!
1/
#840000
0#
0"
0!
0-
0.
0/
#850000
1!
1/
11
0%
#860000
1"
0!
1.
0/
01
1%
#870000
1#
1!
1-
1/
#880000
0"
0!
0.
0/
#890000
1!
1/
#900000
0#
1"
0!
0-
1.
0/
#910000
1!
1/
10
1$
#920000
0"
0!
0.
0/
00
0$
#930000
1#
1!
1-
1/
#940000
1"
0!
1.
0/
#950000
1!
1/
#960000
0#
0"
0!
0-
0.
0/
#970000
1!
1/
11
0%
#980000
1"
0!
1.
0/
01
1%
#990000
1#
1!
1-
1/
