Revisao/multiplexador/simulation/qsim/multiplexador.msim.vcd
$comment
	File created using the following command:
		vcd file multiplexador.msim.vcd -direction
$end
$date
	Tue Mar 29 17:43:00 2022
$end
$version
	ModelSim Version 2020.1
$end
$timescale
	1ps
$end

$scope module multiplexador_vlg_vec_tst $end
$var reg 1 ! A0 $end
$var reg 1 " A1 $end
$var reg 1 # A2 $end
$var reg 1 $ A3 $end
$var reg 2 % SEL [1:0] $end
$var wire 1 & C $end

$scope module i1 $end
$var wire 1 ' gnd $end
$var wire 1 ( vcc $end
$var wire 1 ) unknown $end
$var tri1 1 * devclrn $end
$var tri1 1 + devpor $end
$var tri1 1 , devoe $end
$var wire 1 - ~QUARTUS_CREATED_GND~I_combout $end
$var wire 1 . A3~input_o $end
$var wire 1 / A2~input_o $end
$var wire 1 0 SEL[0]~input_o $end
$var wire 1 1 SEL[1]~input_o $end
$var wire 1 2 A0~input_o $end
$var wire 1 3 A1~input_o $end
$var wire 1 4 Mux0~0_combout $end
$upscope $end
$upscope $end
$enddefinitions $end
#0
$dumpvars
1!
0"
0#
1$
b0 %
1&
0'
1(
x)
1*
1+
1,
0-
1.
0/
00
01
12
03
14
$end
#10000
0!
1#
0$
b1 %
02
1/
0.
10
04
0&
#20000
1"
b11 %
1!
0#
1$
b10 %
13
00
11
12
0/
1.
#30000
0$
b11 %
0.
10
#40000
b1 %
0!
b0 %
00
01
02
#50000
1#
1$
1!
b1 %
1/
1.
12
10
14
1&
#60000
0"
b11 %
b10 %
03
00
11
#70000
0#
0$
b11 %
0/
0.
10
04
0&
#80000
0!
b1 %
1#
b0 %
02
00
01
1/
#90000
1"
1!
b1 %
13
12
10
14
1&
#100000
1$
b11 %
0!
b10 %
1.
00
11
02
#110000
0"
0$
b11 %
03
0.
10
04
0&
#120000
b1 %
1$
b0 %
00
01
1.
#130000
0#
0$
b1 %
0/
0.
10
#140000
1!
b11 %
1#
1$
b10 %
12
00
11
1/
1.
14
1&
#150000
1"
0!
b11 %
13
02
10
#160000
b1 %
1!
b0 %
00
01
12
#170000
0#
0"
0!
b1 %
0/
03
02
10
04
0&
#180000
b11 %
1#
1"
1!
b10 %
00
11
1/
13
12
14
1&
#190000
0$
0"
0!
b11 %
0.
03
02
10
04
0&
#200000
b1 %
1$
b0 %
00
01
1.
#210000
0#
0$
b1 %
0/
0.
10
#220000
1"
b11 %
b10 %
13
00
11
#230000
1!
1#
b11 %
12
1/
10
#240000
b1 %
b0 %
00
01
14
1&
#250000
0#
b1 %
0/
10
#260000
0!
b11 %
1#
b10 %
02
00
11
1/
#270000
0"
b11 %
03
10
04
0&
#280000
b1 %
0#
1"
b0 %
00
01
0/
13
#290000
1!
0"
b1 %
12
03
10
#300000
1$
b11 %
1#
0!
1"
b10 %
1.
00
11
1/
02
13
14
1&
#310000
0"
b11 %
03
10
#320000
b1 %
1"
b0 %
00
01
13
04
0&
#330000
0"
b1 %
03
10
#340000
0$
0#
1!
b11 %
1"
b10 %
0.
0/
12
00
11
13
#350000
0"
b11 %
03
10
#360000
b1 %
1"
b0 %
00
01
13
14
1&
#370000
1$
1#
0!
b1 %
1.
1/
02
10
#380000
b11 %
0#
b10 %
00
11
0/
04
0&
#390000
0"
0$
b11 %
03
0.
10
#400000
b1 %
1#
1"
b0 %
00
01
1/
13
#410000
1$
b1 %
1.
10
14
1&
#420000
b11 %
0#
0$
b10 %
00
11
0/
0.
04
0&
#430000
1#
b11 %
1/
10
#440000
0"
b1 %
1$
b0 %
03
00
01
1.
#450000
1!
0$
b1 %
12
0.
10
#460000
0#
b11 %
b10 %
0/
00
11
#470000
0!
1$
b11 %
02
1.
10
14
1&
#480000
b1 %
1!
0$
b0 %
00
01
12
0.
#490000
1"
1#
1$
b1 %
13
1/
1.
10
#500000
b11 %
0!
0"
0#
0$
b10 %
00
11
02
03
0/
0.
04
0&
#510000
1!
1"
1#
b11 %
12
13
1/
10
#520000
b1 %
0"
b0 %
00
01
03
14
1&
#530000
0!
b1 %
02
10
04
0&
#540000
b11 %
1"
b10 %
00
11
13
14
1&
#550000
1$
0#
1!
b11 %
1.
0/
12
10
#560000
b1 %
0$
1#
b0 %
00
01
0.
1/
#570000
b1 %
10
#580000
0"
0!
b11 %
1$
0#
b10 %
03
02
00
11
1.
0/
04
0&
#590000
1"
1!
1#
b11 %
13
12
1/
10
14
1&
#600000
b1 %
0$
0"
0!
b0 %
00
01
0.
03
02
04
0&
#610000
0#
1"
b1 %
0/
13
10
14
1&
#620000
b11 %
1#
0"
b10 %
00
11
1/
03
#630000
1$
1"
b11 %
1.
13
10
#640000
b1 %
0#
b0 %
00
01
0/
04
0&
#650000
1!
0"
b1 %
12
03
10
#660000
b11 %
1#
0!
b10 %
00
11
1/
02
14
1&
#670000
0$
1"
0#
b11 %
0.
13
0/
10
04
0&
#680000
b1 %
1$
b0 %
00
01
1.
#690000
1#
b1 %
1/
10
14
1&
#700000
1!
b11 %
0$
b10 %
12
00
11
0.
#710000
1$
b11 %
1.
10
#720000
0#
b1 %
b0 %
0/
00
01
#730000
0"
0!
0$
b1 %
03
02
0.
10
04
0&
#740000
b11 %
1!
b10 %
00
11
12
#750000
1#
1"
1$
b11 %
1/
13
1.
10
14
1&
#760000
b1 %
0#
b0 %
00
01
0/
#770000
0!
0"
0$
1#
b1 %
02
03
0.
1/
10
04
0&
#780000
b11 %
1!
0#
b10 %
00
11
12
0/
#790000
0!
b11 %
02
10
#800000
1"
b1 %
1!
b0 %
13
00
01
12
14
1&
#810000
1$
0"
b1 %
1.
03
10
04
0&
#820000
b11 %
0!
b10 %
00
11
02
#830000
1#
0$
1!
b11 %
1/
0.
12
10
#840000
1"
b1 %
1$
b0 %
13
00
01
1.
14
1&
#850000
0!
0"
b1 %
02
03
10
04
0&
#860000
b11 %
0$
1!
1"
b10 %
00
11
0.
12
13
14
1&
#870000
0!
b11 %
02
10
04
0&
#880000
b1 %
1!
b0 %
00
01
12
14
1&
#890000
0#
0"
0!
b1 %
0/
03
02
10
04
0&
#900000
b11 %
1#
1"
b10 %
00
11
1/
13
14
1&
#910000
1$
0#
0"
b11 %
1.
0/
03
10
#920000
1!
b1 %
1#
1"
b0 %
12
00
01
1/
13
#930000
0#
b1 %
0/
10
#940000
0$
b11 %
1#
b10 %
0.
00
11
1/
#950000
0!
0#
b11 %
02
0/
10
04
0&
#960000
b1 %
b0 %
00
01
#970000
0"
1$
b1 %
03
1.
10
#980000
b11 %
1"
0$
b10 %
00
11
13
0.
#990000
1#
0"
1$
b11 %
1/
03
1.
10
14
1&
