Aula_13_04_22/maquina_de_lavar/simulation/qsim/maquina_de_lavar.msim.vcd
$comment
	File created using the following command:
		vcd file maquina_de_lavar.msim.vcd -direction
$end
$date
	Wed Apr 13 15:32:05 2022
$end
$version
	ModelSim Version 2020.1
$end
$timescale
	1ps
$end

$scope module maquina_de_lavar_vlg_vec_tst $end
$var reg 1 ! cheio $end
$var reg 1 " clock $end
$var reg 1 # inicio $end
$var reg 1 $ reset_n $end
$var reg 1 % secar $end
$var reg 1 & tempo $end
$var wire 1 ' estado_atual [1] $end
$var wire 1 ( estado_atual [0] $end
$var wire 1 ) modo_agitar $end
$var wire 1 * modo_girar $end
$var wire 1 + valvula_agua $end

$scope module i1 $end
$var wire 1 , gnd $end
$var wire 1 - vcc $end
$var wire 1 . unknown $end
$var tri1 1 / devclrn $end
$var tri1 1 0 devpor $end
$var tri1 1 1 devoe $end
$var wire 1 2 ~QUARTUS_CREATED_GND~I_combout $end
$var wire 1 3 clock~input_o $end
$var wire 1 4 clock~inputCLKENA0_outclk $end
$var wire 1 5 secar~input_o $end
$var wire 1 6 cheio~input_o $end
$var wire 1 7 inicio~input_o $end
$var wire 1 8 tempo~input_o $end
$var wire 1 9 estado_atual[0]~0_combout $end
$var wire 1 : reset_n~input_o $end
$var wire 1 ; estado_atual[0]~reg0_q $end
$var wire 1 < estado_atual[1]~1_combout $end
$var wire 1 = estado_atual[1]~reg0_q $end
$var wire 1 > Decoder0~0_combout $end
$var wire 1 ? Decoder0~1_combout $end
$var wire 1 @ Decoder0~2_combout $end
$upscope $end
$upscope $end
$enddefinitions $end
#0
$dumpvars
0!
0"
0#
1$
1%
0&
0(
0'
0)
0*
0+
0,
1-
x.
1/
10
11
02
03
04
15
06
07
08
09
1:
0;
0<
0=
0>
0?
0@
$end
#10000
1"
13
14
#20000
1#
0"
17
03
04
19
#30000
1"
13
14
1;
1(
1>
1+
#40000
0#
0"
07
03
04
#50000
1!
1"
16
13
14
1<
09
#60000
0"
03
04
#70000
0!
1"
06
13
14
0<
19
1=
0;
0(
1'
1?
0>
1<
09
0+
1)
#80000
1&
0"
18
03
04
19
#90000
1"
13
14
1;
1(
1@
0?
0)
1*
#100000
0&
0"
08
03
04
#110000
1"
13
14
#120000
0"
03
04
#130000
0%
1"
05
13
14
0<
09
#140000
1%
0"
15
03
04
1<
19
#150000
1"
13
14
#160000
0"
03
04
#170000
1"
13
14
#180000
0"
03
04
#190000
1"
13
14
#200000
0"
03
04
#210000
1"
13
14
#220000
0"
03
04
#230000
1"
13
14
#240000
0"
03
04
#250000
1"
13
14
#260000
0"
03
04
#270000
1"
13
14
#280000
0"
03
04
#290000
1"
13
14
#300000
0"
03
04
#310000
1"
13
14
#320000
0"
03
04
#330000
1"
13
14
#340000
0"
03
04
#350000
1"
13
14
#360000
0"
03
04
#370000
1"
13
14
#380000
0"
03
04
#390000
1"
13
14
#400000
0"
03
04
#410000
1"
13
14
#420000
0"
03
04
#430000
1"
13
14
#440000
0"
03
04
#450000
1"
13
14
#460000
0"
03
04
#470000
1"
13
14
#480000
0"
03
04
#490000
1"
13
14
#500000
0"
03
04
#510000
1"
13
14
#520000
0"
03
04
#530000
1"
13
14
#540000
0"
03
04
#550000
1"
13
14
#560000
0"
03
04
#570000
1"
13
14
#580000
0"
03
04
#590000
1"
13
14
#600000
0"
03
04
#610000
1"
13
14
#620000
0"
03
04
#630000
1"
13
14
#640000
0"
03
04
#650000
1"
13
14
#660000
0"
03
04
#670000
1"
13
14
#680000
0"
03
04
#690000
1"
13
14
#700000
0"
03
04
#710000
1"
13
14
#720000
0"
03
04
#730000
1"
13
14
#740000
0"
03
04
#750000
1"
13
14
#760000
0"
03
04
#770000
1"
13
14
#780000
0"
03
04
#790000
1"
13
14
#800000
0"
03
04
#810000
1"
13
14
#820000
0"
03
04
#830000
1"
13
14
#840000
0"
03
04
#850000
1"
13
14
#860000
0"
03
04
#870000
1"
13
14
#880000
0"
03
04
#890000
1"
13
14
#900000
0"
03
04
#910000
1"
13
14
#920000
0"
03
04
#930000
1"
13
14
#940000
0"
03
04
#950000
1"
13
14
#960000
0"
03
04
#970000
1"
13
14
#980000
0"
03
04
#990000
1"
13
14
