Aula_04_04_22/contador_120/simulation/qsim/contador_120.msim.vcd
$comment
	File created using the following command:
		vcd file contador_120.msim.vcd -direction
$end
$date
	Mon Apr 04 15:40:14 2022
$end
$version
	ModelSim Version 2020.1
$end
$timescale
	1ps
$end

$scope module contador_120_vlg_vec_tst $end
$var reg 1 ! clock $end
$var reg 1 " reset $end
$var wire 1 # s [6] $end
$var wire 1 $ s [5] $end
$var wire 1 % s [4] $end
$var wire 1 & s [3] $end
$var wire 1 ' s [2] $end
$var wire 1 ( s [1] $end
$var wire 1 ) s [0] $end

$scope module i1 $end
$var wire 1 * gnd $end
$var wire 1 + vcc $end
$var wire 1 , unknown $end
$var tri1 1 - devclrn $end
$var tri1 1 . devpor $end
$var tri1 1 / devoe $end
$var wire 1 0 ~QUARTUS_CREATED_GND~I_combout $end
$var wire 1 1 clock~input_o $end
$var wire 1 2 clock~inputCLKENA0_outclk $end
$var wire 1 3 reset~input_o $end
$var wire 1 4 Add0~2 $end
$var wire 1 5 Add0~5_sumout $end
$var wire 1 6 s[1]~reg0_q $end
$var wire 1 7 Add0~6 $end
$var wire 1 8 Add0~9_sumout $end
$var wire 1 9 s[2]~reg0_q $end
$var wire 1 : Add0~10 $end
$var wire 1 ; Add0~13_sumout $end
$var wire 1 < s[3]~reg0_q $end
$var wire 1 = Add0~14 $end
$var wire 1 > Add0~17_sumout $end
$var wire 1 ? s[4]~reg0_q $end
$var wire 1 @ Add0~18 $end
$var wire 1 A Add0~21_sumout $end
$var wire 1 B s[5]~reg0_q $end
$var wire 1 C Add0~22 $end
$var wire 1 D Add0~25_sumout $end
$var wire 1 E s[6]~reg0_q $end
$var wire 1 F LessThan0~0_combout $end
$var wire 1 G LessThan0~1_combout $end
$var wire 1 H s[0]~reg0_q $end
$var wire 1 I Add0~1_sumout $end
$var wire 1 J s[0]~reg0DUPLICATE_q $end
$var wire 1 K s[1]~reg0DUPLICATE_q $end
$var wire 1 L s[2]~reg0DUPLICATE_q $end
$var wire 1 M s[3]~reg0DUPLICATE_q $end
$var wire 1 N s[4]~reg0DUPLICATE_q $end
$var wire 1 O s[5]~reg0DUPLICATE_q $end
$var wire 1 P s[6]~reg0DUPLICATE_q $end
$upscope $end
$upscope $end
$enddefinitions $end
#0
$dumpvars
0!
1"
0)
0(
0'
0&
0%
0$
0#
0*
1+
x,
1-
1.
1/
00
01
02
13
04
05
06
07
08
09
0:
0;
0<
0=
0>
0?
0@
0A
0B
0C
0D
0E
0F
0G
0H
1I
0J
0K
0L
0M
0N
0O
0P
$end
#1000
1!
11
12
1H
1J
1)
14
0I
15
#2000
0!
01
02
#3000
1!
11
12
0H
16
1K
0J
0)
1(
17
04
05
1I
07
18
15
08
#4000
0!
01
02
#5000
1!
11
12
1H
1J
1)
14
0I
17
05
18
#6000
0!
01
02
#7000
1!
11
12
0H
19
06
1L
0K
0J
0)
0(
1'
07
1:
04
15
08
1I
0:
18
1;
05
0;
#8000
0!
01
02
#9000
1!
11
12
1H
1J
1)
14
0I
15
#10000
0!
01
02
#11000
1!
11
12
0H
16
1K
0J
0)
1(
17
04
05
1I
1:
07
08
15
0:
1;
18
0;
#12000
0!
01
02
#13000
1!
11
12
1H
1J
1)
14
0I
17
05
1:
08
1;
#14000
0!
01
02
#15000
1!
11
12
0H
1<
09
06
1M
0L
0K
0J
0)
0(
0'
1&
07
0:
1=
04
15
18
0;
1I
0=
08
1;
1>
05
0>
#16000
0!
01
02
#17000
1!
11
12
1H
1J
1)
1F
14
0I
15
#18000
0!
01
02
#19000
1!
11
12
0H
16
1K
0J
0)
1(
17
04
05
1I
07
18
15
08
#20000
0!
01
02
#21000
1!
11
12
1H
1J
1)
14
0I
17
05
18
#22000
0!
01
02
#23000
1!
11
12
0H
19
06
1L
0K
0J
0)
0(
1'
07
1:
04
15
08
1I
0:
1=
18
0;
05
0=
1;
1>
0>
#24000
0!
01
02
#25000
1!
11
12
1H
1J
1)
14
0I
15
#26000
0!
01
02
#27000
1!
11
12
0H
16
1K
0J
0)
1(
17
04
05
1I
1:
07
08
15
1=
0:
0;
18
0=
1>
1;
0>
#28000
0!
01
02
#29000
1!
11
12
1H
1J
1)
14
0I
17
05
1:
08
1=
0;
1>
#30000
0!
01
02
#31000
1!
11
12
0H
1?
0<
09
06
1N
0M
0L
0K
0J
0)
0(
0'
0&
1%
0F
07
0:
0=
1@
04
15
18
1;
0>
1I
0@
08
0;
1>
1A
05
0A
#32000
0!
01
02
#33000
1!
11
12
1H
1J
1)
14
0I
15
#34000
0!
01
02
#35000
1!
11
12
0H
16
1K
0J
0)
1(
17
04
05
1I
07
18
15
08
#36000
0!
01
02
#37000
1!
11
12
1H
1J
1)
14
0I
17
05
18
#38000
0!
01
02
#39000
1!
11
12
0H
19
06
1L
0K
0J
0)
0(
1'
07
1:
04
15
08
1I
0:
18
1;
05
0;
#40000
0!
01
02
#41000
1!
11
12
1H
1J
1)
14
0I
15
#42000
0!
01
02
#43000
1!
11
12
0H
16
1K
0J
0)
1(
17
04
05
1I
1:
07
08
15
0:
1;
18
0;
#44000
0!
01
02
#45000
1!
11
12
1H
1J
1)
14
0I
17
05
1:
08
1;
#46000
0!
01
02
#47000
1!
11
12
0H
1<
09
06
1M
0L
0K
0J
0)
0(
0'
1&
07
0:
1=
04
15
18
0;
1I
0=
1@
08
1;
0>
05
0@
1>
1A
0A
#48000
0!
01
02
#49000
1!
11
12
1H
1J
1)
1F
14
0I
15
#50000
0!
01
02
#51000
1!
11
12
0H
16
1K
0J
0)
1(
17
04
05
1I
07
18
15
08
#52000
0!
01
02
#53000
1!
11
12
1H
1J
1)
14
0I
17
05
18
#54000
0!
01
02
#55000
1!
11
12
0H
19
06
1L
0K
0J
0)
0(
1'
07
1:
04
15
08
1I
0:
1=
18
0;
05
0=
1@
1;
0>
0@
1>
1A
0A
#56000
0!
01
02
#57000
1!
11
12
1H
1J
1)
14
0I
15
#58000
0!
01
02
#59000
1!
11
12
0H
16
1K
0J
0)
1(
17
04
05
1I
1:
07
08
15
1=
0:
0;
18
1@
0=
0>
1;
0@
1A
1>
0A
#60000
0!
01
02
#61000
1!
11
12
1H
1J
1)
14
0I
17
05
1:
08
1=
0;
1@
0>
1A
#62000
0!
01
02
#63000
1!
11
12
0H
1B
0?
0<
09
06
1O
0N
0M
0L
0K
0J
0)
0(
0'
0&
0%
1$
0F
07
0:
0=
0@
1C
04
15
18
1;
1>
0A
1I
0C
08
0;
0>
1A
1D
05
0D
#64000
0!
01
02
#65000
1!
11
12
1H
1J
1)
14
0I
15
#66000
0!
01
02
#67000
1!
11
12
0H
16
1K
0J
0)
1(
17
04
05
1I
07
18
15
08
#68000
0!
01
02
#69000
1!
11
12
1H
1J
1)
14
0I
17
05
18
#70000
0"
0!
03
01
02
06
0B
0H
0J
0K
0O
0$
0(
0)
04
07
1I
0A
15
05
08
#71000
1!
11
12
#72000
0!
01
02
#73000
1!
11
12
#74000
0!
01
02
#75000
1!
11
12
#76000
0!
01
02
#77000
1!
11
12
#78000
0!
01
02
#79000
1!
11
12
#80000
0!
01
02
#81000
1!
11
12
#82000
0!
01
02
#83000
1!
11
12
#84000
0!
01
02
#85000
1!
11
12
#86000
0!
01
02
#87000
1!
11
12
#88000
0!
01
02
#89000
1!
11
12
#90000
0!
01
02
#91000
1!
11
12
#92000
0!
01
02
#93000
1!
11
12
#94000
0!
01
02
#95000
1!
11
12
#96000
0!
01
02
#97000
1!
11
12
#98000
0!
01
02
#99000
1!
11
12
#100000
0!
01
02
#101000
1!
11
12
#102000
0!
01
02
#103000
1!
11
12
#104000
0!
01
02
#105000
1!
11
12
#106000
0!
01
02
#107000
1!
11
12
#108000
0!
01
02
#109000
1!
11
12
#110000
0!
01
02
#111000
1!
11
12
#112000
0!
01
02
#113000
1!
11
12
#114000
0!
01
02
#115000
1!
11
12
#116000
0!
01
02
#117000
1!
11
12
#118000
0!
01
02
#119000
1!
11
12
#120000
0!
01
02
#121000
1!
11
12
#122000
0!
01
02
#123000
1!
11
12
#124000
0!
01
02
#125000
1!
11
12
#126000
0!
01
02
#127000
1!
11
12
#128000
0!
01
02
#129000
1!
11
12
#130000
1"
0!
13
01
02
#131000
1!
11
12
1H
1J
1)
14
0I
15
#132000
0!
01
02
#133000
1!
11
12
0H
16
1K
0J
0)
1(
17
04
05
1I
07
18
15
08
#134000
0!
01
02
#135000
1!
11
12
1H
1J
1)
14
0I
17
05
18
#136000
0!
01
02
#137000
1!
11
12
0H
19
06
1L
0K
0J
0)
0(
1'
07
1:
04
15
08
1I
0:
18
1;
05
0;
#138000
0!
01
02
#139000
1!
11
12
1H
1J
1)
14
0I
15
#140000
0!
01
02
#141000
1!
11
12
0H
16
1K
0J
0)
1(
17
04
05
1I
1:
07
08
15
0:
1;
18
0;
#142000
0!
01
02
#143000
1!
11
12
1H
1J
1)
14
0I
17
05
1:
08
1;
#144000
0!
01
02
#145000
1!
11
12
0H
1<
09
06
1M
0L
0K
0J
0)
0(
0'
1&
07
0:
1=
04
15
18
0;
1I
0=
08
1;
1>
05
0>
#146000
0!
01
02
#147000
1!
11
12
1H
1J
1)
1F
14
0I
15
#148000
0!
01
02
#149000
1!
11
12
0H
16
1K
0J
0)
1(
17
04
05
1I
07
18
15
08
#150000
0!
01
02
#151000
1!
11
12
1H
1J
1)
14
0I
17
05
18
#152000
0!
01
02
#153000
1!
11
12
0H
19
06
1L
0K
0J
0)
0(
1'
07
1:
04
15
08
1I
0:
1=
18
0;
05
0=
1;
1>
0>
#154000
0!
01
02
#155000
1!
11
12
1H
1J
1)
14
0I
15
#156000
0!
01
02
#157000
1!
11
12
0H
16
1K
0J
0)
1(
17
04
05
1I
1:
07
08
15
1=
0:
0;
18
0=
1>
1;
0>
#158000
0!
01
02
#159000
1!
11
12
1H
1J
1)
14
0I
17
05
1:
08
1=
0;
1>
#160000
0!
01
02
#161000
1!
11
12
0H
1?
0<
09
06
1N
0M
0L
0K
0J
0)
0(
0'
0&
1%
0F
07
0:
0=
1@
04
15
18
1;
0>
1I
0@
08
0;
1>
1A
05
0A
#162000
0!
01
02
#163000
1!
11
12
1H
1J
1)
14
0I
15
#164000
0!
01
02
#165000
1!
11
12
0H
16
1K
0J
0)
1(
17
04
05
1I
07
18
15
08
#166000
0!
01
02
#167000
1!
11
12
1H
1J
1)
14
0I
17
05
18
#168000
0!
01
02
#169000
1!
11
12
0H
19
06
1L
0K
0J
0)
0(
1'
07
1:
04
15
08
1I
0:
18
1;
05
0;
#170000
0!
01
02
#171000
1!
11
12
1H
1J
1)
14
0I
15
#172000
0!
01
02
#173000
1!
11
12
0H
16
1K
0J
0)
1(
17
04
05
1I
1:
07
08
15
0:
1;
18
0;
#174000
0!
01
02
#175000
1!
11
12
1H
1J
1)
14
0I
17
05
1:
08
1;
#176000
0!
01
02
#177000
1!
11
12
0H
1<
09
06
1M
0L
0K
0J
0)
0(
0'
1&
07
0:
1=
04
15
18
0;
1I
0=
1@
08
1;
0>
05
0@
1>
1A
0A
#178000
0!
01
02
#179000
1!
11
12
1H
1J
1)
1F
14
0I
15
#180000
0!
01
02
#181000
1!
11
12
0H
16
1K
0J
0)
1(
17
04
05
1I
07
18
15
08
#182000
0!
01
02
#183000
1!
11
12
1H
1J
1)
14
0I
17
05
18
#184000
0!
01
02
#185000
1!
11
12
0H
19
06
1L
0K
0J
0)
0(
1'
07
1:
04
15
08
1I
0:
1=
18
0;
05
0=
1@
1;
0>
0@
1>
1A
0A
#186000
0!
01
02
#187000
1!
11
12
1H
1J
1)
14
0I
15
#188000
0!
01
02
#189000
1!
11
12
0H
16
1K
0J
0)
1(
17
04
05
1I
1:
07
08
15
1=
0:
0;
18
1@
0=
0>
1;
0@
1A
1>
0A
#190000
0!
01
02
#191000
1!
11
12
1H
1J
1)
14
0I
17
05
1:
08
1=
0;
1@
0>
1A
#192000
0!
01
02
#193000
1!
11
12
0H
1B
0?
0<
09
06
1O
0N
0M
0L
0K
0J
0)
0(
0'
0&
0%
1$
0F
07
0:
0=
0@
1C
04
15
18
1;
1>
0A
1I
0C
08
0;
0>
1A
1D
05
0D
#194000
0!
01
02
#195000
1!
11
12
1H
1J
1)
14
0I
15
#196000
0!
01
02
#197000
1!
11
12
0H
16
1K
0J
0)
1(
17
04
05
1I
07
18
15
08
#198000
0!
01
02
#199000
1!
11
12
1H
1J
1)
14
0I
17
05
18
#200000
0!
01
02
#201000
1!
11
12
0H
19
06
1L
0K
0J
0)
0(
1'
07
1:
04
15
08
1I
0:
18
1;
05
0;
#202000
0!
01
02
#203000
1!
11
12
1H
1J
1)
14
0I
15
#204000
0!
01
02
#205000
1!
11
12
0H
16
1K
0J
0)
1(
17
04
05
1I
1:
07
08
15
0:
1;
18
0;
#206000
0!
01
02
#207000
1!
11
12
1H
1J
1)
14
0I
17
05
1:
08
1;
#208000
0!
01
02
#209000
1!
11
12
0H
1<
09
06
1M
0L
0K
0J
0)
0(
0'
1&
07
0:
1=
04
15
18
0;
1I
0=
08
1;
1>
05
0>
#210000
0!
01
02
#211000
1!
11
12
1H
1J
1)
1F
14
0I
15
#212000
0!
01
02
#213000
1!
11
12
0H
16
1K
0J
0)
1(
17
04
05
1I
07
18
15
08
#214000
0!
01
02
#215000
1!
11
12
1H
1J
1)
14
0I
17
05
18
#216000
0!
01
02
#217000
1!
11
12
0H
19
06
1L
0K
0J
0)
0(
1'
07
1:
04
15
08
1I
0:
1=
18
0;
05
0=
1;
1>
0>
#218000
0!
01
02
#219000
1!
11
12
1H
1J
1)
14
0I
15
#220000
0!
01
02
#221000
1!
11
12
0H
16
1K
0J
0)
1(
17
04
05
1I
1:
07
08
15
1=
0:
0;
18
0=
1>
1;
0>
#222000
0!
01
02
#223000
1!
11
12
1H
1J
1)
14
0I
17
05
1:
08
1=
0;
1>
#224000
0!
01
02
#225000
1!
11
12
0H
1?
0<
09
06
1N
0M
0L
0K
0J
0)
0(
0'
0&
1%
0F
07
0:
0=
1@
04
15
18
1;
0>
1I
0@
1C
08
0;
1>
0A
05
0C
1A
1D
0D
#226000
0!
01
02
#227000
1!
11
12
1H
1J
1)
14
0I
15
#228000
0!
01
02
#229000
1!
11
12
0H
16
1K
0J
0)
1(
17
04
05
1I
07
18
15
08
#230000
0!
01
02
#231000
1!
11
12
1H
1J
1)
14
0I
17
05
18
#232000
0!
01
02
#233000
1!
11
12
0H
19
06
1L
0K
0J
0)
0(
1'
07
1:
04
15
08
1I
0:
18
1;
05
0;
#234000
0!
01
02
#235000
1!
11
12
1H
1J
1)
14
0I
15
#236000
0!
01
02
#237000
1!
11
12
0H
16
1K
0J
0)
1(
17
04
05
1I
1:
07
08
15
0:
1;
18
0;
#238000
0!
01
02
#239000
1!
11
12
1H
1J
1)
14
0I
17
05
1:
08
1;
#240000
0!
01
02
#241000
1!
11
12
0H
1<
09
06
1M
0L
0K
0J
0)
0(
0'
1&
07
0:
1=
04
15
18
0;
1I
0=
1@
08
1;
0>
05
0@
1C
1>
0A
0C
1A
1D
0D
#242000
0!
01
02
#243000
1!
11
12
1H
1J
1)
1F
14
0I
15
#244000
0!
01
02
#245000
1!
11
12
0H
16
1K
0J
0)
1(
17
04
05
1I
07
18
15
08
#246000
0!
01
02
#247000
1!
11
12
1H
1J
1)
14
0I
17
05
18
#248000
0!
01
02
#249000
1!
11
12
0H
19
06
1L
0K
0J
0)
0(
1'
07
1:
04
15
08
1I
0:
1=
18
0;
05
0=
1@
1;
0>
0@
1C
1>
0A
0C
1A
1D
0D
#250000
0!
01
02
#251000
1!
11
12
1H
1J
1)
14
0I
15
#252000
0!
01
02
#253000
1!
11
12
0H
16
1K
0J
0)
1(
17
04
05
1I
1:
07
08
15
1=
0:
0;
18
1@
0=
0>
1;
1C
0@
0A
1>
0C
1D
1A
0D
#254000
0!
01
02
#255000
1!
11
12
1H
1J
1)
14
0I
17
05
1:
08
1=
0;
1@
0>
1C
0A
1D
#256000
0!
01
02
#257000
1!
11
12
0H
1E
0B
0?
0<
09
06
1P
0O
0N
0M
0L
0K
0J
0)
0(
0'
0&
0%
0$
1#
0F
07
0:
0=
0@
0C
04
15
18
1;
1>
1A
0D
1I
08
0;
0>
0A
1D
05
#258000
0!
01
02
#259000
1!
11
12
1H
1J
1)
14
0I
15
#260000
0!
01
02
#261000
1!
11
12
0H
16
1K
0J
0)
1(
17
04
05
1I
07
18
15
08
#262000
0!
01
02
#263000
1!
11
12
1H
1J
1)
14
0I
17
05
18
#264000
0!
01
02
#265000
1!
11
12
0H
19
06
1L
0K
0J
0)
0(
1'
07
1:
04
15
08
1I
0:
18
1;
05
0;
#266000
0!
01
02
#267000
1!
11
12
1H
1J
1)
14
0I
15
#268000
0!
01
02
#269000
1!
11
12
0H
16
1K
0J
0)
1(
17
04
05
1I
1:
07
08
15
0:
1;
18
0;
#270000
0!
01
02
#271000
1!
11
12
1H
1J
1)
14
0I
17
05
1:
08
1;
#272000
0!
01
02
#273000
1!
11
12
0H
1<
09
06
1M
0L
0K
0J
0)
0(
0'
1&
07
0:
1=
04
15
18
0;
1I
0=
08
1;
1>
05
0>
#274000
0!
01
02
#275000
1!
11
12
1H
1J
1)
1F
14
0I
15
#276000
0!
01
02
#277000
1!
11
12
0H
16
1K
0J
0)
1(
17
04
05
1I
07
18
15
08
#278000
0!
01
02
#279000
1!
11
12
1H
1J
1)
14
0I
17
05
18
#280000
0!
01
02
#281000
1!
11
12
0H
19
06
1L
0K
0J
0)
0(
1'
07
1:
04
15
08
1I
0:
1=
18
0;
05
0=
1;
1>
0>
#282000
0!
01
02
#283000
1!
11
12
1H
1J
1)
14
0I
15
#284000
0!
01
02
#285000
1!
11
12
0H
16
1K
0J
0)
1(
17
04
05
1I
1:
07
08
15
1=
0:
0;
18
0=
1>
1;
0>
#286000
0!
01
02
#287000
1!
11
12
1H
1J
1)
14
0I
17
05
1:
08
1=
0;
1>
#288000
0!
01
02
#289000
1!
11
12
0H
1?
0<
09
06
1N
0M
0L
0K
0J
0)
0(
0'
0&
1%
0F
07
0:
0=
1@
04
15
18
1;
0>
1I
0@
08
0;
1>
1A
05
0A
#290000
0!
01
02
#291000
1!
11
12
1H
1J
1)
14
0I
15
#292000
0!
01
02
#293000
1!
11
12
0H
16
1K
0J
0)
1(
17
04
05
1I
07
18
15
08
#294000
0!
01
02
#295000
1!
11
12
1H
1J
1)
14
0I
17
05
18
#296000
0!
01
02
#297000
1!
11
12
0H
19
06
1L
0K
0J
0)
0(
1'
07
1:
04
15
08
1I
0:
18
1;
05
0;
#298000
0!
01
02
#299000
1!
11
12
1H
1J
1)
14
0I
15
#300000
0!
01
02
#301000
1!
11
12
0H
16
1K
0J
0)
1(
17
04
05
1I
1:
07
08
15
0:
1;
18
0;
#302000
0!
01
02
#303000
1!
11
12
1H
1J
1)
14
0I
17
05
1:
08
1;
#304000
0!
01
02
#305000
1!
11
12
0H
1<
09
06
1M
0L
0K
0J
0)
0(
0'
1&
07
0:
1=
04
15
18
0;
1I
0=
1@
08
1;
0>
05
0@
1>
1A
0A
#306000
0!
01
02
#307000
1!
11
12
1H
1J
1)
1F
14
0I
15
#308000
0!
01
02
#309000
1!
11
12
0H
16
1K
0J
0)
1(
17
04
05
1I
07
18
15
08
#310000
0!
01
02
#311000
1!
11
12
1H
1J
1)
14
0I
17
05
18
#312000
0!
01
02
#313000
1!
11
12
0H
19
06
1L
0K
0J
0)
0(
1'
07
1:
04
15
08
1I
0:
1=
18
0;
05
0=
1@
1;
0>
0@
1>
1A
0A
#314000
0!
01
02
#315000
1!
11
12
1H
1J
1)
14
0I
15
#316000
0!
01
02
#317000
1!
11
12
0H
16
1K
0J
0)
1(
17
04
05
1I
1:
07
08
15
1=
0:
0;
18
1@
0=
0>
1;
0@
1A
1>
0A
#318000
0!
01
02
#319000
1!
11
12
1H
1J
1)
14
0I
17
05
1:
08
1=
0;
1@
0>
1A
#320000
0!
01
02
#321000
1!
11
12
0H
1B
0?
0<
09
06
1O
0N
0M
0L
0K
0J
0)
0(
0'
0&
0%
1$
0F
07
0:
0=
0@
1C
04
15
18
1;
1>
0A
1I
0C
08
0;
0>
1A
0D
05
1D
#322000
0!
01
02
#323000
1!
11
12
1H
1J
1)
14
0I
15
#324000
0!
01
02
#325000
1!
11
12
0H
16
1K
0J
0)
1(
17
04
05
1I
07
18
15
08
#326000
0!
01
02
#327000
1!
11
12
1H
1J
1)
14
0I
17
05
18
#328000
0!
01
02
#329000
1!
11
12
0H
19
06
1L
0K
0J
0)
0(
1'
07
1:
04
15
08
1I
0:
18
1;
05
0;
#330000
0!
01
02
#331000
1!
11
12
1H
1J
1)
14
0I
15
#332000
0!
01
02
#333000
1!
11
12
0H
16
1K
0J
0)
1(
17
04
05
1I
1:
07
08
15
0:
1;
18
0;
#334000
0!
01
02
#335000
1!
11
12
1H
1J
1)
14
0I
17
05
1:
08
1;
#336000
0!
01
02
#337000
1!
11
12
0H
1<
09
06
1M
0L
0K
0J
0)
0(
0'
1&
07
0:
1=
04
15
18
0;
1I
0=
08
1;
1>
05
0>
#338000
0!
01
02
#339000
1!
11
12
1H
1J
1)
1F
14
0I
15
#340000
0!
01
02
#341000
1!
11
12
0H
16
1K
0J
0)
1(
17
04
05
1I
07
18
15
08
#342000
0!
01
02
#343000
1!
11
12
1H
1J
1)
14
0I
17
05
18
#344000
0!
01
02
#345000
1!
11
12
0H
19
06
1L
0K
0J
0)
0(
1'
07
1:
04
15
08
1I
0:
1=
18
0;
05
0=
1;
1>
0>
#346000
0!
01
02
#347000
1!
11
12
1H
1J
1)
14
0I
15
#348000
0!
01
02
#349000
1!
11
12
0H
16
1K
0J
0)
1(
17
04
05
1I
1:
07
08
15
1=
0:
0;
18
0=
1>
1;
0>
#350000
0!
01
02
#351000
1!
11
12
1H
1J
1)
14
0I
17
05
1:
08
1=
0;
1>
#352000
0!
01
02
#353000
1!
11
12
0H
1?
0<
09
06
1N
0M
0L
0K
0J
0)
0(
0'
0&
1%
0F
07
0:
0=
1G
1@
04
15
18
1;
0>
1I
0@
1C
0G
08
0;
1>
0A
05
0C
1A
0D
1D
#354000
0!
01
02
#355000
1!
11
12
1H
1J
1)
14
0I
15
#356000
0!
01
02
#357000
1!
11
12
0H
16
1K
0J
0)
1(
17
04
05
1I
07
18
15
08
#358000
0!
01
02
#359000
1!
11
12
1H
1J
1)
14
0I
17
05
18
#360000
0!
01
02
#361000
1!
11
12
0H
19
06
1L
0K
0J
0)
0(
1'
07
1:
04
15
08
1I
0:
18
1;
05
0;
#362000
0!
01
02
#363000
1!
11
12
1H
1J
1)
14
0I
15
#364000
0!
01
02
#365000
1!
11
12
0H
16
1K
0J
0)
1(
17
04
05
1I
1:
07
08
15
0:
1;
18
0;
#366000
0!
01
02
#367000
1!
11
12
1H
1J
1)
14
0I
17
05
1:
08
1;
#368000
0!
01
02
#369000
1!
11
12
0H
1<
09
06
1M
0L
0K
0J
0)
0(
0'
1&
07
0:
1=
04
15
18
0;
1I
0=
1@
08
1;
0>
05
0@
1C
1>
0A
0C
1A
0D
1D
#370000
0!
01
02
#371000
1!
11
12
1H
1J
1)
1F
14
0I
1G
15
#372000
0!
01
02
#373000
1!
11
12
0H
0E
0B
0?
0<
0P
0O
0N
0M
0J
0)
0&
0%
0$
0#
0F
0G
04
0;
0>
0A
0D
1I
05
#374000
0!
01
02
#375000
1!
11
12
1H
1J
1)
14
0I
15
#376000
0!
01
02
#377000
1!
11
12
0H
16
1K
0J
0)
1(
17
04
05
1I
07
18
15
08
#378000
0!
01
02
#379000
1!
11
12
1H
1J
1)
14
0I
17
05
18
#380000
0!
01
02
#381000
1!
11
12
0H
19
06
1L
0K
0J
0)
0(
1'
07
1:
04
15
08
1I
0:
18
1;
05
0;
#382000
0!
01
02
#383000
1!
11
12
1H
1J
1)
14
0I
15
#384000
0!
01
02
#385000
1!
11
12
0H
16
1K
0J
0)
1(
17
04
05
1I
1:
07
08
15
0:
1;
18
0;
#386000
0!
01
02
#387000
1!
11
12
1H
1J
1)
14
0I
17
05
1:
08
1;
#388000
0!
01
02
#389000
1!
11
12
0H
1<
09
06
1M
0L
0K
0J
0)
0(
0'
1&
07
0:
1=
04
15
18
0;
1I
0=
08
1;
1>
05
0>
#390000
0!
01
02
#391000
1!
11
12
1H
1J
1)
1F
14
0I
15
#392000
0!
01
02
#393000
1!
11
12
0H
16
1K
0J
0)
1(
17
04
05
1I
07
18
15
08
#394000
0!
01
02
#395000
1!
11
12
1H
1J
1)
14
0I
17
05
18
#396000
0!
01
02
#397000
1!
11
12
0H
19
06
1L
0K
0J
0)
0(
1'
07
1:
04
15
08
1I
0:
1=
18
0;
05
0=
1;
1>
0>
#398000
0!
01
02
#399000
1!
11
12
1H
1J
1)
14
0I
15
#400000
0!
01
02
#401000
1!
11
12
0H
16
1K
0J
0)
1(
17
04
05
1I
1:
07
08
15
1=
0:
0;
18
0=
1>
1;
0>
#402000
0!
01
02
#403000
1!
11
12
1H
1J
1)
14
0I
17
05
1:
08
1=
0;
1>
#404000
0!
01
02
#405000
1!
11
12
0H
1?
0<
09
06
1N
0M
0L
0K
0J
0)
0(
0'
0&
1%
0F
07
0:
0=
1@
04
15
18
1;
0>
1I
0@
08
0;
1>
1A
05
0A
#406000
0!
01
02
#407000
1!
11
12
1H
1J
1)
14
0I
15
#408000
0!
01
02
#409000
1!
11
12
0H
16
1K
0J
0)
1(
17
04
05
1I
07
18
15
08
#410000
0!
01
02
#411000
1!
11
12
1H
1J
1)
14
0I
17
05
18
#412000
0!
01
02
#413000
1!
11
12
0H
19
06
1L
0K
0J
0)
0(
1'
07
1:
04
15
08
1I
0:
18
1;
05
0;
#414000
0!
01
02
#415000
1!
11
12
1H
1J
1)
14
0I
15
#416000
0!
01
02
#417000
1!
11
12
0H
16
1K
0J
0)
1(
17
04
05
1I
1:
07
08
15
0:
1;
18
0;
#418000
0!
01
02
#419000
1!
11
12
1H
1J
1)
14
0I
17
05
1:
08
1;
#420000
0!
01
02
#421000
1!
11
12
0H
1<
09
06
1M
0L
0K
0J
0)
0(
0'
1&
07
0:
1=
04
15
18
0;
1I
0=
1@
08
1;
0>
05
0@
1>
1A
0A
#422000
0!
01
02
#423000
1!
11
12
1H
1J
1)
1F
14
0I
15
#424000
0!
01
02
#425000
1!
11
12
0H
16
1K
0J
0)
1(
17
04
05
1I
07
18
15
08
#426000
0!
01
02
#427000
1!
11
12
1H
1J
1)
14
0I
17
05
18
#428000
0!
01
02
#429000
1!
11
12
0H
19
06
1L
0K
0J
0)
0(
1'
07
1:
04
15
08
1I
0:
1=
18
0;
05
0=
1@
1;
0>
0@
1>
1A
0A
#430000
0!
01
02
#431000
1!
11
12
1H
1J
1)
14
0I
15
#432000
0!
01
02
#433000
1!
11
12
0H
16
1K
0J
0)
1(
17
04
05
1I
1:
07
08
15
1=
0:
0;
18
1@
0=
0>
1;
0@
1A
1>
0A
#434000
0!
01
02
#435000
1!
11
12
1H
1J
1)
14
0I
17
05
1:
08
1=
0;
1@
0>
1A
#436000
0!
01
02
#437000
1!
11
12
0H
1B
0?
0<
09
06
1O
0N
0M
0L
0K
0J
0)
0(
0'
0&
0%
1$
0F
07
0:
0=
0@
1C
04
15
18
1;
1>
0A
1I
0C
08
0;
0>
1A
1D
05
0D
#438000
0!
01
02
#439000
1!
11
12
1H
1J
1)
14
0I
15
#440000
0!
01
02
#441000
1!
11
12
0H
16
1K
0J
0)
1(
17
04
05
1I
07
18
15
08
#442000
0!
01
02
#443000
1!
11
12
1H
1J
1)
14
0I
17
05
18
#444000
0!
01
02
#445000
1!
11
12
0H
19
06
1L
0K
0J
0)
0(
1'
07
1:
04
15
08
1I
0:
18
1;
05
0;
#446000
0!
01
02
#447000
1!
11
12
1H
1J
1)
14
0I
15
#448000
0!
01
02
#449000
1!
11
12
0H
16
1K
0J
0)
1(
17
04
05
1I
1:
07
08
15
0:
1;
18
0;
#450000
0!
01
02
#451000
1!
11
12
1H
1J
1)
14
0I
17
05
1:
08
1;
#452000
0!
01
02
#453000
1!
11
12
0H
1<
09
06
1M
0L
0K
0J
0)
0(
0'
1&
07
0:
1=
04
15
18
0;
1I
0=
08
1;
1>
05
0>
#454000
0!
01
02
#455000
1!
11
12
1H
1J
1)
1F
14
0I
15
#456000
0!
01
02
#457000
1!
11
12
0H
16
1K
0J
0)
1(
17
04
05
1I
07
18
15
08
#458000
0!
01
02
#459000
1!
11
12
1H
1J
1)
14
0I
17
05
18
#460000
0!
01
02
#461000
1!
11
12
0H
19
06
1L
0K
0J
0)
0(
1'
07
1:
04
15
08
1I
0:
1=
18
0;
05
0=
1;
1>
0>
#462000
0!
01
02
#463000
1!
11
12
1H
1J
1)
14
0I
15
#464000
0!
01
02
#465000
1!
11
12
0H
16
1K
0J
0)
1(
17
04
05
1I
1:
07
08
15
1=
0:
0;
18
0=
1>
1;
0>
#466000
0!
01
02
#467000
1!
11
12
1H
1J
1)
14
0I
17
05
1:
08
1=
0;
1>
#468000
0!
01
02
#469000
1!
11
12
0H
1?
0<
09
06
1N
0M
0L
0K
0J
0)
0(
0'
0&
1%
0F
07
0:
0=
1@
04
15
18
1;
0>
1I
0@
1C
08
0;
1>
0A
05
0C
1A
1D
0D
#470000
0!
01
02
#471000
1!
11
12
1H
1J
1)
14
0I
15
#472000
0!
01
02
#473000
1!
11
12
0H
16
1K
0J
0)
1(
17
04
05
1I
07
18
15
08
#474000
0!
01
02
#475000
1!
11
12
1H
1J
1)
14
0I
17
05
18
#476000
0!
01
02
#477000
1!
11
12
0H
19
06
1L
0K
0J
0)
0(
1'
07
1:
04
15
08
1I
0:
18
1;
05
0;
#478000
0!
01
02
#479000
1!
11
12
1H
1J
1)
14
0I
15
#480000
0!
01
02
