Revisao/decodificador/simulation/qsim/decodificador.msim.vcd
$comment
	File created using the following command:
		vcd file decodificador.msim.vcd -direction
$end
$date
	Wed Mar 30 10:27:14 2022
$end
$version
	ModelSim Version 2020.1
$end
$timescale
	1ps
$end

$scope module decodificador_vlg_vec_tst $end
$var reg 3 ! addr [2:0] $end
$var reg 1 " nen $end
$var wire 1 # row_sel [7] $end
$var wire 1 $ row_sel [6] $end
$var wire 1 % row_sel [5] $end
$var wire 1 & row_sel [4] $end
$var wire 1 ' row_sel [3] $end
$var wire 1 ( row_sel [2] $end
$var wire 1 ) row_sel [1] $end
$var wire 1 * row_sel [0] $end

$scope module i1 $end
$var wire 1 + gnd $end
$var wire 1 , vcc $end
$var wire 1 - unknown $end
$var tri1 1 . devclrn $end
$var tri1 1 / devpor $end
$var tri1 1 0 devoe $end
$var wire 1 1 ~QUARTUS_CREATED_GND~I_combout $end
$var wire 1 2 nen~input_o $end
$var wire 1 3 addr[2]~input_o $end
$var wire 1 4 addr[0]~input_o $end
$var wire 1 5 addr[1]~input_o $end
$var wire 1 6 row_sel~0_combout $end
$var wire 1 7 row_sel~1_combout $end
$var wire 1 8 row_sel~2_combout $end
$var wire 1 9 row_sel~3_combout $end
$var wire 1 : row_sel~4_combout $end
$var wire 1 ; row_sel~5_combout $end
$var wire 1 < row_sel~6_combout $end
$var wire 1 = row_sel~7_combout $end
$upscope $end
$upscope $end
$enddefinitions $end
#0
$dumpvars
b0 !
0"
0*
0)
0(
0'
0&
0%
0$
1#
0+
1,
x-
1.
1/
10
01
02
03
04
05
06
07
08
09
0:
0;
0<
1=
$end
#10000
b100 !
b110 !
b111 !
1"
14
15
13
12
0=
0#
#20000
b11 !
b1 !
b0 !
0"
04
05
03
02
1=
1#
#30000
b100 !
b110 !
b111 !
1"
14
15
13
12
0=
0#
#40000
b101 !
0"
05
02
1:
1&
#50000
1"
12
0:
0&
#60000
b1 !
b11 !
0"
15
03
02
18
1(
#70000
b10 !
1"
04
12
08
0(
#80000
b0 !
0"
05
02
1=
1#
#90000
b1 !
1"
14
12
0=
0#
#100000
b101 !
b100 !
0"
04
13
02
19
1'
#110000
1"
12
09
0'
#120000
b101 !
0"
14
02
1:
1&
#130000
b111 !
b110 !
1"
04
15
12
0:
0&
#140000
b111 !
0"
14
02
1<
1$
#150000
b110 !
1"
04
12
0<
0$
#160000
b10 !
b0 !
b1 !
0"
14
05
03
02
16
1*
#170000
b101 !
b100 !
1"
04
13
12
06
0*
#180000
b101 !
0"
14
02
1:
1&
#190000
b111 !
1"
15
12
0:
0&
#200000
b11 !
0"
03
02
18
1(
#210000
b10 !
1"
04
12
08
0(
#220000
b0 !
0"
05
02
1=
1#
#230000
b100 !
1"
13
12
0=
0#
#240000
0"
02
19
1'
#250000
1"
12
09
0'
#260000
b101 !
b1 !
0"
14
03
02
16
1*
#270000
b11 !
b111 !
1"
15
13
12
06
0*
#280000
b110 !
b10 !
0"
04
03
02
17
1)
#290000
b11 !
b111 !
1"
14
13
12
07
0)
#300000
b110 !
0"
04
02
1;
1%
#310000
b100 !
b101 !
1"
14
05
12
0;
0%
#320000
b1 !
b11 !
0"
15
03
02
18
1(
#330000
b10 !
b0 !
1"
04
05
12
08
0(
#340000
b100 !
b101 !
0"
14
13
02
1:
1&
#350000
b111 !
b11 !
1"
15
03
12
0:
0&
#360000
b1 !
b101 !
0"
05
13
02
1:
1&
#370000
b100 !
b110 !
1"
04
15
12
0:
0&
#380000
b10 !
0"
03
02
17
1)
#390000
b0 !
b100 !
1"
05
13
12
07
0)
#400000
b0 !
0"
03
02
1=
1#
#410000
b100 !
1"
13
12
0=
0#
#420000
b110 !
b10 !
0"
15
03
02
17
1)
#430000
1"
12
07
0)
#440000
b11 !
b1 !
b101 !
0"
14
05
13
02
1:
1&
#450000
b100 !
b110 !
b10 !
1"
04
15
03
12
0:
0&
#460000
b110 !
0"
13
02
1;
1%
#470000
b100 !
1"
05
12
0;
0%
#480000
b101 !
b1 !
b11 !
0"
14
15
03
02
18
1(
#490000
1"
12
08
0(
#500000
b111 !
b101 !
0"
05
13
02
1:
1&
#510000
b1 !
b11 !
1"
15
03
12
0:
0&
#520000
b10 !
b110 !
b100 !
0"
04
05
13
02
19
1'
#530000
1"
12
09
0'
#540000
0"
02
19
1'
#550000
b110 !
1"
15
12
09
0'
#560000
b111 !
b11 !
b1 !
0"
14
05
03
02
16
1*
#570000
b0 !
1"
04
12
06
0*
#580000
b10 !
0"
15
02
17
1)
#590000
1"
12
07
0)
#600000
b110 !
b111 !
0"
14
13
02
1<
1$
#610000
b101 !
b1 !
1"
05
03
12
0<
0$
#620000
0"
02
16
1*
#630000
b101 !
1"
13
12
06
0*
#640000
b111 !
b11 !
0"
15
03
02
18
1(
#650000
1"
12
08
0(
#660000
b111 !
0"
13
02
1<
1$
#670000
b110 !
b100 !
b0 !
1"
04
05
03
12
0<
0$
#680000
b1 !
b11 !
0"
14
15
02
18
1(
#690000
b111 !
b101 !
1"
05
13
12
08
0(
#700000
b100 !
b0 !
0"
04
03
02
1=
1#
#710000
b10 !
b11 !
b111 !
1"
14
15
13
12
0=
0#
#720000
b101 !
0"
05
02
1:
1&
#730000
b111 !
1"
15
12
0:
0&
#740000
b110 !
b10 !
b0 !
0"
04
05
03
02
1=
1#
#750000
b1 !
b101 !
1"
14
13
12
0=
0#
#760000
b111 !
0"
15
02
1<
1$
#770000
b11 !
b1 !
1"
05
03
12
0<
0$
#780000
0"
02
16
1*
#790000
b0 !
b10 !
1"
04
15
12
06
0*
#800000
b110 !
b111 !
0"
14
13
02
1<
1$
#810000
b11 !
b10 !
1"
04
03
12
0<
0$
#820000
b0 !
0"
05
02
1=
1#
#830000
b100 !
b110 !
1"
15
13
12
0=
0#
#840000
b111 !
0"
14
02
1<
1$
#850000
b11 !
b10 !
1"
04
03
12
0<
0$
#860000
b0 !
b100 !
0"
05
13
02
19
1'
#870000
b101 !
b111 !
b11 !
1"
14
15
03
12
09
0'
#880000
b10 !
b0 !
0"
04
05
02
1=
1#
#890000
b1 !
b11 !
1"
14
15
12
0=
0#
#900000
0"
02
18
1(
#910000
b10 !
b0 !
1"
04
05
12
08
0(
#920000
b1 !
0"
14
02
16
1*
#930000
1"
12
06
0*
#940000
b0 !
0"
04
02
1=
1#
#950000
b100 !
1"
13
12
0=
0#
#960000
b101 !
0"
14
02
1:
1&
#970000
b100 !
1"
04
12
0:
0&
#980000
b110 !
0"
15
02
1;
1%
#990000
b111 !
1"
14
12
0;
0%
