Primeira Avaliacao/questao_03/simulation/qsim/questao_03.msim.vcd
$comment
	File created using the following command:
		vcd file questao_03.msim.vcd -direction
$end
$date
	Wed Mar 30 18:48:40 2022
$end
$version
	ModelSim Version 2020.1
$end
$timescale
	1ps
$end

$scope module questao_03_vlg_vec_tst $end
$var reg 8 ! X [7:0] $end
$var wire 1 " P $end

$scope module i1 $end
$var wire 1 # gnd $end
$var wire 1 $ vcc $end
$var wire 1 % unknown $end
$var tri1 1 & devclrn $end
$var tri1 1 ' devpor $end
$var tri1 1 ( devoe $end
$var wire 1 ) ~QUARTUS_CREATED_GND~I_combout $end
$var wire 1 * X[5]~input_o $end
$var wire 1 + X[4]~input_o $end
$var wire 1 , X[6]~input_o $end
$var wire 1 - X[2]~input_o $end
$var wire 1 . X[0]~input_o $end
$var wire 1 / X[3]~input_o $end
$var wire 1 0 X[1]~input_o $end
$var wire 1 1 WideXnor0~0_combout $end
$var wire 1 2 X[7]~input_o $end
$var wire 1 3 WideXnor0~combout $end
$upscope $end
$upscope $end
$enddefinitions $end
#0
$dumpvars
b1111111 !
0"
0#
1$
x%
1&
1'
1(
0)
1*
1+
1,
1-
1.
1/
10
01
02
13
$end
#10000
b1101111 !
0+
03
1"
#20000
b11101111 !
b10101111 !
b10001111 !
b10001011 !
b10001001 !
b10001000 !
0.
00
0-
0*
0,
12
13
11
0"
03
1"
#30000
b10011000 !
b10111000 !
b10111010 !
10
1+
1*
01
13
0"
#40000
b10110010 !
b11110010 !
b11110011 !
b11110001 !
1.
00
0/
1,
03
11
1"
13
0"
#50000
b11110101 !
b11010101 !
b10010101 !
1-
0*
0,
01
03
1"
#60000
b10101 !
b101 !
b1101 !
b1100 !
0.
1/
0+
02
#70000
b1110 !
b101110 !
b1101110 !
b1111110 !
10
1+
1*
1,
13
11
0"
03
1"
#80000
b11111110 !
b11110110 !
b11100110 !
0/
0+
12
01
13
0"
#90000
b11100010 !
b11100011 !
b10100011 !
b100011 !
1.
0-
0,
02
#100000
b100001 !
b1 !
b101 !
b1000101 !
b11000101 !
00
1-
0*
1,
12
03
1"
#110000
b11000100 !
b11000110 !
b11100110 !
b10100110 !
0.
10
1*
0,
#120000
b10110110 !
b10110111 !
b10110101 !
b10010101 !
1.
00
1+
0*
#130000
b10011101 !
b10011001 !
0-
1/
#140000
b11001 !
b1011001 !
b1001001 !
b1001000 !
b1001010 !
b1101010 !
b1100010 !
b1100110 !
0.
10
1-
0/
0+
1*
1,
02
#150000
b11100110 !
b10100110 !
b10100111 !
b10000111 !
1.
0*
0,
12
13
11
0"
03
1"
#160000
b10000101 !
b10000001 !
b1 !
00
0-
02
13
0"
#170000
b1001 !
b1001001 !
b1101001 !
b1101011 !
10
1/
1*
1,
#180000
b1101001 !
00
01
03
1"
#190000
b1101000 !
b1100000 !
b100000 !
0.
0/
0,
13
0"
#200000
b100100 !
b101100 !
1-
1/
#210000
b111100 !
b10111100 !
b10111101 !
b11111101 !
b11111001 !
b11110001 !
1.
0-
0/
1+
1,
12
03
11
1"
13
0"
#220000
b11010001 !
b11000001 !
b11000000 !
b11000100 !
0.
1-
0+
0*
#230000
b1000100 !
b100 !
0,
02
#240000
b110 !
b100110 !
b100111 !
b10100111 !
b11100111 !
1.
10
1*
1,
12
03
1"
#250000
b11101111 !
b11111111 !
b11111011 !
b11111010 !
0.
0-
1/
1+
13
01
0"
03
1"
#260000
b11111000 !
b10111000 !
b10110000 !
b10110100 !
00
1-
0/
0,
13
11
0"
03
1"
#270000
b10010100 !
b10000100 !
b10000101 !
b10000111 !
1.
10
0+
0*
#280000
b11000111 !
b11001111 !
b11001011 !
b11101011 !
b11101001 !
00
0-
1/
1*
1,
01
13
0"
#290000
b1101001 !
b1111001 !
b1111000 !
b111000 !
b110000 !
b10000 !
b10010 !
0.
10
0/
1+
0*
0,
02
11
03
1"
#300000
b110010 !
1*
13
0"
#310000
b10110010 !
b10100010 !
b10101010 !
b10001010 !
1/
0+
0*
12
03
01
1"
13
0"
#320000
b10001011 !
b10001001 !
b10101001 !
1.
00
1*
03
1"
#330000
b10111001 !
b10110001 !
b10110011 !
10
0/
1+
13
0"
#340000
b10010011 !
b10000011 !
b10001011 !
b10001001 !
00
1/
0+
0*
#350000
b10001101 !
b1101 !
b1100 !
b101100 !
b100100 !
b100110 !
0.
10
1-
0/
1*
02
#360000
b1100110 !
b1100010 !
b11100010 !
b11100011 !
b11000011 !
b11001011 !
b11001001 !
1.
00
0-
1/
0*
1,
12
03
1"
#370000
b10001001 !
b10001101 !
b1101 !
b101101 !
1-
1*
0,
02
13
11
0"
03
1"
#380000
b101100 !
b1101100 !
b1101000 !
b1001000 !
0.
0-
0*
1,
#390000
b1011000 !
b11011000 !
b11011001 !
b10011001 !
b10011101 !
b10111101 !
1.
1-
1+
1*
0,
12
#410000
b10111100 !
b11111100 !
0.
1,
13
01
0"
03
1"
#420000
b11111110 !
b11101110 !
b1101110 !
b1101010 !
b101010 !
10
0-
0+
0,
02
13
0"
#430000
b1010 !
b1011 !
b1001 !
b11001 !
1.
00
1+
0*
#440000
b10001 !
b10101 !
b110101 !
b110100 !
b110110 !
b100110 !
0.
10
1-
0/
0+
1*
#450000
b10100110 !
b10100010 !
b10100011 !
b10110011 !
1.
0-
1+
12
#460000
b10111011 !
b10011011 !
b10011001 !
b10011101 !
b10011100 !
b10001100 !
0.
00
1-
1/
0+
0*
#470000
b10011100 !
1+
03
1"
#480000
b11011100 !
b11010100 !
b11110100 !
b11110110 !
b11110111 !
b11100111 !
1.
10
0/
0+
1*
1,
13
11
0"
03
1"
#490000
b1100111 !
b1100011 !
b100011 !
b101011 !
b1011 !
b1001 !
00
0-
1/
0*
0,
02
13
01
0"
03
1"
#500000
b1000 !
b11000 !
b10011000 !
b10011100 !
b11011100 !
b11111100 !
b11111110 !
0.
10
1-
1+
1*
1,
12
11
13
0"
#510000
b11110110 !
b11100110 !
b1100110 !
b1100010 !
0-
0/
0+
02
#520000
b100010 !
b100000 !
b110000 !
b10110000 !
00
1+
0,
12
03
01
1"
13
0"
#530000
b10010000 !
b11010000 !
b11000000 !
0+
0*
1,
03
1"
#540000
b11001000 !
1/
11
13
0"
#550000
b11001100 !
b1001100 !
b1101100 !
b1111100 !
b1110100 !
1-
0/
1+
1*
02
03
1"
#560000
b1110101 !
b1110111 !
b1111111 !
1.
10
1/
01
13
0"
#570000
b111111 !
b10111111 !
b10101111 !
b10101101 !
00
0+
0,
12
03
11
1"
13
0"
#580000
b10101100 !
b10100100 !
0.
0/
#590000
b10100000 !
b10000000 !
b0 !
b1 !
1.
0-
0*
02
#600000
b1000001 !
b1000101 !
b11000101 !
b11000100 !
0.
1-
1,
12
#610000
b11000110 !
b1000110 !
10
02
03
01
1"
13
0"
#620000
b1010110 !
b1011110 !
b1111110 !
b1111111 !
b11111111 !
1.
1/
1+
1*
12
03
1"
#630000
b11111101 !
b11101101 !
b11100101 !
b1100101 !
00
0/
0+
02
#640000
b1000101 !
b1000100 !
b11000100 !
0.
0*
12
11
13
0"
#650000
b11000110 !
b11001110 !
b11101110 !
10
1/
1*
03
1"
#660000
b11101111 !
b1101111 !
b1101101 !
b1100101 !
b1000101 !
1.
00
0/
0*
02
01
13
0"
#670000
b1000001 !
b1100001 !
0-
1*
03
11
1"
13
0"
#680000
b100001 !
b110001 !
b110011 !
b111011 !
b111111 !
10
1-
1/
1+
0,
01
03
1"
#690000
b10111111 !
b10011111 !
b11011111 !
b11001111 !
b11000111 !
0/
0+
0*
1,
12
11
13
0"
#700000
b11000110 !
b11000100 !
b10000100 !
b10001100 !
0.
00
1/
0,
03
01
1"
13
0"
#710000
b1100 !
b101100 !
b101110 !
b100110 !
10
0/
1*
02
#720000
b100010 !
b100011 !
b1100011 !
b1000011 !
b1001011 !
1.
0-
1/
0*
1,
11
03
1"
#730000
b1011011 !
b11011011 !
b11011001 !
b11011101 !
b11011100 !
b11111100 !
b11110100 !
0.
00
1-
0/
1+
1*
12
13
0"
#740000
b11110110 !
b11110010 !
b11110011 !
1.
10
0-
01
03
1"
#750000
b10110011 !
b10100011 !
b10100001 !
b10100101 !
00
1-
0+
0,
#760000
b10000101 !
b10001101 !
b10001100 !
b11001100 !
b11001110 !
b11001010 !
0.
10
0-
1/
0*
1,
#770000
b1001010 !
b1101010 !
b1101011 !
b101011 !
b101111 !
1.
1-
1*
0,
02
13
0"
#780000
b100111 !
b100101 !
b100100 !
0.
00
0/
11
03
1"
#790000
b10100100 !
b10100000 !
b10101000 !
b10101001 !
1.
0-
1/
12
13
01
0"
03
1"
#800000
b10111001 !
b10111101 !
1-
1+
13
11
0"
03
1"
#810000
b10011101 !
b11101 !
b11100 !
b11000 !
0.
0-
0*
02
#820000
b11010 !
b10010 !
b10011 !
b10111 !
1.
10
1-
0/
#830000
b1010111 !
b1000111 !
b1100111 !
b11100111 !
b11100011 !
0-
0+
1*
1,
12
01
13
0"
#840000
b11100001 !
b10100001 !
b10110001 !
b10010001 !
b10001 !
00
1+
0*
0,
02
11
03
1"
#850000
b10101 !
b10111 !
b110111 !
b10110111 !
10
1-
1*
12
#860000
b10110011 !
b10010011 !
0-
0*
13
01
0"
03
1"
#870000
b10011011 !
b10011001 !
b10011101 !
00
1-
1/
11
13
0"
#880000
b10001101 !
b10000101 !
0/
0+
03
01
1"
13
0"
#890000
b10100101 !
b10100111 !
b10101111 !
10
1/
1*
03
1"
#900000
b10101110 !
b11101110 !
b11101010 !
b11111010 !
0.
0-
1+
1,
#910000
b1111010 !
b1111110 !
1-
02
13
11
0"
03
1"
#920000
b1111100 !
b1110100 !
b110100 !
b100100 !
00
0/
0+
0,
#930000
b10100100 !
b10100000 !
b10101000 !
b10111000 !
0-
1/
1+
12
#940000
b10111001 !
b11111001 !
b11111101 !
b11110101 !
b11100101 !
1.
1-
0/
0+
1,
01
13
0"
#950000
b11000101 !
b11000111 !
b1000111 !
b1000110 !
b110 !
0.
10
0*
0,
02
03
1"
#960000
b1110 !
b101110 !
b10101110 !
1/
1*
12
11
13
0"
#970000
b10101010 !
b10111010 !
b11111010 !
b11011010 !
b1011010 !
0-
1+
0*
1,
02
01
03
1"
#980000
b1011000 !
b1010000 !
b11010000 !
00
0/
12
13
0"
#990000
b11010100 !
b11000100 !
b10000100 !
b10001100 !
b1100 !
1-
1/
0+
0,
02
03
1"
