Revisao/soma_subtracao/simulation/qsim/soma_subtracao.msim.vcd
$comment
	File created using the following command:
		vcd file soma_subtracao.msim.vcd -direction
$end
$date
	Tue Mar 29 17:34:38 2022
$end
$version
	ModelSim Version 2020.1
$end
$timescale
	1ps
$end

$scope module soma_subtracao_vlg_vec_tst $end
$var reg 8 ! A [7:0] $end
$var reg 8 " B [7:0] $end
$var reg 1 # X $end
$var wire 1 $ S [8] $end
$var wire 1 % S [7] $end
$var wire 1 & S [6] $end
$var wire 1 ' S [5] $end
$var wire 1 ( S [4] $end
$var wire 1 ) S [3] $end
$var wire 1 * S [2] $end
$var wire 1 + S [1] $end
$var wire 1 , S [0] $end

$scope module i1 $end
$var wire 1 - gnd $end
$var wire 1 . vcc $end
$var wire 1 / unknown $end
$var tri1 1 0 devclrn $end
$var tri1 1 1 devpor $end
$var tri1 1 2 devoe $end
$var wire 1 3 ~QUARTUS_CREATED_GND~I_combout $end
$var wire 1 4 X~input_o $end
$var wire 1 5 B[0]~input_o $end
$var wire 1 6 A[0]~input_o $end
$var wire 1 7 Add0~38_cout $end
$var wire 1 8 Add0~1_sumout $end
$var wire 1 9 A[1]~input_o $end
$var wire 1 : B[1]~input_o $end
$var wire 1 ; Add0~2 $end
$var wire 1 < Add0~5_sumout $end
$var wire 1 = B[2]~input_o $end
$var wire 1 > A[2]~input_o $end
$var wire 1 ? Add0~6 $end
$var wire 1 @ Add0~9_sumout $end
$var wire 1 A A[3]~input_o $end
$var wire 1 B B[3]~input_o $end
$var wire 1 C Add0~10 $end
$var wire 1 D Add0~13_sumout $end
$var wire 1 E A[4]~input_o $end
$var wire 1 F B[4]~input_o $end
$var wire 1 G Add0~14 $end
$var wire 1 H Add0~17_sumout $end
$var wire 1 I B[5]~input_o $end
$var wire 1 J A[5]~input_o $end
$var wire 1 K Add0~18 $end
$var wire 1 L Add0~21_sumout $end
$var wire 1 M B[6]~input_o $end
$var wire 1 N A[6]~input_o $end
$var wire 1 O Add0~22 $end
$var wire 1 P Add0~25_sumout $end
$var wire 1 Q A[7]~input_o $end
$var wire 1 R B[7]~input_o $end
$var wire 1 S Add0~26 $end
$var wire 1 T Add0~29_sumout $end
$var wire 1 U Add0~30 $end
$var wire 1 V Add0~33_sumout $end
$upscope $end
$upscope $end
$enddefinitions $end
#0
$dumpvars
b10011100 !
b11000001 "
0#
1,
0+
1*
1)
1(
0'
1&
0%
1$
0-
1.
x/
10
11
12
03
04
15
06
07
18
09
0:
0;
0<
0=
1>
0?
1@
1A
0B
0C
1D
1E
0F
0G
1H
0I
0J
0K
0L
1M
0N
0O
1P
1Q
1R
0S
0T
1U
1V
$end
#10000
b10111100 !
b10111101 !
b10000001 "
b10010001 "
b10011001 "
b10011000 "
1#
05
1B
1F
0M
16
1J
14
0U
1O
1C
1;
17
0V
1T
0@
1<
08
0,
1+
0*
1%
0$
1S
1G
1?
1V
0P
0D
0<
18
1,
0+
0)
0&
1$
1U
1K
0T
0H
1@
1*
0(
0%
0V
1L
1'
0$
#20000
b11111101 !
b11101101 !
b11000 "
b11100 "
b11001101 !
b11001100 !
b1011100 "
b1001100 "
b1000100 "
b1000101 "
0#
15
1=
0B
0F
1M
0R
06
0E
0J
1N
04
0O
0K
0?
07
1V
1P
1H
1<
08
0,
1+
1(
1&
1$
0;
0P
0L
0@
18
1,
0*
0'
0&
0<
0+
#30000
b1001100 !
b1001000 !
b1011000 !
b1000001 "
b1010001 "
b1011001 "
1#
0=
1B
1F
0>
1E
0Q
14
0S
1K
0C
17
0V
1P
1L
0H
1@
1<
08
0,
1+
1*
0(
1'
1&
0$
0U
1O
0G
1T
0L
1D
18
1,
1)
0'
1%
1S
0K
1V
0P
1H
1(
0&
1$
1U
0O
0T
1L
1'
0%
0S
0V
1P
1&
0$
0U
1T
1%
1V
1$
#40000
b1010000 !
b10000 !
b110000 !
b110001 !
b1011000 "
b10110001 !
b10110101 !
b10100101 !
b1011100 "
b1010100 "
0#
05
1=
0B
16
1>
0A
0E
1J
0N
1Q
04
1C
1;
07
0V
0D
0@
0<
08
0,
0+
0*
0)
0$
0;
1D
1<
18
1,
1+
1)
0<
0+
#50000
b1110100 "
b1110110 "
b1100110 "
b10101101 !
b11101101 !
b11101100 !
b1101100 !
b1100010 "
1#
06
1A
1N
0Q
1:
0=
0F
1I
14
1G
17
1V
1$
1K
1;
0H
08
0,
0(
1O
0L
1<
1+
0'
1S
0P
0&
1U
0T
0%
0V
0$
#60000
b11100010 "
b11100011 "
b1111100 !
b11101011 "
b1110100 !
b110100 !
b110101 !
b10110101 !
b11101111 "
0#
16
0A
1E
0N
1Q
15
1=
1B
1R
04
1?
07
1V
1T
1L
0D
0<
18
1,
0+
0)
1'
1%
1$
1@
08
0,
1*
#70000
b10110111 !
b10101111 "
b10010111 !
b10101101 "
b10111101 "
b10111100 "
b10111000 "
1#
05
0:
0=
1F
0M
19
0J
14
0O
0G
17
0V
0T
1D
1<
1+
1)
0%
0$
0S
0K
1P
1H
18
1,
1(
1&
0U
1T
0L
0'
1%
1V
1$
#80000
b11010111 !
b11010110 !
b11111000 "
b11110110 !
b11111100 "
0#
1=
1M
06
1J
1N
04
1U
1S
1O
1K
1G
0;
07
0V
0T
0P
0H
0D
0<
0+
0)
0(
0&
0%
0$
0?
1V
1T
1P
1L
1H
1<
08
0,
1+
1(
1'
1&
1%
1$
0@
0*
#90000
b11110010 !
b1111100 "
b1101100 "
b10110010 !
b101100 "
b10010010 !
b101000 "
1#
0=
0F
0M
0R
0>
0J
0N
14
0O
0G
0C
1?
17
0V
0P
1D
1@
0<
18
1,
0+
1*
1)
0&
0$
0S
1C
1;
1P
0H
0D
0@
08
0,
0*
0)
0(
1&
0T
1D
1<
1+
1)
0%
#100000
b1000 "
b10000010 !
b0 "
b10 "
b10000110 !
b10100110 !
b110 "
0#
1>
0E
1J
1:
1=
0B
0I
04
0U
1O
0K
0;
07
1V
1T
0P
0L
1@
18
1,
1*
0'
0&
1%
1$
0O
0V
1P
1L
0<
08
0,
0+
1'
1&
0$
0P
0&
#110000
b10100100 !
b111 "
b10100101 !
b10000111 "
b10010111 "
b10011111 "
b10100001 !
1#
15
1B
1F
1R
16
09
0>
14
1O
0C
0?
17
1V
1P
0L
18
1,
0'
1&
1$
1S
1;
0P
0D
0@
08
0,
0*
0)
0&
1U
0T
1<
1+
0%
0V
0$
#120000
b10101001 !
b11011111 "
b10001001 !
b11011011 "
b10001000 !
b10001100 !
0#
0=
1M
06
1>
1A
0J
04
0O
1G
1?
07
1V
1T
1H
1@
0<
0+
1*
1(
1%
1$
0S
1K
1C
0;
1P
0H
0@
18
1,
0*
0(
1&
0?
0T
1L
1D
1<
1+
1)
1'
0%
0C
1@
1*
0D
0)
#130000
b1100 !
b11011001 "
b1110 !
b1011001 "
b1001001 "
b1010 !
1#
0:
0F
0R
19
0>
0Q
14
0U
1O
0G
1?
17
0V
1T
0P
0L
1D
0<
08
0,
0+
1)
0'
0&
1%
0$
0K
1C
1V
1P
1H
0@
18
1,
0*
1(
1&
1$
0O
1G
1L
0D
0)
1'
1K
0P
0H
0(
0&
1O
0L
0'
1P
1&
#140000
b1000001 "
b10 !
b1000101 "
b11 !
b10000011 !
b1000111 "
b10000001 !
b1010111 "
0#
16
09
0A
1Q
1:
1=
0B
1F
04
1S
0O
0G
0?
1;
07
0V
0P
1L
1D
1<
1+
1)
1'
0&
0$
1U
0S
0K
0C
1?
0T
1P
1H
1@
0<
08
0,
0+
1*
1(
1&
0%
0U
1C
1V
1T
0L
0D
0@
0*
0)
0'
1%
1$
0V
1D
1)
0$
#150000
b1110111 "
b10010001 !
b11110111 "
b10010101 !
b11111111 "
b10011101 !
b11111011 "
b10011100 !
b11111001 "
b10011110 !
1#
06
19
1>
1A
1E
0:
0=
1B
1I
1R
14
1G
0;
17
1V
0P
0D
1@
1<
1+
1*
0)
0&
1$
1K
0H
0<
18
1,
0+
0(
1L
1'
#160000
b11011110 !
b10111001 "
b10101001 "
b101001 "
0#
0F
0M
0R
1N
04
1O
0?
1;
07
0V
1P
0L
1D
0@
1<
08
0,
1+
0*
1)
0'
1&
0$
1S
0C
1?
0;
0P
1@
0<
18
1,
0+
1*
0&
1U
1C
0?
0T
0D
0@
1<
1+
0*
0)
0%
0C
1V
1D
1@
1*
1)
1$
0D
0)
#170000
b101000 "
b1011110 !
b1001110 !
b1001010 !
b101100 "
b1001011 !
b101110 "
1#
16
0>
0E
0Q
05
1:
1=
14
0O
0G
1;
17
0V
1P
1L
1D
0@
08
0,
0*
1)
1'
1&
0$
0K
1?
0P
1H
0<
18
1,
0+
1(
0&
0L
1@
1*
0'
#180000
b1101011 !
b1101001 !
b101001 !
b1101110 "
b11101110 "
b111001 !
b11101010 "
b11101000 "
0#
0:
0=
1M
1R
09
1E
1J
0N
04
0S
1O
1G
0?
07
1V
1P
0D
1<
08
0,
1+
0)
1&
1$
0U
1S
1K
0;
1T
0P
0H
0@
18
1,
0*
0(
0&
1%
1U
0V
0T
1L
0<
0+
1'
0%
0$
1V
1$
#190000
b11100000 "
b11100001 "
b10111001 !
b10011001 !
b10011011 !
b11011011 !
b11100101 "
1#
19
0J
1N
1Q
15
1=
0B
14
0O
1?
17
0V
1H
1(
0$
0S
1;
1P
1@
08
0,
1*
1&
0U
1T
1<
1+
1%
1V
1$
#200000
b11000101 "
b10000101 "
b101 "
b111 "
b1011011 !
b11011 !
b11 "
0#
0N
0Q
1:
0=
0I
0M
0R
04
0G
07
0V
0T
0P
0H
1D
18
1,
1)
0(
0&
0%
0$
0K
1H
08
0,
1(
0L
0'
#210000
b10011 "
b11111 !
b11011 "
b111111 !
b111101 !
b111011 "
b10111101 !
b11111101 !
b111111 "
1#
09
1>
1J
1N
1Q
1=
1B
1F
1I
14
1U
1S
1C
0?
0;
17
1V
1L
0@
18
1,
0*
1'
1$
1G
0C
1;
0V
1T
0D
1@
0<
08
0,
0+
1*
0)
1%
0$
1K
0G
0H
1D
1<
1+
1)
0(
1O
0K
0L
1H
1(
0'
0O
1P
1L
1'
1&
0P
0&
#220000
b11111100 !
b111110 "
b1111110 "
b11111110 "
b11101110 "
b11111000 !
b11011000 !
b11011010 !
b10011010 !
b11101010 "
0#
05
0=
0F
1M
1R
06
19
0>
0J
0N
04
0S
1G
1?
0;
07
1V
1P
0D
0@
18
1,
0*
0)
1&
1$
1K
0T
0H
1@
0<
08
0,
0+
1*
0(
0%
1O
0L
0'
1S
0P
0&
1T
1%
#230000
b10001010 !
b10001011 !
b11101011 "
b10101011 "
b10111011 "
b10001111 !
b10101111 !
b10101101 !
1#
15
1F
0M
16
09
1>
0E
1J
14
0K
0G
1C
0?
17
0V
0T
1H
1D
18
1,
1)
1(
0%
0$
0O
1G
1;
1L
0H
0D
0@
08
0,
0*
0)
0(
1'
0S
1P
1H
1<
1+
1(
1&
0U
1T
1%
1V
1$
#240000
b10111001 "
b10110001 "
b11101101 !
b10110000 "
b11101001 !
0#
0>
1N
05
0:
0B
04
1U
1O
1K
0C
07
0V
0T
0L
0H
0(
0'
0%
0$
1S
0G
0;
1V
0P
1L
1D
18
1,
1)
1'
0&
1$
0K
1T
1H
0<
0+
1(
1%
0L
0'
#250000
b110000 "
b110100 "
b100100 "
b11001001 !
b11001011 !
b100110 "
b101110 "
1#
19
0J
1:
1=
1B
0F
0R
14
0O
1;
17
0V
1P
1<
08
0,
1+
1&
0$
1?
0P
0<
18
1,
0+
0&
1@
1*
#260000
b11000011 !
b1110 "
b11000010 !
b10000010 !
b10000110 !
b10001110 "
b10001010 "
b10011010 "
b10100110 !
b10100100 !
b10011000 "
0#
0:
0=
1F
0I
1R
06
09
1>
0A
1J
0N
04
0S
1C
0?
0;
07
1V
1L
0@
1<
1+
0*
1'
1$
1G
0C
0T
0D
1@
0<
08
0,
0+
1*
0)
0%
1K
0G
0H
1D
1)
0(
1O
0K
0L
1H
1(
0'
0O
1P
1L
1'
1&
0P
0&
#270000
b100100 !
b110100 !
b11011000 "
b11011001 "
b11010001 "
b110101 !
b1110101 !
b11010101 "
b11000101 "
b1110111 !
b11000111 "
1#
15
1:
1=
0B
0F
1M
16
19
1E
1N
0Q
14
0U
1O
1K
17
0V
1P
0L
0H
1<
18
1,
1+
0(
0'
1&
0$
1S
1;
1V
0P
1L
08
0,
1'
0&
1$
1?
1T
0<
0+
1%
1C
0@
0*
1G
0D
0)
1H
1(
#280000
b1111111 !
b11111111 !
b11000110 "
b11001110 "
b11111110 !
b11001010 "
b11111100 !
0#
05
0=
1B
06
09
1A
1Q
04
1U
0;
07
0V
1P
0L
0H
1D
18
1,
1)
0(
0'
1&
0$
0?
1V
1<
08
0,
1+
1$
0C
1@
1*
0D
0)
#290000
b11101010 "
b11111000 !
b1101010 "
b11101000 !
b1111010 "
b1101000 !
b1111011 "
b1110011 "
b1110111 "
b1101010 !
1#
19
0>
0E
0Q
15
1=
0B
1F
1I
0R
14
0K
17
0V
0T
0P
1H
0@
0*
1(
0&
0%
0$
0O
1L
18
1,
1'
0S
1P
1&
0U
1T
1%
1V
1$
#300000
b1100010 !
b1100011 !
b1010111 "
b1110011 !
b1000111 "
b1001111 "
b1110001 !
0#
1B
0F
0I
16
09
0A
1E
04
1S
1K
0G
1;
07
0V
0T
0P
0H
1D
1@
1*
1)
0(
0&
0%
0$
1O
0K
1?
1T
0L
1H
0<
08
0,
0+
1(
0'
1%
0O
1C
1P
1L
0@
0*
1'
1&
1G
0P
0D
0)
0&
1K
0H
0(
1O
0L
0'
1P
1&
#310000
b1111 "
b1101 "
b10001101 "
b10001001 "
b1111001 !
b10101001 "
b1101001 !
b10100001 "
1#
1A
0E
0:
0=
0B
1I
0M
1R
14
0;
17
1V
1D
18
1,
1)
1$
0?
1;
1<
08
0,
1+
0C
1?
1@
0<
0+
1*
1C
0D
0@
0*
0)
1D
1)
#320000
b1001001 !
b11001001 !
b10100000 "
b11001000 !
b10110000 "
b11001010 !
b11000010 !
b10010000 "
b11010010 !
b10011000 "
0#
05
1B
1F
0I
06
19
0A
1E
0J
1Q
04
1U
0O
0C
0;
07
0V
0P
1L
1H
0D
1@
18
1,
1*
0)
1(
1'
0&
0$
0S
0G
0?
1V
1P
1D
1<
08
0,
1+
1)
1&
1$
0T
0H
0@
0*
0(
0%
#330000
b11010110 !
b11011000 "
b11011010 "
b1011010 "
b1010110 !
b1011011 "
b1010100 !
b1000100 !
b1010011 "
1#
15
1:
0B
1M
0R
09
1>
0E
0Q
14
0U
1O
0K
1C
17
0V
1T
0L
0<
0+
0'
1%
0$
1S
0O
1G
1V
0P
1L
0D
18
1,
0)
1'
0&
1$
1U
0S
0T
1P
1H
1(
1&
0%
0U
0V
1T
1%
0$
1V
1$
#340000
b100 !
b1100 !
b1110011 "
b1000 !
b110011 "
b10110011 "
b1010 !
b10111011 "
0#
1B
1I
0M
1R
19
0>
1A
0N
04
1K
0C
1?
1;
07
0V
0P
0H
1D
08
0,
1)
0(
0&
0$
1O
0;
0L
0D
1@
1<
18
1,
1+
1*
0)
0'
1P
0<
0+
1&
#350000
b10101011 "
b10101001 "
b10101000 "
b11010 !
b1011010 !
b1011110 !
b11101000 "
b1101000 "
1#
1>
1E
1N
05
0:
0F
1M
0R
14
1S
0O
0G
1C
17
1V
0P
1L
1H
1D
1)
1(
1'
0&
1$
1U
0S
1G
1;
0T
1P
0H
0D
08
0,
0)
0(
1&
0%
0U
0V
1T
1H
1<
1+
1(
1%
0$
1V
1$
#360000
b1101100 "
b1011111 !
b1010111 !
b1001100 "
b1010101 !
b1000100 "
b1000110 "
b1000111 "
b10101 !
b11000111 "
0#
16
09
0A
0N
15
1:
1=
0B
0I
1R
04
0G
07
0V
0H
1D
0<
18
1,
0+
1)
0(
0$
0K
1H
08
0,
1(
0L
0'
#370000
b110101 !
b10110101 !
b10111101 !
b11100111 "
b11101111 "
b1101111 "
1#
1B
1I
0R
1A
1J
1Q
14
1U
1K
1G
0?
0;
17
1V
0T
0P
1L
0H
0D
0@
1<
18
1,
1+
0*
0)
0(
1'
0&
0%
1$
1O
0C
1;
0V
0L
1H
1@
0<
08
0,
0+
1*
1(
0'
0$
0G
1P
1D
1<
1+
1)
1&
0H
0(
#380000
b1111111 "
b10101101 !
b111111 "
b111011 "
b111010 "
b11101101 !
b11001101 !
b1001101 !
b1000101 !
0#
0A
0E
0J
1N
0Q
05
0=
1F
0M
04
0U
1S
0K
1?
07
1V
0P
1H
0<
0+
1(
0&
1$
0O
1C
0;
0V
1T
1L
0@
18
1,
0*
1'
1%
0$
0S
1G
0?
1P
0D
1<
1+
0)
1&
1K
0C
0T
0H
1@
1*
0(
0%
1O
0G
0L
1D
1)
0'
1S
0K
0P
1H
1(
0&
0O
1T
1L
1'
1%
0S
1P
1&
0T
0%
#390000
b111000 "
b11000 "
b10000 "
b0 "
b1010101 !
b1000000 "
b1000100 "
b1000101 "
b1110101 !
b1111101 !
1#
1A
1E
1J
15
0:
1=
0B
0F
0I
1M
14
1O
1K
1G
17
1V
1T
0L
0H
0D
0)
0(
0'
1%
1$
1S
1;
0P
1L
1H
08
0,
1(
1'
0&
1U
1?
0T
0<
0+
0%
1C
0V
0@
0*
0$
1D
1)
#400000
b11000101 "
b11111101 !
b11010101 "
b11101101 !
b10010101 "
b11100101 !
0#
0A
0E
1Q
1F
0M
1R
04
0G
0?
07
1V
1T
0L
0H
1@
1<
18
1,
1+
1*
0(
0'
1%
1$
0K
1H
0@
08
0,
0*
1(
0O
1L
1'
0S
1P
1&
0T
0%
#410000
b11100100 !
b10110101 "
b10111101 "
b11000100 !
b111101 "
b1000100 !
b101101 "
b1010100 !
b1011100 !
1#
1B
0F
1I
0R
06
1A
1E
0J
0Q
14
0U
1S
1K
1G
0C
1?
0;
17
0V
1T
0P
0L
0H
0D
1@
0<
0+
1*
0)
0(
0'
0&
1%
0$
1U
0G
1C
0?
1V
0T
1L
1H
1D
0@
1<
18
1,
1+
0*
1)
1(
1'
0%
1$
1G
0C
0V
0H
0D
1@
1*
0)
0(
0$
0G
1H
1D
1)
1(
0H
0(
#420000
b1101101 "
b11011100 !
b1111101 "
b11001100 !
b11000100 !
0#
0A
0E
1Q
1F
1M
04
1O
0K
1C
1;
07
1V
0L
1H
0@
0<
08
0,
0+
0*
1(
0'
1$
0O
1G
0;
1P
1L
0D
1<
18
1,
1+
0)
1'
1&
1K
0P
0H
0<
0+
0(
0&
1O
0L
0'
1P
1&
#430000
b10000100 !
b1111111 "
b1111011 "
b1111010 "
b10000101 !
b1011010 "
b11011010 "
b10011010 "
b10001010 "
1#
05
1:
0=
0F
0I
0M
1R
16
0N
14
0G
1;
17
0V
0P
1D
08
0,
1)
0&
0$
0K
1H
1<
18
1,
1+
1(
0O
1L
1'
0S
1P
1&
0U
1T
1%
1V
1$
#440000
b10000001 !
b10000011 !
b10000010 "
b11 !
b1011 !
b10000110 "
b1010 !
b10100110 "
b100110 "
b1100110 "
0#
1=
0B
1I
1M
0R
06
19
0>
1A
0Q
04
1G
0C
1?
0;
07
0V
0T
0H
0D
1@
1*
0)
0(
0%
0$
0G
1C
1H
1D
0@
0<
08
0,
0+
0*
1)
1(
1G
0H
0D
0)
0(
1H
1(
#450000
b1110 !
b110 !
b1100010 "
b1000010 "
b11000010 "
1#
0=
0I
1R
1>
0A
14
1K
0?
17
1V
0P
0H
1@
1<
18
1,
1+
1*
0(
0&
1$
1O
1;
0L
0@
08
0,
0*
0'
1?
1P
0<
0+
1&
1@
1*
#460000
b100110 !
b110110 !
b11000000 "
b11010000 "
b110100 !
b110101 !
b110001 !
b111001 !
b11010100 "
0#
0:
1=
1F
16
09
0>
1A
1E
1J
04
1S
0?
07
0V
1T
0P
1H
0@
1<
1+
0*
1(
0&
1%
0$
1U
0C
0;
0T
1@
18
1,
1*
0%
0G
1V
1D
0<
0+
1)
1$
0H
0(
#470000
b1111001 !
b11010101 "
b11011101 "
b11111001 !
b11101001 !
b11011111 "
b11101011 !
1#
15
1:
1B
19
0E
1N
1Q
14
0K
17
0V
1L
0@
1<
1+
0*
1'
0$
1;
0L
08
0,
0'
1?
0<
0+
1@
1*
#480000
b11111111 "
b1111111 "
b11101010 !
b11100010 !
b1111011 "
b1111010 "
b1110010 "
b11110010 !
b1110000 "
0#
06
0A
1E
05
0:
0=
0B
1I
0R
04
1K
0;
07
1V
1P
0D
18
1,
0)
1&
1$
0?
1L
1<
08
0,
1+
1'
0@
0*
#490000
b1100000 "
b10110010 !
b10110000 !
b1000000 "
b10110001 !
b10111001 !
b1001000 "
b1001010 "
1#
16
09
1A
0N
1:
1B
0F
0I
14
0S
1;
17
0V
1T
1D
1@
0<
0+
1*
1)
1%
0$
0T
1<
18
1,
1+
0%
#500000
b1010 "
b10111101 !
b111101 !
b10 "
b0 "
0#
1>
0Q
0:
0B
0M
04
0U
0K
07
1V
0L
1H
08
0,
1(
0'
1$
0O
0;
0V
1L
18
1,
1'
0$
0P
0<
0+
0&
#510000
b11101 !
b100 "
b101 "
b1011101 !
b1011111 !
b100101 "
b1010111 !
b1100101 "
b1010011 !
b11010011 !
1#
15
1=
1I
1M
19
0>
0A
0J
1N
1Q
14
1U
1K
1?
17
1V
1P
0L
0H
0@
0*
0(
0'
1&
1$
1;
0V
1L
1@
08
0,
1*
1'
0$
1<
1+
#520000
b11000011 !
b1110101 "
b1111101 "
b1111111 "
b11100011 !
b1111011 "
b111011 "
b11100111 !
0#
1:
0=
1B
1F
0M
1>
0E
1J
04
0U
1O
0K
1C
07
1V
1T
1H
0@
18
1,
0*
1(
1%
1$
1S
1G
0V
0P
0L
0D
08
0,
0)
0'
0&
0$
1U
1K
0T
0H
0(
0%
1V
1L
1'
1$
#530000
b10111011 "
b11100110 !
b11100100 !
b11101100 !
b11111100 !
b10110011 "
b10110001 "
b11011100 !
b11110001 "
b11011000 !
1#
06
09
0>
1A
1E
0J
0:
0B
1M
1R
14
0O
0;
17
0V
1D
0<
0+
1)
0$
0S
0?
1P
1<
18
1,
1+
1&
0U
0C
1T
1@
1*
1%
1V
0D
0)
1$
#540000
b11100001 "
b1100001 "
b11011001 !
b11011011 !
b1100011 "
b11111011 !
b100011 "
b11111111 !
0#
16
19
1>
1J
1:
0F
0M
0R
04
1O
0G
1?
1;
07
0V
1D
0<
0+
1)
0$
1S
0K
1C
0P
1H
0@
1<
08
0,
1+
0*
1(
0&
1U
1G
0T
0L
0D
0)
0'
0%
1K
1V
0H
0(
1$
1L
1'
#550000
b100010 "
b1111111 !
b100110 "
b1110111 !
b1100111 !
b101110 "
b101100 "
b1000111 !
1#
0A
0E
0J
0Q
05
0:
1=
1B
14
0O
0G
17
0V
1P
1D
1)
1&
0$
0K
0P
1H
18
1,
1(
0&
0L
0'
#560000
b101000 "
b100000 "
b1100111 !
0#
1J
0=
0B
04
0U
0S
1O
07
1V
1T
1P
0H
0<
08
0,
0+
0(
1&
1%
1$
1S
0;
0V
0T
0P
18
1,
0&
0%
0$
0?
1T
1<
1+
1%
0C
1@
1*
0D
0)
#570000
b10100000 "
b1100110 !
b11100000 "
b1100010 !
b11100100 "
b11101100 "
b1000010 !
1#
06
0>
0J
1=
1B
1M
1R
14
0O
1?
17
1V
1H
0@
0<
0+
0*
1(
1$
0S
1;
1P
1@
08
0,
1*
1&
0T
1<
1+
0%
#580000
b11111100 "
b1000000 !
b1010000 !
b11111110 "
b1010001 !
b10111110 "
b1010101 !
b10111010 "
b1110101 !
0#
16
09
1>
1E
1J
1:
0=
1F
0M
04
1O
1K
1C
07
0V
1T
0H
1D
0@
0<
0+
0*
1)
0(
1%
0$
1S
1G
0;
0P
1L
0D
18
1,
0)
1'
0&
1U
0?
0T
1H
1<
1+
1(
0%
0C
1V
1@
1*
1$
0G
1D
1)
0H
0(
#590000
b10111011 "
b11110101 !
b11111101 !
b111011 "
b110011 "
b11111111 !
b11101111 !
b11101110 !
b11101010 !
b110111 "
1#
06
19
0>
1A
0E
1Q
15
1=
0B
0R
14
0K
1G
17
0V
1T
1P
0L
0D
0@
08
0,
0*
0)
0'
1&
1%
0$
0O
1L
1H
18
1,
1(
1'
0P
0&
#600000
b10111 "
b1010111 "
b11001010 !
b11010111 "
0#
0J
0I
1M
1R
04
1K
0G
1?
1;
07
1V
0L
0H
1D
1@
0<
08
0,
0+
1*
1)
0(
0'
1$
0K
1C
0;
1L
1H
0@
1<
18
1,
1+
0*
1(
1'
1G
0L
0D
0<
0+
0)
0'
1K
0H
0(
1L
1'
#610000
b11010110 "
b11011110 "
b11001000 !
b11001100 !
b1011110 "
1#
09
1>
05
1B
0R
14
0S
1O
0K
0?
17
0V
1P
0L
1H
1(
0'
1&
0$
1S
0O
0C
1;
0T
0P
1L
1@
08
0,
1*
1'
0&
0%
0S
0G
1T
1P
1D
1<
1+
1)
1&
1%
0T
0H
0(
0%
#620000
b10001100 !
b1001110 "
b1100 !
b100 !
b1101110 "
b100100 !
b100000 !
b11101110 "
0#
0F
1I
1R
0>
0A
1J
0N
0Q
04
0U
1O
1?
0;
07
1V
1T
0L
0<
18
1,
0+
0'
1%
1$
1S
1C
0?
0V
0P
0@
1<
08
0,
1+
0*
0&
0$
1U
1G
0C
0T
0D
1@
1*
0)
0%
0G
1V
1H
1D
1)
1(
1$
0H
0(
#630000
b11101100 "
b110000 !
b110001 !
b10101100 "
b10101101 "
b110011 !
b10111101 "
b111011 !
b10011101 "
b11011 !
b11101 "
1#
16
19
1A
1E
0J
15
0:
1F
0I
0M
0R
14
0O
1?
17
0V
1L
1H
0@
0<
18
1,
0+
0*
1(
1'
0$
0S
1;
1P
1@
08
0,
1*
1&
0U
1T
1<
1+
1%
1V
1$
#640000
b11111 "
b1011 !
b1010 !
b1111 "
b10 !
b100010 !
b10001111 "
0#
06
0A
0E
1J
1:
0F
1R
04
1C
07
0V
0P
0H
0@
0*
0(
0&
0$
1G
0;
0D
18
1,
0)
1H
0<
0+
1(
#650000
b10000111 "
b1100010 !
b11100010 !
b10000101 "
b11100011 !
b10010101 "
b10101 "
1#
16
1N
1Q
0:
0B
1F
0R
14
1U
1S
1O
0C
17
1V
0T
0L
1@
1*
0'
0%
1$
0G
1;
0V
1T
1P
1D
08
0,
1)
1&
1%
0$
0H
1<
1+
0(
#660000
b10001 "
b10000 "
b11110011 !
b11010011 !
b1010011 !
b10010 "
0#
1E
0J
0Q
05
1:
0=
04
0U
0O
1K
07
1V
0P
0D
0)
0&
1$
0S
0;
0V
1P
1L
18
1,
1'
1&
0$
0T
0<
0+
0%
#670000
b1010111 !
b110010 "
b111010 "
b1010110 !
b10111010 "
b10111110 "
b1110110 !
b11110110 !
1#
1=
1B
1I
1R
06
1>
1J
1Q
14
1S
1O
0K
1C
0?
17
1V
1T
0P
0L
1H
0@
1<
1+
0*
1(
0'
0&
1%
1$
1U
0O
0C
1;
0T
1P
1L
1D
1@
08
0,
1*
1)
1'
1&
0%
1?
0V
0P
0D
0<
0+
0)
0&
0$
1C
0@
0*
1D
1)
#680000
b10110110 !
b10101110 "
b10101100 "
b10100100 "
b10100000 "
b110110 !
0#
0:
0=
0B
0F
0N
0Q
04
0S
1O
0;
07
1V
0L
18
1,
0'
1$
0U
0?
1T
1P
1<
08
0,
1+
1&
1%
0C
0V
1@
1*
0$
0D
0)
#690000
b10000000 "
b110111 !
b0 "
b10 "
b110 "
b10110111 !
1#
16
1Q
1:
1=
0I
0R
14
1U
1S
1K
1;
17
1V
0T
0P
0H
1D
1)
0(
0&
0%
1$
1?
0V
1T
1L
0<
18
1,
0+
1'
1%
0$
1C
0@
0*
1G
0D
0)
1H
1(
#700000
b10110101 !
b10111101 !
b10101101 !
b11101101 !
b1110 "
b101110 "
b11101100 !
b101100 "
0#
0:
1B
1I
06
09
1A
0E
1N
04
0K
0?
0;
07
1V
0T
1D
1@
1<
1+
1*
1)
0%
1$
0L
0@
0<
08
0,
0+
0*
0'
#710000
b11101000 !
b11001000 !
b1001000 !
b1100 "
b1110 "
1#
1:
0I
0>
0J
0Q
14
0O
1K
0C
17
0V
1P
1L
0H
0D
18
1,
0)
0(
1'
1&
0$
1O
0G
1;
0P
0L
1D
08
0,
1)
0'
0&
0K
1P
1H
1<
1+
1(
1&
0O
1L
1'
0P
0&
#720000
b1001110 "
b1011110 "
b1001010 !
b1000010 !
b1010010 !
b1010011 !
b1110011 !
b11110011 !
b1111110 "
0#
16
19
0A
1E
1J
1Q
1F
1I
1M
04
1O
1K
1?
07
1V
0L
0H
1@
1*
0(
0'
1$
1C
0;
1P
1L
0@
18
1,
0*
1'
1&
1G
0D
0<
0+
0)
1H
1(
#730000
b1111111 "
b11111111 "
b11111011 "
b10110011 !
b10111011 "
b10101011 "
b10110001 !
b10100001 !
b10100000 !
b10000000 !
1#
06
09
0E
0J
0N
15
0=
0F
0M
1R
14
0O
0G
0?
17
0V
0P
0H
1D
08
0,
1)
0(
0&
0$
0S
0K
0C
1P
1H
1@
18
1,
1*
1(
1&
0U
1T
0L
0D
0)
0'
1%
1V
1$
#740000
b10001000 !
b1000 !
b10001011 "
b10001010 "
b11001010 "
b101000 !
0#
05
0I
1M
1A
1J
0Q
04
1G
07
0V
1L
0H
0@
1<
1+
0*
0(
1'
0$
1H
08
0,
1(
#750000
b11000010 "
b11000000 "
b1101000 !
b11010000 "
b11101000 !
b11110000 "
1#
1N
1Q
0:
0B
1F
1I
14
17
1V
1@
18
1,
1*
1$
1;
08
0,
1?
0<
0+
1C
0@
0*
1D
1)
