Revisao/comparador_02/simulation/qsim/comparador_02.msim.vcd
$comment
	File created using the following command:
		vcd file comparador_02.msim.vcd -direction
$end
$date
	Thu Mar 24 19:03:34 2022
$end
$version
	ModelSim Version 2020.1
$end
$timescale
	1ps
$end

$scope module comparador_02_vlg_vec_tst $end
$var reg 8 ! A [7:0] $end
$var reg 8 " B [7:0] $end
$var wire 1 # igual $end
$var wire 1 $ maior $end
$var wire 1 % menor $end

$scope module i1 $end
$var wire 1 & gnd $end
$var wire 1 ' vcc $end
$var wire 1 ( unknown $end
$var tri1 1 ) devclrn $end
$var tri1 1 * devpor $end
$var tri1 1 + devoe $end
$var wire 1 , ~QUARTUS_CREATED_GND~I_combout $end
$var wire 1 - A[5]~input_o $end
$var wire 1 . A[7]~input_o $end
$var wire 1 / B[6]~input_o $end
$var wire 1 0 B[7]~input_o $end
$var wire 1 1 B[5]~input_o $end
$var wire 1 2 A[6]~input_o $end
$var wire 1 3 Equal0~1_combout $end
$var wire 1 4 A[4]~input_o $end
$var wire 1 5 B[0]~input_o $end
$var wire 1 6 A[0]~input_o $end
$var wire 1 7 B[1]~input_o $end
$var wire 1 8 A[1]~input_o $end
$var wire 1 9 Equal0~2_combout $end
$var wire 1 : A[2]~input_o $end
$var wire 1 ; A[3]~input_o $end
$var wire 1 < B[3]~input_o $end
$var wire 1 = B[2]~input_o $end
$var wire 1 > Equal0~0_combout $end
$var wire 1 ? B[4]~input_o $end
$var wire 1 @ Equal0~3_combout $end
$var wire 1 A LessThan0~2_combout $end
$var wire 1 B LessThan0~0_combout $end
$var wire 1 C LessThan0~1_combout $end
$var wire 1 D maior~0_combout $end
$var wire 1 E menor~0_combout $end
$upscope $end
$upscope $end
$enddefinitions $end
#0
$dumpvars
b1110 !
b10110101 "
0#
0$
1%
0&
1'
x(
1)
1*
1+
0,
0-
0.
0/
10
11
02
03
04
15
06
07
18
09
1:
1;
0<
1=
0>
1?
0@
0A
1B
1C
0D
0E
$end
#5000
b10001110 !
b11001110 !
b11011110 !
b11011010 !
b110101 "
b1110101 "
b1100101 "
b1100100 "
05
0?
1/
00
0:
14
12
1.
1A
1E
1D
1$
0%
#10000
b11010010 !
b11010000 !
b1101100 "
b1101000 "
b1101010 "
b1010000 !
b101010 "
b101011 "
15
17
0=
1<
0/
08
0;
0.
0C
0B
#15000
b1010001 !
b10001 !
b1 !
b101 !
b111011 "
b110011 "
b110001 "
b1110001 "
07
0<
1?
1/
16
1:
04
02
0A
1C
19
0E
0D
0$
1%
#20000
b100101 !
b1010001 "
b10100101 !
b1010000 "
b10100100 !
b10100000 !
05
01
06
0:
1-
1.
1A
0C
1>
1E
1D
1$
0%
#25000
b11010000 "
b11010100 "
b11100000 !
b11000100 "
b11000110 "
b11000000 !
0-
12
17
1=
0?
10
0A
13
0>
09
0E
0D
0$
1%
#30000
b11001000 !
b11001010 !
b11011010 !
b11001110 "
b11011011 !
b10011011 !
b11001100 "
07
1<
16
18
1;
14
02
03
1E
1B
1D
1$
0%
0E
0D
0$
1%
#35000
b10001100 "
b10101100 "
b10011111 !
b101100 "
b101000 "
b10010111 !
b10010101 !
b10000101 !
b10000100 !
b101010 "
06
08
1:
0;
04
17
0=
11
0/
00
1A
0B
1E
1D
1$
0%
#40000
b101011 "
b111011 "
b10100100 !
b110011 "
b11100100 !
b110111 "
b11101100 !
b11101110 !
b11101111 !
16
18
1;
1-
12
15
1=
0<
1?
1C
19
#45000
b1101111 !
b1101011 !
b110101 "
b110100 "
b1001011 !
b110000 "
b1000011 !
b1000001 !
05
07
0=
08
0:
0;
0-
0.
0C
1>
1B
09
1C
#50000
b1110000 "
b1010000 "
b11010000 "
b11000000 "
b11001000 "
b1 !
b0 !
b100 !
b11001100 "
b110 !
06
18
1:
02
1=
1<
0?
01
1/
10
0A
0C
0>
0E
0D
0$
1%
#55000
b11001101 "
b1110 !
b10001101 "
b10101101 "
b10111101 "
b10110101 "
b1111 !
b1011 !
b1001 !
16
08
0:
1;
15
0<
1?
11
0/
1C
0B
19
#60000
b10001001 !
b11001001 !
b10110001 "
b10100001 "
b11001000 !
b11001010 !
0=
0?
06
18
12
1.
1A
1B
09
1E
1D
1$
0%
#65000
b11011010 !
b11111010 !
b100001 "
b1100001 "
b1101001 "
b11111110 !
b1111110 !
b111110 !
b1101101 "
b111100 !
1=
1<
1/
00
08
1:
14
1-
02
0.
0A
1>
0B
0C
0E
0D
0$
1%
#70000
b1101100 "
b110100 !
b1001100 "
b110101 !
b11001100 "
b11001000 "
16
0;
05
0=
01
10
0>
1B
#75000
b11011000 "
b100101 !
b101 !
b11010000 "
b10000101 !
b11000101 !
b11000111 !
b1010000 "
18
04
0-
12
1.
0<
1?
00
1A
1C
1E
1D
1$
0%
#80000
b10000 "
b11000011 !
b11000010 !
b10100 "
b11000000 !
b10010100 "
06
08
0:
1=
0/
10
0C
0B
19
#85000
b11001000 !
b10110100 "
b1001000 !
b1000 !
b11110100 "
b1100 !
b1101 !
b1111 !
11
1/
16
18
1:
1;
02
0.
0A
1C
1B
09
0E
0D
0$
1%
#90000
b11110110 "
b11110111 "
b1110111 "
b1010111 "
b10001111 !
b11001111 !
b11001110 !
06
12
1.
15
17
01
00
1A
0B
1E
1D
1$
0%
#95000
b1000111 "
b11011110 !
b11111110 !
b1001111 "
b1001011 "
b11111100 !
b1001010 "
b1101010 "
b1111100 !
b111100 !
b111101 !
16
08
14
1-
02
0.
05
0=
1<
0?
11
0A
0E
0D
0$
1%
#100000
b110101 !
b101010 "
b110001 !
b10101010 "
b100001 !
b1 !
b10101110 "
b11 !
b10000011 !
b11000011 !
1=
0/
10
18
0:
0;
04
0-
12
1.
1A
0C
1B
1E
1D
1$
0%
#105000
b10101111 "
b11101111 "
b11000111 !
b1101111 "
b1101011 "
b11000101 !
b1000101 !
08
1:
0.
15
0=
1/
00
0A
0B
0E
0D
0$
1%
#110000
b1101001 "
b1111001 "
b1110001 "
b1010001 "
b1000100 !
b1010100 !
b1110100 !
b110100 !
b1010000 "
b10000 "
b10100 "
06
14
1-
02
05
07
1=
0<
1?
01
0/
1A
1>
19
1E
1D
1$
0%
#115000
b111100 !
b10010100 "
b10000100 "
b10001100 "
b10101100 "
1<
0?
11
10
1;
0A
0E
0D
0$
1%
#120000
b111000 !
b10111000 !
b10101110 "
b10111001 !
b10101001 !
b10001001 !
b10101111 "
b10101011 "
b10000001 !
b101011 "
b111011 "
b11011 "
15
17
0=
1?
01
00
16
0:
0;
04
0-
1.
1A
0>
09
1E
1D
1$
0%
#125000
b10000011 !
b1011011 "
b1010011 "
b10000111 !
b1010001 "
b10010111 !
b1010000 "
b10011111 !
b1000000 "
05
07
0<
0?
1/
18
1:
1;
14
1C
1B
#130000
b11111 !
b11110 !
b1000100 "
b11000100 "
b11100100 "
b11010 !
b1010 !
b10 !
b11110100 "
1=
1?
11
10
06
0:
0;
04
0.
0A
0C
0E
0D
0$
1%
#135000
b1000010 !
b1100010 !
b11111100 "
b11111110 "
b1100011 !
b11111010 "
b1111010 "
b1110011 !
b1101010 "
17
0=
1<
0?
00
16
14
1-
12
13
1E
1D
1$
0%
#140000
b1110001 !
b1101011 "
b11110001 !
b1001011 "
b11110101 !
b10110101 !
b10010101 !
b1000011 "
b10010100 !
b10000100 !
15
0<
01
06
08
1:
04
0-
02
1.
1A
03
0E
1C
0B
0D
0$
1%
1E
1D
1$
0%
#145000
b1000001 "
b1000101 "
b11000101 "
b10000000 !
b11000000 !
b11000001 !
b11010001 !
16
0:
14
12
07
1=
10
0A
13
0C
19
#150000
b10000101 "
b10000100 "
b1010001 !
b1010101 !
b1000101 !
1:
04
0.
05
0/
03
1B
09
0E
1>
0D
0$
1%
1C
#155000
b10010100 "
b10110100 "
b1100101 !
b10111100 "
b1100100 !
b10111101 "
b11100100 !
b11100000 !
06
0:
1-
1.
15
1<
1?
11
1A
0C
0>
0B
1E
1D
1$
0%
#160000
b11100010 !
b10111111 "
b10111011 "
b10011011 "
b11100011 !
b10011010 "
b1100011 !
b1100111 !
05
17
0=
01
16
18
1:
0.
0A
1B
0E
0D
0$
1%
#165000
b1101111 !
b11010 "
b1011010 "
b1111111 !
b1001010 "
b1001000 "
b1111110 !
b1001001 "
b11111110 !
b11111010 !
15
07
0?
1/
00
06
0:
1;
14
1.
1A
1C
1>
1E
1D
1$
0%
#170000
b11011010 !
b1000001 "
b11011000 !
b1000101 "
b1100101 "
b100101 "
b11001000 !
b11001001 !
1=
0<
11
0/
16
08
04
0-
0B
19
0>
#175000
b10001001 !
b10000001 !
b10100101 "
b10110101 "
b10110111 "
b10100001 !
b10111111 "
b10100011 !
b10111011 "
b11111011 "
b10110011 !
17
0=
1<
1?
1/
10
18
0;
14
1-
02
0A
0C
0E
0D
0$
1%
#180000
b10111011 !
b11101011 "
b10011011 !
b11100011 "
b10011001 !
0<
0?
08
1;
0-
1C
09
#185000
b11001 !
b11000011 "
b1011001 !
b11000111 "
b1010001 !
b1110001 !
b1110011 !
1=
01
18
0;
1-
12
0.
0C
19
#190000
b1110010 !
b1000111 "
b1100010 !
b1010111 "
b1100000 !
1?
00
06
08
04
09
1A
1E
1D
1$
0%
#195000
b1010110 "
b1100100 !
b10110 "
b110110 "
b100100 !
b110010 "
b100 !
b101 !
b10110010 "
b10100010 "
b111 !
16
18
1:
0-
02
05
0=
0?
11
0/
10
0A
1C
1B
0E
0D
0$
1%
#200000
b10101010 "
b10111 !
b10101011 "
b10011 !
b10001011 "
b10010 !
b1011 "
b11011 "
b10000 !
06
08
0:
14
15
1<
1?
01
00
13
0C
0B
#205000
b1010000 !
b11111 "
b10111 "
b10110 "
b110110 "
b1010001 !
b100110 "
05
1=
0<
0?
11
16
12
1A
03
1E
1D
1$
0%
#210000
b1011001 !
b1100110 "
b1111001 !
b1101001 !
b1101101 !
b1101111 !
b101111 !
b1100010 "
b1100011 "
b1000011 "
b101110 !
b1010011 "
15
0=
1?
01
1/
06
18
1:
1;
04
1-
02
0A
1C
0E
0D
0$
1%
#215000
b1010001 "
b11010001 "
b11011001 "
b1110 !
b11110 !
b11100 !
b11011101 "
b11101 !
16
08
14
0-
07
1=
1<
10
0C
1>
19
#220000
b10011101 "
b11001 !
b1011001 !
b10011100 "
b10111100 "
b10111110 "
b10110110 "
b1111001 !
b1101001 !
b1101011 !
b10110010 "
b1101010 !
06
18
0:
04
1-
12
05
17
0=
0<
11
0/
1C
0>
#225000
b1100010 !
b10100010 "
b100010 "
b1100010 "
b1100110 !
b100110 !
b1100011 "
b1000011 "
b110 !
b1000111 "
15
1=
0?
01
1/
00
1:
0;
0-
02
0C
1>
09
#230000
b10000110 !
b1001111 "
b10010110 !
b1011111 "
b10010010 !
b1111111 "
1<
1?
11
0:
14
1.
1A
0>
1E
1D
1$
0%
#235000
b111111 "
b111011 "
b110011 "
b10000010 !
b100011 "
b10000110 !
1:
04
0=
0<
0?
0/
1C
#240000
b100001 "
b10001110 !
b1110 !
b1 "
b1000001 "
b1000101 "
b11110 !
b1010101 "
b11010 !
0:
1;
14
0.
07
1=
1?
01
1/
0A
1B
0E
0D
0$
1%
#245000
b11010101 "
b11010100 "
b111010 !
b11011100 "
b110010 !
b10110010 !
b10100010 !
b11001100 "
0;
04
1-
1.
05
1<
0?
10
0C
#250000
b10100000 !
b11100000 !
b11001110 "
b10001110 "
b10001010 "
b11100100 !
b1010 "
b1011 "
b11000100 !
b1000100 !
b1010100 !
b11011 "
15
17
0=
1?
0/
00
08
1:
14
0-
12
0.
1A
0B
1E
1D
1$
0%
#255000
b1010101 !
b10011 "
b1010111 !
b1010011 "
b1010111 "
b1010110 "
b1110111 !
b1100111 !
b1000110 "
05
1=
0<
0?
1/
16
18
04
1-
1B
1>
1C
#260000
b1100110 "
b100111 !
b11100110 "
b10100111 !
b10100110 !
b11101110 "
b10100100 !
b11101111 "
b10000100 !
b10010100 !
b11111111 "
06
08
14
0-
02
1.
15
1<
1?
11
10
0A
0C
0>
0B
0E
0D
0$
1%
#265000
b10011100 !
b10011000 !
b10111111 "
b10111011 "
b11011000 !
b111011 "
b11011001 !
b11011011 !
b111010 "
b11111011 !
05
0=
0/
00
16
18
0:
1;
1-
12
1A
1>
1B
1C
1E
1D
1$
0%
#270000
b11010 "
b1111011 !
b10010 "
b1101011 !
b1100011 !
b1100111 !
b100111 !
b100110 !
06
1:
0;
04
02
0.
0<
01
0>
0B
19
#275000
b10000 "
b1010000 "
b1010100 "
b100100 !
b1010101 "
b100 !
b1110101 "
b10000100 !
b10000000 !
b10000001 !
16
08
0:
0-
1.
15
07
1=
11
1/
0C
#280000
b1110001 "
b10000011 !
b11 !
b111 !
b110 !
06
18
1:
0.
0=
1C
0A
1B
09
0E
0D
0$
1%
#285000
b1100001 "
b11100001 "
b11101001 "
b10110 !
b1010110 !
b10101001 "
b10101000 "
b1110110 !
b10101100 "
b1110100 !
b11110100 !
b11110101 !
16
08
14
1-
12
1.
05
1=
1<
0?
0/
10
1A
0C
1E
1D
1$
0%
#290000
b10101110 "
b11110001 !
b10111110 "
b111110 "
b10110001 !
b111111 "
b10110011 !
b110011 !
b110010 !
06
18
0:
02
0.
15
17
1?
00
0A
13
0B
0E
0D
0$
1%
#295000
b11111 "
b1011111 "
b1011101 "
b110110 !
b11011101 "
b11011100 "
b110100 !
08
1:
05
07
01
1/
10
03
19
#300000
b111100 !
b11010100 "
b11100 !
b11000100 "
b1011100 !
b1011101 !
b10000100 "
b10000110 "
b110 "
17
0<
0?
0/
00
16
1;
0-
12
1A
1C
09
1E
1D
1$
0%
#305000
b1001101 !
b1001001 !
b111 "
b1111 "
b1101001 !
b1101000 !
b1001111 "
b1001101 "
15
07
1<
1/
06
0:
04
1-
0C
#310000
b1001001 "
b1101001 "
b1101010 !
b1100010 !
b1100110 !
b1100001 "
b100001 "
b100011 "
18
1:
0;
17
0=
0<
11
0/
1C
#315000
b11100110 !
b110011 "
b11100111 !
b11100101 !
b111011 "
b1111011 "
b1111001 "
07
1<
1?
1/
16
08
1.
19
0C
#320000
b10100101 !
b10110101 !
b10010101 !
b1011001 "
b10010111 !
b1011011 "
17
01
18
14
0-
02
#325000
b11011011 "
b11011111 "
b10011111 !
b11111 !
b11110 !
b10011111 "
b1011110 !
b1001110 !
b10111111 "
b1001100 !
b10111101 "
06
08
1;
04
12
0.
07
1=
11
0/
10
0A
1>
09
0E
0D
0$
1%
#330000
b1001000 !
b10101101 "
b1101000 !
b10101001 "
b1101001 !
b11101001 "
b11001001 "
b11001011 "
17
0=
0?
01
1/
16
0:
1-
#335000
b11001010 "
b1001010 "
b11101001 !
b11101011 !
b11101111 !
b1011010 "
b11001111 !
b1011110 "
b1111110 "
b1111100 "
18
1:
0-
1.
05
07
1=
1?
11
00
1A
1B
1C
1E
1D
1$
0%
#340000
b1110100 "
b10001111 !
b10011111 !
b11111 !
b11101 !
b11001 !
b1110000 "
b1010000 "
b1010010 "
08
0:
14
02
0.
17
0=
0<
01
0A
0>
0B
0E
0D
0$
1%
#345000
b11000 !
b1010011 "
b11010011 "
b10011000 !
b10011010 !
b10011110 !
15
10
06
18
1:
1.
#350000
b10010110 !
b10110110 !
b10100110 !
b11010001 "
b10100111 !
b11010000 "
b1010000 "
05
07
00
16
0;
04
1-
1A
1B
1E
1D
1$
0%
#355000
b11100111 !
b1010100 "
b1100111 !
b1100101 !
b1110101 !
b1110100 !
1=
06
08
14
12
0.
0B
19
1>
0C
#360000
b10100 "
b1110000 !
b110000 !
b110010 !
b100010 !
b100011 !
16
18
0:
04
02
0/
0>
1B
09
#365000
b100 "
b101 "
b10000101 "
b10100011 !
b11000101 "
b10100111 !
b11100111 !
b11100101 !
b11110101 !
b11110100 !
06
08
1:
14
12
1.
15
0?
1/
10
0B
1C
1>
0C
#370000
b11001101 "
b11111100 !
b11001111 "
b1111100 !
b10001111 "
b111100 !
b101100 !
b101101 !
16
1;
04
02
0.
17
1<
0/
0A
0E
0D
0$
1%
#375000
b10101111 "
b1101 !
b10101110 "
b101110 "
b1111 !
b100110 "
b111 !
b100100 "
b10000111 !
b10010111 !
18
0;
14
0-
1.
05
07
0<
11
00
1A
1B
1C
1E
1D
1$
0%
#380000
b100000 "
b10010011 !
b11010011 !
b11010010 !
b0 "
b1 "
b1001 "
b11011010 !
b1011 "
b11001010 !
06
0:
1;
04
12
15
17
0=
1<
01
0B
0C
#385000
b11001000 !
b1111 "
b11001001 !
b101111 "
b100111 "
b11000001 !
b100101 "
b11010001 !
07
1=
0<
11
16
08
0;
14
0>
19
#390000
b110101 "
b1110101 "
b11110001 !
b10110001 !
b1110100 "
b10110011 !
b1010100 "
b1011100 "
b10111011 !
b1011110 "
18
1;
1-
02
05
17
1<
1?
01
1/
1B
09
#395000
b10111111 !
b1011010 "
b10011111 !
b1111010 "
b1110010 "
b10010111 !
b1110000 "
07
0=
0<
11
1:
0;
0-
1C
#400000
b11110000 "
b10111 !
b10110 !
b110 !
b10110000 "
b10110001 "
b100 !
b0 !
b10110101 "
b100000 !
b10010101 "
b10011101 "
b10011111 "
06
08
0:
04
1-
0.
15
17
1=
1<
01
0/
10
0A
0C
0B
0E
0D
0$
1%
#405000
b10001111 "
b1100000 !
b1111 "
b1001111 "
b1101111 "
12
0?
11
1/
00
13
#410000
b1101000 !
b1101001 !
b1101011 !
b1101111 !
b11101111 "
10
16
18
1:
1;
1>
19
03
#415000
b11101111 !
b11111111 !
b11101110 "
b11101010 "
b11110111 !
b11110110 !
b11110100 !
b11110000 !
b1101010 "
05
0=
00
06
08
0:
0;
14
1.
1A
0>
09
1E
1D
1$
0%
#420000
b11010000 !
b1100010 "
b1100000 "
b100000 "
b11011000 !
b11011010 !
07
0<
0/
18
1;
0-
1C
1B
#425000
b110000 "
b1011010 !
b110100 "
b1011011 !
b111100 "
b111110 "
b1111110 "
b1010011 !
b1010001 !
16
08
0;
0.
17
1=
1<
1?
1/
0A
0C
0B
0E
0D
0$
1%
#430000
b1011110 "
b1011111 "
b1010101 !
b11011111 "
b11010101 !
b11010111 "
1:
1.
15
0<
01
10
13
1>
#435000
b10010101 !
b11000111 "
b11000101 "
b10000101 "
b10011101 !
b10011111 !
b10100101 "
b11111 !
b10101101 "
07
1<
0?
11
0/
18
1;
02
0.
03
1B
1E
1D
1$
0%
1C
0E
0D
0$
1%
#440000
b1111 !
b10101001 "
b10101000 "
b1011 !
b101000 "
b101010 "
b11 !
b1 !
b10000001 !
05
17
0=
00
08
0:
0;
04
1.
1A
0C
0>
0B
1E
1D
1$
0%
#445000
b10100001 !
b11100001 !
b111010 "
b1111010 "
b1110010 "
b11110001 !
b1110011 "
b11110101 !
b11110111 !
15
0<
1?
1/
18
1:
14
1-
12
1C
19
#450000
b1110111 "
b11110111 "
b1110111 !
b1010111 !
b10110111 "
b1000111 !
04
0-
0.
1=
0/
10
0A
0C
1>
0E
0D
0$
1%
#455000
b10110101 "
b10110100 "
b1000101 !
b110100 "
b11000101 !
b11100101 !
b11110101 !
08
14
1-
1.
05
07
00
1A
1B
09
1C
1E
1D
1$
0%
#460000
b10100 "
b100 "
b1100 "
b11110001 !
b1000 "
b1010 "
b1011 "
b11110011 !
b1110011 !
b1010011 !
18
0:
0-
0.
15
17
0=
1<
0?
01
0C
0>
0B
19
#465000
b1011011 !
b10001011 "
b10000011 "
b1011111 !
b10000111 "
b10000101 "
07
1=
0<
10
1:
1;
1C
0A
1B
09
0E
0D
0$
1%
#470000
b1011110 !
b11110 !
b11000101 "
b1110 !
b11100101 "
b1100 !
b10001100 !
b10101100 !
b10100100 !
b11101101 "
1<
11
1/
06
08
0;
04
1-
02
1.
0C
0B
#475000
b11111101 "
b11111100 "
b11111000 "
b11111010 "
b10100101 !
b11100101 !
b10111010 "
b10011010 "
b11100111 !
b11000111 !
b11001111 !
16
18
1;
0-
12
05
17
0=
1?
01
0/
1A
1C
1B
1E
1D
1$
0%
#480000
b11010 "
b11001011 !
b11011011 !
b10010 "
b10 "
b10011011 !
b10011001 !
08
0:
14
02
0<
0?
00
0B
#485000
b11001 !
b11 "
b111 "
b100111 "
b1001 !
b101111 "
b1001001 !
b1001011 !
15
1=
1<
11
18
04
12
0.
19
0C
#490000
b101101 "
b1001010 !
b1101101 "
b1101010 !
b11101101 "
b11111101 "
b11101010 !
b11011101 "
b11111010 !
b10111010 !
06
14
1-
02
1.
07
1?
01
1/
10
0A
1B
09
0E
0D
0$
1%
#495000
b10111110 !
b11011001 "
b11010001 "
b11010011 "
b10111111 !
b10011111 !
b11000011 "
17
0=
0<
0?
16
1:
0-
1C
0B
19
#500000
b10010111 !
b11000010 "
b10010101 !
b10000010 "
b10 "
b11010101 !
b11010001 !
b110 "
b10110 "
05
1=
1?
0/
00
08
0:
0;
12
1A
0C
09
1E
1D
1$
0%
#505000
b1010001 !
b110110 "
b1010000 !
b1110000 !
b1110110 "
b1110100 !
b1110010 "
0=
11
1/
06
1:
1-
0.
0A
13
1C
#510000
b1100100 !
b1111010 "
b1101100 !
b1111011 "
b1101011 "
b1001100 !
15
1<
0?
1;
04
0-
03
0E
0D
0$
1%
#515000
b1101001 "
b11101001 "
b1001101 !
b10101001 "
b10101101 "
b1011101 !
b10100101 "
b10100100 "
b10110100 "
b1111101 !
16
14
1-
05
07
1=
0<
1?
0/
10
1B
#520000
b1111111 !
b111111 !
b10010100 "
b111011 !
b110011 !
b10010110 "
b11010110 "
b11011110 "
17
1<
01
1/
18
0:
0;
02
0C
#525000
b10110011 !
b1011110 "
b10110010 !
b1011010 "
b10100010 !
b1001010 "
b10000010 !
b10000000 !
b11000000 !
b1101010 "
b11001000 !
0=
0?
11
00
06
08
1;
04
0-
12
1.
1A
1C
1>
0B
0C
1E
1D
1$
0%
#530000
b1101000 "
b1001000 !
b1001001 !
b1111000 "
b1001 !
b1011000 "
16
02
0.
07
1?
01
0A
1B
1C
0E
0D
0$
1%
#535000
b1011001 "
b11001 "
b10001 "
b10010001 "
b10010101 "
b1 !
b10010111 "
b10000001 !
b10000111 "
0;
1.
15
17
1=
0<
0?
0/
10
13
0C
0>
0B
#540000
b10010001 !
b10110001 !
b10110000 !
b10100111 "
b100111 "
b10111000 !
11
00
06
1;
14
1-
1A
03
1E
1C
1D
1$
0%
#545000
b10111100 !
b11111100 !
b101111 "
b101011 "
b1111100 !
b1101100 !
b1001100 !
b1011 "
0=
1<
01
1:
04
0-
12
0.
#550000
b1001011 "
b1001001 "
b11001001 "
b1000100 !
b100 !
b100100 !
b11101001 "
0;
1-
02
07
11
1/
10
0A
0C
0E
0D
0$
1%
#555000
b100110 !
b11101000 "
b100010 !
b11101100 "
b110010 !
b10101100 "
b10101110 "
b101110 "
b1110010 !
b1110 "
05
17
1=
01
0/
00
18
0:
14
12
1A
19
1E
1D
1$
0%
#560000
b110 "
b11110010 !
b11111010 !
b11011010 !
b11011000 !
b111 "
b11011100 !
b11001100 !
b10000111 "
b10001100 !
08
1:
1;
04
0-
02
1.
15
0<
10
0A
13
1C
09
#565000
b10000101 "
b10100101 "
b10101100 !
b10111100 !
14
1-
07
11
#570000
b10100001 "
b11100001 "
b11101001 "
b111100 !
b1101001 "
b1101011 "
b101100 !
04
0.
17
0=
1<
1/
00
03
0E
0D
0$
1%
#575000
b1111011 "
b100100 !
b100110 !
b100010 !
b10 !
b1111001 "
18
0:
0;
0-
07
1?
1B
0C
#580000
b11 !
b1111000 "
b1111100 "
b11111100 "
b11101100 "
b1011 !
b1111 !
b101111 !
05
1=
0?
10
16
1:
1;
1-
1C
1>
#585000
b1101111 !
b11001100 "
b11000100 "
b11101111 !
b11101110 !
b11101010 !
0<
01
06
0:
12
1.
1A
0>
1E
1D
1$
0%
#590000
b11000101 "
b11000001 "
b1000001 "
b1001001 "
b11101011 !
16
15
0=
1<
00
1>
#595000
b1001 "
b11101001 !
b1011 "
b11011 "
b11001001 !
b10001001 !
b1001 !
b11010 "
b11110 "
08
0-
02
0.
05
17
1=
1?
0/
0A
13
0C
0>
0B
0E
0D
0$
1%
#600000
b11001 !
b10001 !
b111110 "
b10101 !
b10111110 "
b10111100 "
b110101 !
b10111101 "
15
07
11
10
1:
0;
14
1-
03
19
#605000
b10110101 "
b11110101 "
b110111 !
b11100101 "
b1110111 !
b1100111 !
b1100101 "
b1100111 "
b1000111 !
18
04
0-
12
17
0<
0?
1/
00
1>
#610000
b1001111 !
b1001011 !
b1100110 "
b1101110 "
b101110 "
b1001001 !
b1001 !
b11001 !
b10101110 "
b10101100 "
b111001 !
05
07
1<
0/
10
08
0:
1;
14
1-
02
0>
1B
09
#615000
b10111001 !
b10111100 "
b10111101 !
b10111101 "
b10110101 "
b10111111 !
b10101111 !
15
0<
1?
18
1:
04
1.
13
1C
#620000
b10110001 "
b10010001 "
b10100111 !
b11010001 "
b11100111 !
b1100111 !
b11000001 "
b11001001 "
b1100101 !
b1110101 !
08
0;
14
12
0.
0=
1<
0?
01
1/
03
1E
0C
0B
19
1D
1$
0%
0E
0D
0$
1%
#625000
b1110100 !
b1110000 !
b11001000 "
b1111000 !
b111000 !
b10111000 !
b11011000 "
b11010000 "
b10101000 !
05
0<
1?
06
0:
1;
04
02
1.
1C
#630000
b11010010 "
b10001000 !
b10001010 !
b10001011 !
b10001111 !
b10000111 !
b111 !
b11000010 "
16
18
1:
0;
0-
0.
17
0?
1B
09
#635000
b1000010 "
b1100010 "
b100010 "
b100011 "
b1000111 !
b101011 "
b101001 "
b1100111 !
b11100111 !
b111001 "
1-
12
1.
15
07
1<
1?
11
0/
00
1A
0C
1E
1D
1$
0%
#640000
b111101 "
b11100110 !
b11101110 !
b10101110 !
b10001110 !
b1110 !
06
1;
0-
02
0.
1=
1C
1>
0A
0E
0D
0$
1%
#645000
b1010 !
b111100 "
b110100 "
b110110 "
b100110 "
b10 !
b1000010 !
b1100010 !
05
17
0<
0?
0:
0;
1-
12
1A
0C
0>
0B
19
1E
1D
1$
0%
#650000
b10100110 "
b10000110 "
b10000010 "
b1100011 !
b11100011 !
b10000011 "
b10010011 "
b10100011 !
b10000011 !
16
0-
02
1.
15
0=
1?
01
10
0A
13
1>
0E
0D
0$
1%
#655000
b11010011 "
b10000111 !
b11011011 "
b1011011 "
b1111011 "
b1111111 "
b1101111 "
b11000111 !
b11100111 !
1:
1-
12
1=
1<
0?
11
1/
00
1A
03
0>
1@
1#
1E
0@
0#
0%
1D
1$
#660000
b11101111 !
b11101110 !
b1101110 !
b1101110 "
b1101010 "
b1111010 "
05
0=
1?
06
1;
0.
0A
13
1C
0E
0D
0$
1%
#665000
b1111110 !
b1111100 !
b111010 "
b111100 !
b11100 !
b111110 "
b101110 "
1=
0?
0/
08
14
0-
02
03
1E
09
0C
1>
1D
1$
0%
0E
0D
0$
1%
#670000
b101100 "
b11000 !
b100100 "
b10011000 !
b10001000 !
b10001010 !
18
0:
04
1.
07
0<
1C
0>
1B
1A
1E
1D
1$
0%
#675000
b100 "
b10000010 !
b101 "
b1000101 "
b10100010 !
b1000001 "
b100010 !
0;
1-
0.
15
0=
01
1/
0A
1>
0E
0D
0$
1%
#680000
b1100010 !
b1001001 "
b1101010 !
b1001 "
b1001010 !
b1101 "
b11001010 !
1=
1<
0/
1;
0-
12
1.
1A
0C
0>
1E
1D
1$
0%
#685000
b10001101 "
b10011101 "
b11011010 !
b11011000 !
b10111101 "
b10111100 "
b10110100 "
b11110100 "
b11111000 !
b1111000 !
08
14
1-
0.
05
0<
1?
11
1/
10
0A
1C
0B
19
0E
0D
0$
1%
#690000
b1110000 !
b1110100 "
b1100100 "
b1100000 !
b1100010 !
b1000100 "
b1000101 "
b101 "
15
0?
01
0/
00
18
0;
04
0C
1B
09
1A
1E
1D
1$
0%
#695000
b1100110 !
b11100110 !
b11101110 !
b10101 "
b1010101 "
1?
1/
1:
1;
1.
1C
#700000
b11101111 !
b10101111 !
b1010001 "
b10001111 !
b11010001 "
b10011111 !
b10010001 "
0=
0/
10
16
14
0-
02
0A
13
#705000
b10011001 "
b10011101 !
b10011000 "
b10011001 !
b10011000 !
b10111000 !
b10101000 !
b11011000 "
06
08
0:
04
1-
05
1<
1/
03
1>
0B
19
0E
0D
0$
1%
0C
#710000
b11011010 "
b101000 !
b11001010 "
b1001010 "
b1000010 "
0.
17
0<
0?
00
1C
0>
09
#715000
b100000 !
b1000110 "
b100010 !
b1000111 "
b100011 !
b111 "
b10111 "
b11111 "
15
1=
1<
1?
0/
16
18
0;
0C
19
1A
1E
1D
1$
0%
#720000
b111111 "
b100111 !
b111101 "
b101111 !
b111001 "
b101001 "
1:
1;
07
0=
0?
11
0A
13
1C
1B
09
#725000
b1111 !
b11111 !
b10101001 "
b11101 !
b10101000 "
b10001000 "
b11001 !
05
01
10
08
0:
14
0-
03
1>
0E
0D
0$
1%
#730000
b1011001 !
b11001000 "
b11000000 "
b1010001 !
b11000100 "
b1110001 !
b1110011 !
b11000101 "
b1110111 !
15
1=
0<
1/
18
1:
0;
1-
12
#735000
b11110111 !
b11100111 !
b11100101 "
b10100111 !
b10100101 "
b10101101 "
b10000111 !
b10000101 !
b10101100 "
b10000001 !
05
1<
11
0/
08
0:
04
0-
02
1.
0C
0>
#740000
b10000000 !
b10101110 "
b10111110 "
b10010000 !
b10010010 !
b10111111 "
b10010110 !
15
17
1?
06
18
1:
14
0B
#745000
b111111 "
b111011 "
b11010110 !
b11110110 !
b11110111 !
b101011 "
b11100111 !
b11100101 !
b11100001 !
16
08
0:
04
1-
12
0=
0?
00
1A
1E
1D
1$
0%
#750000
b1100001 !
b1011 "
b1001011 "
b1001010 "
b11001010 "
b100001 !
b1 !
b0 !
b11011010 "
b100 !
05
1?
01
1/
10
06
1:
0-
02
0.
0A
0E
0D
0$
1%
